fold 1,,,,,,,,,,,
NFE, Elapsed Time, R1Indicator, AdditiveEpsilonIndicator, R2Indicator, GenerationalDistance, Hypervolume, Spacing, R3Indicator, InvertedGenerationalDistance, Population Size, Contribution
1000,342.4206412,0.997005988,57.06114051,-0.085751609,16.70209272,0,0.041631363,-0.139256504,64.52238884,200,0
NFE, Elapsed Time, R1Indicator, AdditiveEpsilonIndicator, R2Indicator, GenerationalDistance, Hypervolume, Spacing, R3Indicator, InvertedGenerationalDistance, Population Size, Contribution
1000,373.9231473,0.996007984,49.91891892,-0.08983805,15.93639194,0,0.057554983,-0.14668702,61.52609879,200,0
NFE, Elapsed Time, R1Indicator, AdditiveEpsilonIndicator, R2Indicator, GenerationalDistance, Hypervolume, Spacing, R3Indicator, InvertedGenerationalDistance, Population Size, Contribution
1000,329.4618438,0.998003992,50.72972973,-0.090890246,16.15531379,0,0.067301231,-0.147490977,63.7379295,200,0
NFE, Elapsed Time, R1Indicator, AdditiveEpsilonIndicator, R2Indicator, GenerationalDistance, Hypervolume, Spacing, R3Indicator, InvertedGenerationalDistance, Population Size, Contribution
1000,336.8897221,0.998003992,51.27027027,-0.088795583,14.09530271,0,0.028104118,-0.145013783,62.52723377,200,0
NFE, Elapsed Time, R1Indicator, AdditiveEpsilonIndicator, R2Indicator, GenerationalDistance, Hypervolume, Spacing, R3Indicator, InvertedGenerationalDistance, Population Size, Contribution
1000,313.2671413,0.998003992,48.21928277,-0.09245601,15.61341234,0,0.038030914,-0.151815748,59.39943435,200,0
,,,,,,,,,,,
fold 2,,,,,,,,,,,
NFE, Elapsed Time, R1Indicator, AdditiveEpsilonIndicator, R2Indicator, GenerationalDistance, Hypervolume, Spacing, R3Indicator, InvertedGenerationalDistance, Population Size, Contribution
1000,329.1381501,0.997005988,46.95851216,-0.089836968,15.43143006,0,0.063576596,-0.146949768,63.46327262,200,0
NFE, Elapsed Time, R1Indicator, AdditiveEpsilonIndicator, R2Indicator, GenerationalDistance, Hypervolume, Spacing, R3Indicator, InvertedGenerationalDistance, Population Size, Contribution
1000,331.0379231,0.997005988,48.21030043,-0.084006192,15.38532802,0,0.030877493,-0.138802557,60.20393076,200,0
NFE, Elapsed Time, R1Indicator, AdditiveEpsilonIndicator, R2Indicator, GenerationalDistance, Hypervolume, Spacing, R3Indicator, InvertedGenerationalDistance, Population Size, Contribution
1000,363.859847,0.997005988,48.63231198,-0.091574422,15.17204342,0,0.043239201,-0.149552785,61.69190373,200,0
NFE, Elapsed Time, R1Indicator, AdditiveEpsilonIndicator, R2Indicator, GenerationalDistance, Hypervolume, Spacing, R3Indicator, InvertedGenerationalDistance, Population Size, Contribution
1000,305.2354404,0.996007984,45.56824513,-0.090124196,15.30860339,0,0.062759325,-0.147336636,62.20520721,200,0
NFE, Elapsed Time, R1Indicator, AdditiveEpsilonIndicator, R2Indicator, GenerationalDistance, Hypervolume, Spacing, R3Indicator, InvertedGenerationalDistance, Population Size, Contribution
1000,325.6280609,0.998003992,49.16404387,-0.088286377,15.49449096,0,0.046067859,-0.144489752,61.63992657,200,0
,,,,,,,,,,,
,,,,,,,,,,,
,,,,,,,,,,,
fold 3,,,,,,,,,,,
NFE, Elapsed Time, R1Indicator, AdditiveEpsilonIndicator, R2Indicator, GenerationalDistance, Hypervolume, Spacing, R3Indicator, InvertedGenerationalDistance, Population Size, Contribution
1000,327.0529441,0.997005988,48.09746775,-0.090109029,15.04339403,0,0.04326156,-0.147157529,64.34459464,200,0
NFE, Elapsed Time, R1Indicator, AdditiveEpsilonIndicator, R2Indicator, GenerationalDistance, Hypervolume, Spacing, R3Indicator, InvertedGenerationalDistance, Population Size, Contribution
1000,345.5286479,0.998003992,50.02388915,-0.095235215,13.38398415,0,0.033177823,-0.154575263,63.14234981,200,0
NFE, Elapsed Time, R1Indicator, AdditiveEpsilonIndicator, R2Indicator, GenerationalDistance, Hypervolume, Spacing, R3Indicator, InvertedGenerationalDistance, Population Size, Contribution
1000,320.1596583,0.997005988,53.23363593,-0.087834668,16.17118038,0,0.040125766,-0.14299574,63.84479713,200,0
NFE, Elapsed Time, R1Indicator, AdditiveEpsilonIndicator, R2Indicator, GenerationalDistance, Hypervolume, Spacing, R3Indicator, InvertedGenerationalDistance, Population Size, Contribution
1000,357.3814552,0.997005988,47.5480172,-0.089207796,13.48802838,0,0.042898409,-0.146423998,62.82507771,200,0
NFE, Elapsed Time, R1Indicator, AdditiveEpsilonIndicator, R2Indicator, GenerationalDistance, Hypervolume, Spacing, R3Indicator, InvertedGenerationalDistance, Population Size, Contribution
1000,305.2469482,0.996007984,51.80645161,-0.084482044,14.66730557,0,0.044854379,-0.138747382,63.84659153,200,0
,,,,,,,,,,,
fold 4,,,,,,,,,,,
NFE, Elapsed Time, R1Indicator, AdditiveEpsilonIndicator, R2Indicator, GenerationalDistance, Hypervolume, Spacing, R3Indicator, InvertedGenerationalDistance, Population Size, Contribution
1000,512.7947923,0.997005988,45.59459459,-0.087976256,15.38016632,0,0.046684312,-0.144113067,62.22736851,200,0
NFE, Elapsed Time, R1Indicator, AdditiveEpsilonIndicator, R2Indicator, GenerationalDistance, Hypervolume, Spacing, R3Indicator, InvertedGenerationalDistance, Population Size, Contribution
1000,413.6294674,0.997005988,46.78890619,-0.091586218,13.73766864,0,0.041596174,-0.149717362,61.50943523,200,0
NFE, Elapsed Time, R1Indicator, AdditiveEpsilonIndicator, R2Indicator, GenerationalDistance, Hypervolume, Spacing, R3Indicator, InvertedGenerationalDistance, Population Size, Contribution
1000,368.9665253,0.996007984,50.45945946,-0.088153599,13.52690988,0,0.033541216,-0.145494032,62.5158653,200,0
NFE, Elapsed Time, R1Indicator, AdditiveEpsilonIndicator, R2Indicator, GenerationalDistance, Hypervolume, Spacing, R3Indicator, InvertedGenerationalDistance, Population Size, Contribution
1000,310.3032426,0.997005988,46.94594595,-0.087978806,14.38816322,0,0.043964853,-0.144688857,63.48034361,200,0
NFE, Elapsed Time, R1Indicator, AdditiveEpsilonIndicator, R2Indicator, GenerationalDistance, Hypervolume, Spacing, R3Indicator, InvertedGenerationalDistance, Population Size, Contribution
1000,316.9921347,0.997005988,48.64864865,-0.091935935,13.94430193,0,0.044534148,-0.150340887,62.43027426,200,0
,,,,,,,,,,,
FOLD 5,,,,,,,,,,,
NFE, Elapsed Time, R1Indicator, AdditiveEpsilonIndicator, R2Indicator, GenerationalDistance, Hypervolume, Spacing, R3Indicator, InvertedGenerationalDistance, Population Size, Contribution
1000,347.7231796,0.997005988,53.63157895,-0.089144139,15.82900746,0,0.029663669,-0.145530992,62.43432976,200,0
NFE, Elapsed Time, R1Indicator, AdditiveEpsilonIndicator, R2Indicator, GenerationalDistance, Hypervolume, Spacing, R3Indicator, InvertedGenerationalDistance, Population Size, Contribution
1000,328.0443186,0.998003992,51.86083214,-0.083926026,15.6878998,0,0.040607044,-0.138163152,64.77823831,200,0
NFE, Elapsed Time, R1Indicator, AdditiveEpsilonIndicator, R2Indicator, GenerationalDistance, Hypervolume, Spacing, R3Indicator, InvertedGenerationalDistance, Population Size, Contribution
1000,288.6133283,0.997005988,47.00669536,-0.090396597,12.02653102,0,0.026816611,-0.147612758,64.493808,200,0
NFE, Elapsed Time, R1Indicator, AdditiveEpsilonIndicator, R2Indicator, GenerationalDistance, Hypervolume, Spacing, R3Indicator, InvertedGenerationalDistance, Population Size, Contribution
1000,296.4829665,0.997005988,48.36842105,-0.088505049,15.5180392,0,0.056596082,-0.145371267,62.14962842,200,0
NFE, Elapsed Time, R1Indicator, AdditiveEpsilonIndicator, R2Indicator, GenerationalDistance, Hypervolume, Spacing, R3Indicator, InvertedGenerationalDistance, Population Size, Contribution
1000,317.0040993,0.998003992,48.36842105,-0.089917034,13.42084817,0,0.03572848,-0.146720458,64.5584417,200,0
,,,,,,,,,,,
fold 6,,,,,,,,,,,
NFE, Elapsed Time, R1Indicator, AdditiveEpsilonIndicator, R2Indicator, GenerationalDistance, Hypervolume, Spacing, R3Indicator, InvertedGenerationalDistance, Population Size, Contribution
1000, 298.565388755, 0.998003992015968, 47.49859943977591, -0.08963706176591169, 12.36049841178698, 0.0, 0.025707432809841297, -0.14646698606684047, 61.78562847139992, 200, 0.0
NFE, Elapsed Time, R1Indicator, AdditiveEpsilonIndicator, R2Indicator, GenerationalDistance, Hypervolume, Spacing, R3Indicator, InvertedGenerationalDistance, Population Size, Contribution
1000, 328.518504112, 0.9960079840319361, 51.98039215686274, -0.09310383059330807, 15.00830414696459, 0.0, 0.04567897309528079, -0.15092599111213553, 61.62445815184327, 200, 0.0
NFE, Elapsed Time, R1Indicator, AdditiveEpsilonIndicator, R2Indicator, GenerationalDistance, Hypervolume, Spacing, R3Indicator, InvertedGenerationalDistance, Population Size, Contribution
1000, 302.671024686, 0.9970059880239521, 50.85994397759104, -0.08603191425254941, 14.608243939062797, 0.0, 0.03399640658461315, -0.14082671975428018, 64.29342784403929, 200, 0.0
NFE, Elapsed Time, R1Indicator, AdditiveEpsilonIndicator, R2Indicator, GenerationalDistance, Hypervolume, Spacing, R3Indicator, InvertedGenerationalDistance, Population Size, Contribution
1000, 295.27259906700004, 0.9970059880239521, 50.299719887955185, -0.08895683783032393, 16.406571028353294, 0.0, 0.05109423177597761, -0.1454402995296399, 63.28721871662467, 200, 0.0
NFE, Elapsed Time, R1Indicator, AdditiveEpsilonIndicator, R2Indicator, GenerationalDistance, Hypervolume, Spacing, R3Indicator, InvertedGenerationalDistance, Population Size, Contribution
1000, 293.576344124, 0.9970059880239521, 56.29256277784453, -0.08175992833438195, 16.995830905932106, 0.0, 0.05937626975063345, -0.1323031792641706, 63.91745276605005, 200, 0.0
NFE, Elapsed Time, R1Indicator, AdditiveEpsilonIndicator, R2Indicator, GenerationalDistance, Hypervolume, Spacing, R3Indicator, InvertedGenerationalDistance, Population Size, Contribution
1000, 318.467080257, 0.9960079840319361, 48.61904761904761, -0.08433162995073784, 17.45421540632567, 0.0, 0.038022518778416815, -0.1398052106166515, 60.924807863238215, 200, 0.0