

Results of fold 4 Cross Validation
index,Rule,training hit,training dismiss,training F-Measure,testing hit,testing dismiss,testing f-measure
1.0,R0: If (((Top Chg Len >= X%>0.9) AND ((((New Func >= X>92.51) OR (Del Func >= X>5956.03)) OR (Del Func >= X>392.55)) AND ((Top Chg Len >= X%<0.3) OR (Del Func >= X<6253.31)))) AND ((New Func >= X<1347.54) AND (Del Func >= X<4443.61))) ,0.5,0.35677488918174194,0.4164161364748654,0.4516129032258064,0.5180572851805728,0.482558621261082,
2.0,R1: If ((Top Chg Len >= X%>0.37) AND ((Top Reached Chg Len >= X%<0.92) OR ((Top Chg Len >= X%>0.85) AND ((Top Chg Len >= X%<0.77) OR ((Top Chg Len >= X%>0.16) AND (Top > X% by Call Chg by >= 10%>35.63)))))) ,0.5540540540540541,0.3051395711033904,0.3935406676025287,0.5806451612903226,0.5404732254047323,0.5598394725526731,
3.0,R2: If ((Del Func >= X<5798.12) AND (New Func >= X>10.92)) ,0.3648648648648649,0.4945489397388283,0.41992234963011527,0.5161290322580645,0.43711083437110837,0.47334485229044637,
4.0,R3: If ((Top Chg Len >= X%>0.37) AND ((Top Reached Chg Len >= X%<0.92) OR ((Top Chg Len >= X%<0.85) AND ((Top Chg Len >= X%<0.77) OR ((Top Chg Len >= X%>0.16) AND (Top > X% by Call Chg by >= 10%>35.63)))))) ,0.5621621621621622,0.3031029112255901,0.3938515332997041,0.5806451612903226,0.5404732254047323,0.5598394725526731,
5.0,R4: If ((Del Func >= X<2810.78) AND (((Top Chg Len >= X%>0.88) OR (((Top Chg Len >= X%>0.15) OR (Reached Del Func >= X>262.76)) AND (Top Reached Chg Len >= X%>0.85))) OR (Top Chg by Call >= X%>18.32))) ,0.31081081081081086,0.5575655924284174,0.3991297165985865,0.6129032258064516,0.3648816936488169,0.4574363188167625,
6.0,R5: If (((Top Chg by Call >= X%>31.92) AND ((Del Func >= X>1210.65) OR ((Top Chg by Call >= X%>28.65) OR ((Top Chg by Call >= X%>39.19) OR (Del Func >= X>4560.3))))) OR ((Top > X% by Call Chg by >= 10%>40.24) OR (New Func >= X>83.84))) ,0.48108108108108105,0.3880436084820894,0.4295826385256516,0.5161290322580645,0.4782067247820672,0.4964447317388494,
7.0,R6: If (((((Top > X% by Call Chg by >= 10%>12.92) AND ((Del Func >= X>4458.31) OR (Top Chg Len >= X%>0.95))) AND (New Func >= X<2163.72)) OR ((Top Chg Len >= X%>0.14) AND (((Top > X% by Call Chg by >= 10%<1.85) AND (Reached Del Func >= X<232.36)) OR ((New Func >= X>1253.73) AND (Top > X% by Call Chg by >= 10%>18.86))))) AND (Top Chg Len >= X%>0.55)) ,0.35945945945945945,0.5108422187612316,0.42198486437577365,0.7096774193548387,0.386052303860523,0.5000733245343891,
8.0,R7: If (((Top Chg by Call >= X%>31.92) AND ((Del Func >= X>1210.65) OR ((Top Chg by Call >= X%>28.65) AND ((Top Chg by Call >= X%>39.19) OR (Del Func >= X>4560.3))))) OR ((Top > X% by Call Chg by >= 10%>40.24) OR (New Func >= X>83.84))) ,0.48378378378378384,0.38780400143764227,0.4305092163133781,0.5161290322580645,0.4782067247820672,0.4964447317388494,
9.0,R8: If (((((Reached Del Func >= X<226.42) OR ((Top Chg Len >= X%>0.05) OR (Reached Del Func >= X>184.59))) AND (((New Func >= X<2147.8) AND (Del Func >= X<5012.03)) OR (Top Chg by Call >= X%>34.04))) AND (Top Chg Len >= X%>0.94)) OR ((Top Chg Len >= X%<0.46) AND ((Del Func >= X<434.21) AND ((Top > X% by Call Chg by >= 10%<31.27) AND (Reached Del Func >= X>136.53))))) ,0.3189189189189189,0.5527734515394753,0.4044773535859763,0.6129032258064516,0.35242839352428396,0.44752392842280486,
10.0,R9: If ((Top > X% by Call Chg by >= 10%<33.04) AND (((Del Func >= X<4704.88) OR ((Reached Del Func >= X>227.58) OR ((Top Reached Chg Len >= X%<0.03) AND (Del Func >= X<3961.05)))) AND (((Reached Del Func >= X>23.22) AND ((Reached Del Func >= X>156.2) AND (Top Reached Chg Len >= X%>0.16))) OR (New Func >= X>71.28)))) ,0.4648648648648649,0.40697256499341083,0.4339966143920279,0.5161290322580645,0.4782067247820672,0.4964447317388494,
11.0,R10: If (((((Reached Del Func >= X<226.42) OR ((Top Chg Len >= X%>0.05) OR (Reached Del Func >= X>184.59))) OR (((New Func >= X<2147.8) AND (Del Func >= X<5012.03)) OR (Top Chg by Call >= X%>5.62))) AND (Top Chg Len >= X%>0.94)) OR ((Top Chg Len >= X%<0.46) AND ((Del Func >= X<434.21) AND ((Top > X% by Call Chg by >= 10%<31.27) AND (Reached Del Func >= X>136.53))))) ,0.3162162162162162,0.5567269677728526,0.4033391827637279,0.6129032258064516,0.35242839352428396,0.44752392842280486,
12.0,R11: If (((Del Func >= X>180.57) OR (Top Chg Len >= X%>0.53)) AND ((Top > X% by Call Chg by >= 10%>10.09) OR (Top Chg Len >= X%>0.1))) ,0.30810810810810807,0.5693063376063257,0.39982906474947577,0.7096774193548387,0.3412204234122042,0.4608562691131498,
13.0,R12: If ((Top Chg by Call >= X%>6.14) OR (Top Chg Len >= X%>0.42)) ,0.3027027027027027,0.5818857074397987,0.39823803768291854,0.7096774193548387,0.3412204234122042,0.4608562691131498,
14.0,R13: If ((New Func >= X>151.74) OR ((Top Reached Chg Len >= X%<0.11) AND ((Top > X% by Call Chg by >= 10%>21.92) AND ((Del Func >= X>2179.34) AND (Del Func >= X>1722.6))))) ,0.6324324324324324,0.2608122678806757,0.36931903861545773,0.3225806451612903,0.7036114570361146,0.4423566255627324,
15.0,R14: If ((New Func >= X>151.74) OR ((Top > X% by Call Chg by >= 10%>10.09) OR (Top Chg Len >= X%>0.31))) ,0.2945945945945946,0.599257218162214,0.3950049319649651,0.7096774193548387,0.3262764632627647,0.4470296261827207,
16.0,R15: If ((Del Func >= X<881.54) AND (New Func >= X>10.92)) ,0.4513513513513514,0.4436324427938182,0.44745861068812215,0.5161290322580645,0.4782067247820672,0.4964447317388494,
17.0,R16: If ((Top > X% by Call Chg by >= 10%>7.99) OR (New Func >= X>172.39)) ,0.6513513513513514,0.24380016772493107,0.35479930564422696,0.3225806451612903,0.7173100871731009,0.44502820057173764,
18.0,R17: If ((Reached Del Func >= X<16.7) AND ((((Top > X% by Call Chg by >= 10%>25.68) AND ((Del Func >= X>4458.31) OR (Top Chg Len >= X%>0.95))) AND (New Func >= X<2163.72)) OR ((Top Chg Len >= X%>0.14) AND (((Top > X% by Call Chg by >= 10%<1.85) AND (Reached Del Func >= X<232.36)) OR ((New Func >= X>1253.73) AND (Top > X% by Call Chg by >= 10%>18.86)))))) ,0.34864864864864864,0.5481011141727568,0.4261940637216724,0.8387096774193549,0.3374844333748443,0.4813005908671744,
19.0,R18: If (((Del Func >= X>180.57) OR (Top Chg Len >= X%<0.53)) AND ((Top > X% by Call Chg by >= 10%>10.09) OR (Top Chg Len >= X%>0.65))) ,0.6702702702702703,0.22858512040253987,0.34090869793257683,0.2258064516129032,0.7285180572851806,0.34475500926081826,
20.0,R19: If ((Reached Del Func >= X<62.43) AND (New Func >= X>172.39)) ,0.6675675675675676,0.2330178507248113,0.3454534276229714,0.3225806451612903,0.7222914072229141,0.44598231449442527,
21.0,R20: If ((Top Chg Len >= X%>0.17) AND (((Top > X% by Call Chg by >= 10%<23.28) OR (((Top Reached Chg Len >= X%>0.05) AND (New Func >= X>2175.81)) OR ((Top Chg Len >= X%<0.56) AND (Top Reached Chg Len >= X%<0.11)))) OR (Top Reached Chg Len >= X%>0.73))) ,0.28918918918918923,0.61531089014017,0.39345769333895125,0.8064516129032258,0.2851805728518057,0.4213586516523147,


Results of fold 4 Cross Validation
index,Rule,training hit,training dismiss,training F-Measure,testing hit,testing dismiss,testing f-measure
1.0,R0: If (((((Reached Del Func >= X<188.04) OR ((Del Func >= X<2996.97) AND (Top > X% by Call Chg by >= 10%<5.79))) AND ((Top Reached Chg Len >= X%<0.37) OR ((Top Chg Len >= X%<0.39) AND (Top Chg by Call >= X%<7.73)))) OR (Top Reached Chg Len >= X%<0.33)) AND (Top Chg Len >= X%>0.91)) ,0.6189189189189189,0.223433568946927,0.32833585686483213,0.4838709677419355,0.613947696139477,0.5412031615925058,
2.0,R1: If ((Del Func >= X<4408.07) AND ((Top Chg Len >= X%>0.93) AND ((((Reached Del Func >= X<147.1) AND (Top Reached Chg Len >= X%<0.82)) OR (Del Func >= X>5937.15)) OR ((Reached Del Func >= X<72.43) AND ((Top Reached Chg Len >= X%>0.16) AND (Reached Del Func >= X>270.69)))))) ,0.5810810810810811,0.26907871091410085,0.3678286122351821,0.4838709677419355,0.5691158156911582,0.5230428811231497,
3.0,R2: If ((Del Func >= X<4284.9) AND ((((Top Reached Chg Len >= X%>0.37) OR ((New Func >= X>2234.45) AND (New Func >= X>77.68))) OR ((Top Chg Len >= X%>0.32) AND ((Top > X% by Call Chg by >= 10%<35.33) OR (Top > X% by Call Chg by >= 10%<40.25)))) AND ((Top Reached Chg Len >= X%<0.45) OR ((Top > X% by Call Chg by >= 10%>29.88) OR (Del Func >= X>2896.26))))) ,0.5756756756756757,0.2748292799808314,0.372043761523529,0.5806451612903226,0.5691158156911582,0.5748226826456099,
4.0,R3: If (((Reached Del Func >= X<24.92) AND (Top Reached Chg Len >= X%<0.68)) AND (Top Chg Len >= X%>0.62)) ,0.5783783783783784,0.2730322271474781,0.3709513030673652,0.4838709677419355,0.5691158156911582,0.5230428811231497,
5.0,R4: If ((Top Chg Len >= X%>0.62) AND ((Top Reached Chg Len >= X%<0.93) AND (New Func >= X<1833.14))) ,0.5729729729729729,0.28237690188091535,0.37831146698242846,0.4838709677419355,0.5666251556662516,0.5219885277246654,
6.0,R5: If ((New Func >= X>16.23) OR (Top Chg by Call >= X%>32.69)) ,0.3783783783783784,0.4794536959386606,0.4229613636706778,0.5161290322580645,0.45205479452054786,0.4819717024189867,
7.0,R6: If ((New Func >= X>16.23) OR (Top Chg by Call >= X%>38.87)) ,0.3810810810810811,0.47921408889421346,0.42455061806365024,0.5161290322580645,0.45205479452054786,0.4819717024189867,
8.0,R7: If (((New Func >= X>18.75) OR ((((Top Chg by Call >= X%>10.36) OR (Del Func >= X>68.77)) OR ((Top Chg by Call >= X%>36.36) AND (Top Chg by Call >= X%<31.44))) AND (((Top Reached Chg Len >= X%<0.22) AND (Top Reached Chg Len >= X%<0.81)) OR ((Top > X% by Call Chg by >= 10%>1.34) AND (Top Reached Chg Len >= X%>0.66))))) AND ((Top Chg Len >= X%>0.4) OR (Del Func >= X>5268.48))) ,0.39729729729729735,0.4714268599496825,0.4311992840740391,0.5161290322580645,0.4508094645080946,0.4812629829663481,
9.0,R8: If ((Del Func >= X<1679.2) AND (Top Chg Len >= X%>0.7)) ,0.31081081081081086,0.5585240206062059,0.39937501047546514,0.6129032258064516,0.3648816936488169,0.4574363188167625,
10.0,R9: If ((Del Func >= X<4408.07) AND ((Top Chg Len >= X%>0.93) AND ((((Reached Del Func >= X<147.1) AND (Top Reached Chg Len >= X%<0.82)) AND (Del Func >= X>5937.15)) OR ((Reached Del Func >= X<72.43) OR ((Top Reached Chg Len >= X%>0.16) AND (Reached Del Func >= X>270.69)))))) ,0.3162162162162162,0.5539714867617108,0.4026137506562842,0.6129032258064516,0.3574097135740971,0.4515194170737766,
11.0,R10: If ((Del Func >= X<4408.07) AND ((Top Chg Len >= X%>0.93) AND ((((Reached Del Func >= X<147.1) AND (Top Reached Chg Len >= X%<0.82)) AND (Del Func >= X>5937.15)) OR (((Top Chg by Call >= X%<13.59) AND (Del Func >= X<418.05)) AND ((Reached Del Func >= X<147.1) AND (Top Reached Chg Len >= X%<0.82)))))) ,0.6135135135135135,0.2567389481250749,0.3619933779294328,0.4838709677419355,0.5828144458281445,0.52875381312846,
12.0,R11: If (((((Reached Del Func >= X<188.04) OR ((Del Func >= X<2996.97) AND (Top > X% by Call Chg by >= 10%<5.79))) AND ((Top Reached Chg Len >= X%<0.37) OR ((Top Reached Chg Len >= X%>0.57) OR (Reached Del Func >= X>235.4)))) OR (Top Reached Chg Len >= X%<0.33)) AND (Top Chg Len >= X%>0.91)) ,0.34864864864864864,0.5235413921169283,0.418560153961353,0.6129032258064516,0.39103362391033625,0.47745188267776395,
13.0,R12: If (((((Reached Del Func >= X<188.04) OR ((Del Func >= X<2996.97) AND (Top > X% by Call Chg by >= 10%<5.79))) AND ((Top Reached Chg Len >= X%<0.37) OR ((Del Func >= X<5050.71) AND (New Func >= X<1585.7)))) OR (Top Reached Chg Len >= X%<0.33)) AND (Top Chg Len >= X%>0.91)) ,0.32162162162162167,0.552054630406134,0.4064496546469142,0.6129032258064516,0.35242839352428396,0.44752392842280486,
14.0,R13: If (((Reached Del Func >= X<24.92) OR (Top Reached Chg Len >= X%<0.68)) AND (Top Chg Len >= X%>0.62)) ,0.32432432432432434,0.5502575775727807,0.408107958016327,0.6129032258064516,0.3698630136986301,0.4613309352517985,
15.0,R14: If (((Del Func >= X<4561.54) AND ((Top Chg by Call >= X%>32.4) OR ((Top Chg Len >= X%>0.32) AND ((Top > X% by Call Chg by >= 10%<35.33) OR (Top > X% by Call Chg by >= 10%<40.25))))) AND ((New Func >= X<1779.09) AND (Top Reached Chg Len >= X%<0.88))) ,0.5648648648648649,0.3099317119923326,0.40025198827558667,0.5806451612903226,0.5429638854296388,0.561172685019664,
16.0,R15: If ((Top Chg Len >= X%>0.14) AND ((Top Reached Chg Len >= X%<0.51) AND (Top Chg by Call >= X%<24.19))) ,0.5513513513513513,0.3237091170480412,0.4079202879674142,0.7096774193548387,0.49813200498132004,0.5853788332335529,
17.0,R16: If (((New Func >= X>18.75) OR ((((Top Chg by Call >= X%>10.36) OR (Del Func >= X>68.77)) OR ((Top Chg by Call >= X%<36.36) AND (Top Chg by Call >= X%<31.44))) AND (((Top Reached Chg Len >= X%<0.22) AND (Top Reached Chg Len >= X%<0.81)) OR ((Top > X% by Call Chg by >= 10%>1.34) AND (Top Reached Chg Len >= X%>0.66))))) AND ((Top Chg Len >= X%>0.4) OR (Del Func >= X>5268.48))) ,0.30810810810810807,0.5671498742063017,0.3992959293976112,0.7096774193548387,0.3536737235367372,0.4720816018133736,
18.0,R17: If ((Top Chg by Call >= X%<8.02) AND (Top Chg Len >= X%>0.75)) ,0.3567567567567568,0.519587875883551,0.4230447213258186,0.6129032258064516,0.39975093399750933,0.48389400190415743,
19.0,R18: If ((Top Chg Len >= X%>0.91) AND ((Reached Del Func >= X<226.47) AND (Top > X% by Call Chg by >= 10%<3.12))) ,0.37027027027027026,0.507487720138972,0.42815358526577735,0.6129032258064516,0.36612702366127026,0.45841368840014773,
20.0,R19: If (((New Func >= X>18.75) OR ((((Top Chg by Call >= X%>10.36) OR (Del Func >= X>68.77)) OR ((Top Chg by Call >= X%<36.36) AND (Top Chg by Call >= X%<31.44))) AND (((Top Reached Chg Len >= X%<0.22) OR (Top Reached Chg Len >= X%<0.81)) OR ((Top > X% by Call Chg by >= 10%>1.34) AND (Top Reached Chg Len >= X%>0.66))))) AND ((Top Chg Len >= X%>0.4) OR (Del Func >= X>5268.48))) ,0.3054054054054054,0.5742182820174913,0.39873725484710604,0.7096774193548387,0.3424657534246575,0.4619907601847963,
21.0,R20: If (((((Reached Del Func >= X<188.04) OR ((Del Func >= X<2996.97) AND (Top > X% by Call Chg by >= 10%<5.79))) AND ((Top Reached Chg Len >= X%>0.37) OR ((Top Reached Chg Len >= X%>0.57) OR (Reached Del Func >= X>235.4)))) OR (Top Reached Chg Len >= X%<0.33)) AND (Top Chg Len >= X%>0.91)) ,0.3324324324324325,0.54989816700611,0.4143661919110629,0.5806451612903226,0.37733499377334995,0.4574160271732294,
22.0,R21: If ((Top Chg Len >= X%>0.4) OR ((Top Chg Len >= X%>0.93) AND ((((Reached Del Func >= X<147.1) AND (Top Reached Chg Len >= X%<0.82)) AND (Del Func >= X>5937.15)) OR ((Reached Del Func >= X<72.43) OR ((Top Reached Chg Len >= X%>0.16) AND (Reached Del Func >= X>270.69)))))) ,0.3027027027027027,0.5818857074397987,0.39823803768291854,0.7096774193548387,0.3412204234122042,0.4608562691131498,


Results of fold 4 Cross Validation
index,Rule,training hit,training dismiss,training F-Measure,testing hit,testing dismiss,testing f-measure
1.0,R0: If ((Top Chg Len >= X%>0.52) AND ((((Del Func >= X<1143.09) OR (Top Reached Chg Len >= X%<0.34)) AND (((Del Func >= X<4359.71) AND (Top Reached Chg Len >= X%<0.43)) OR ((Reached Del Func >= X>233.4) AND (Del Func >= X>3281.18)))) AND (Top Chg Len >= X%>0.26))) ,0.5918918918918918,0.2433209536360369,0.3448694553866444,0.5806451612903226,0.5990037359900373,0.5896815937340371,
2.0,R1: If ((Top Reached Chg Len >= X%<0.67) AND ((Top Reached Chg Len >= X%>0.53) OR ((Top Chg Len >= X%>0.95) OR (Del Func >= X>4966.34)))) ,0.5837837837837838,0.26308853480292316,0.36271541044981553,0.4838709677419355,0.5716064757160647,0.5240922585065083,
3.0,R2: If ((New Func >= X>2334.81) OR (((Top Chg by Call >= X%>19.97) OR ((Top Reached Chg Len >= X%<0.92) AND ((New Func >= X>1935.79) OR (Top Chg Len >= X%>0.57)))) OR (((Del Func >= X>1459.3) AND (Del Func >= X>6112.31)) AND (Top > X% by Call Chg by >= 10%>24.86)))) ,0.5567567567567567,0.2904037378698934,0.3817086473507871,0.5806451612903226,0.5554171855541719,0.5677510608203679,
4.0,R3: If ((Top Chg Len >= X%>0.97) AND ((Top Reached Chg Len >= X%<0.31) AND (Top Chg Len >= X%>0.27))) ,0.6378378378378378,0.21037498502455976,0.31639494703795834,0.4516129032258064,0.6438356164383562,0.5308592174263815,
5.0,R4: If (((((New Func >= X<2326.92) AND ((Reached Del Func >= X<236.99) AND (Top Reached Chg Len >= X%<0.25))) OR ((Top Chg Len >= X%>0.08) AND (Top Chg by Call >= X%>5.43))) AND (Top > X% by Call Chg by >= 10%<28.96)) AND (Top Chg Len >= X%>0.98)) ,0.6081081081081081,0.24068527614711877,0.3448723108409422,0.4838709677419355,0.6475716064757161,0.553878927747204,
6.0,R5: If ((((Reached Del Func >= X>263.54) OR (Del Func >= X>3532.94)) OR (((New Func >= X>1205.28) OR (Top Chg Len >= X%>0.62)) OR (Top > X% by Call Chg by >= 10%>39.3))) AND (Top Reached Chg Len >= X%<0.62)) ,0.5810810810810811,0.27279262010303107,0.37128355254550943,0.4838709677419355,0.5753424657534246,0.5256570713391738,
7.0,R6: If (((((New Func >= X<255.22) AND ((Reached Del Func >= X<236.99) AND (Top Reached Chg Len >= X%<0.25))) OR ((Top Chg Len >= X%>0.08) AND (Top Chg by Call >= X%>5.43))) AND (Top > X% by Call Chg by >= 10%<28.96)) AND (Top Chg Len >= X%>0.98)) ,0.6351351351351351,0.2257098358691746,0.33305938219944525,0.4838709677419355,0.6612702366127023,0.5588297200589349,
8.0,R7: If ((Top Chg Len >= X%>0.82) OR (Top Chg by Call >= X%>14.06)) ,0.31081081081081086,0.5608002875284533,0.39995542140701185,0.6129032258064516,0.35242839352428396,0.44752392842280486,
9.0,R8: If ((Top Chg Len >= X%>0.98) AND (((((Top Reached Chg Len >= X%>0.15) OR (Top Reached Chg Len >= X%>0.31)) AND (Top Chg by Call >= X%<5.67)) OR (Del Func >= X<2683.47)) AND ((Top Chg Len >= X%>0.95) OR (Del Func >= X>4966.34)))) ,0.3162162162162162,0.5557685395950641,0.4030873785614637,0.6129032258064516,0.35491905354919046,0.44952681388012605,
10.0,R9: If ((((((Del Func >= X<5473.42) AND (New Func >= X<1115.85)) AND ((Top Chg by Call >= X%>39.88) AND (Top > X% by Call Chg by >= 10%>8.28))) OR ((New Func >= X<255.22) AND ((Reached Del Func >= X<236.99) AND (Top Reached Chg Len >= X%<0.25)))) AND (Top > X% by Call Chg by >= 10%<28.96)) AND (Top Chg Len >= X%>0.98)) ,0.7027027027027026,0.1700011980352223,0.27377052221500797,0.4516129032258064,0.7222914072229141,0.555745671069742,
11.0,R10: If ((((Top Chg by Call >= X%>22.75) OR (New Func >= X>2258.68)) OR (Del Func >= X<1496.02)) AND ((((Top Reached Chg Len >= X%>0.67) OR (Top Chg Len >= X%>0.96)) AND (Top > X% by Call Chg by >= 10%<7.12)) OR ((Del Func >= X>1883.61) AND (Top Chg Len >= X%>0.87)))) ,0.34864864864864864,0.5256978555169523,0.41924762333987453,0.6129032258064516,0.36737235367372356,0.4593885747069913,
12.0,R11: If (((((New Func >= X<1013.9) AND ((Reached Del Func >= X<236.99) OR (Top Reached Chg Len >= X%<0.25))) OR ((Top Chg Len >= X%>0.08) AND (Top Chg by Call >= X%>5.43))) AND (Top > X% by Call Chg by >= 10%<28.96)) AND (Top Chg Len >= X%>0.98)) ,0.33513513513513515,0.5393554570504373,0.41339944786075666,0.6129032258064516,0.3723536737235367,0.4632634754953926,
13.0,R12: If ((Top Chg Len >= X%>0.52) AND ((((Del Func >= X<1143.09) OR (Top Reached Chg Len >= X%<0.34)) AND (((Del Func >= X<4359.71) OR (Top Reached Chg Len >= X%<0.02)) OR ((Reached Del Func >= X>233.4) AND (Del Func >= X>3281.18)))) AND (Top Chg Len >= X%>0.26))) ,0.32162162162162167,0.5537318797172637,0.40690337064021936,0.7096774193548387,0.35242839352428396,0.4709709141798102,
14.0,R13: If ((((((Del Func >= X<5473.42) AND (New Func >= X<1115.85)) OR ((Top Chg by Call >= X%>39.88) AND (Top > X% by Call Chg by >= 10%>8.28))) OR ((New Func >= X<255.22) AND ((Reached Del Func >= X<236.99) AND (Top Reached Chg Len >= X%<0.25)))) AND (Top > X% by Call Chg by >= 10%<28.96)) AND (Top Chg Len >= X%>0.98)) ,0.3324324324324325,0.5431891697615909,0.4124468755049901,0.6129032258064516,0.3648816936488169,0.4574363188167625,
15.0,R14: If ((((Top Chg by Call >= X%>22.75) OR (New Func >= X>2258.68)) OR (Del Func >= X<2083.88)) AND ((((Top Reached Chg Len >= X%>0.67) OR (Top Chg Len >= X%>0.96)) AND (Top > X% by Call Chg by >= 10%<7.12)) OR ((Del Func >= X>1883.61) AND (Top Chg Len >= X%>0.87)))) ,0.3432432432432433,0.5324068527614711,0.41739287347897774,0.6129032258064516,0.36737235367372356,0.4593885747069913,
16.0,R15: If ((Top Chg Len >= X%>0.52) AND ((Top Chg Len >= X%>0.26) AND ((Top Chg by Call >= X%>5.69) OR (((New Func >= X<1287.44) OR (Top Chg by Call >= X%<31.07)) AND ((Top Chg Len >= X%>0.42) AND (Top Chg Len >= X%>0.0)))))) ,0.30810810810810807,0.5707439798730083,0.4001830347965064,0.7096774193548387,0.3412204234122042,0.4608562691131498,
17.0,R16: If (((Top > X% by Call Chg by >= 10%<28.96) AND (((Reached Del Func >= X>141.95) AND (Top Reached Chg Len >= X%>0.53)) OR (Top Reached Chg Len >= X%<0.15))) AND (Top Chg Len >= X%>0.98)) ,0.7189189189189189,0.16305259374625614,0.265817189647678,0.41935483870967744,0.7384806973848069,0.5349385885781696,
18.0,R17: If ((Top Chg Len >= X%>0.47) OR (New Func >= X>282.26)) ,0.3054054054054054,0.5776925841619744,0.39957159896177646,0.7096774193548387,0.3412204234122042,0.4608562691131498,
19.0,R18: If ((Top Chg Len >= X%>0.43) OR (Del Func >= X>5010.9)) ,0.3027027027027027,0.5818857074397987,0.39823803768291854,0.7096774193548387,0.3412204234122042,0.4608562691131498,
20.0,R19: If ((Top Chg by Call >= X%>22.33) OR (Top Chg Len >= X%>0.31)) ,0.2945945945945946,0.599257218162214,0.3950049319649651,0.7096774193548387,0.3262764632627647,0.4470296261827207,
21.0,R20: If (((Top Chg Len >= X%>0.17) OR (Top > X% by Call Chg by >= 10%>16.51)) OR (New Func >= X>444.44)) ,0.28918918918918923,0.61531089014017,0.39345769333895125,0.8064516129032258,0.2851805728518057,0.4213586516523147,
22.0,R21: If ((Top Chg Len >= X%>0.82) AND (Del Func >= X<634.7)) ,0.4054054054054054,0.5011381334611238,0.44821699002771664,0.5806451612903226,0.40597758405977585,0.47785016286644955,
23.0,R22: If (((((New Func >= X<255.22) OR ((Reached Del Func >= X<236.99) AND (Top Reached Chg Len >= X%<0.25))) OR ((Top Chg Len >= X%>0.08) AND (Top Chg by Call >= X%>5.43))) AND (Top > X% by Call Chg by >= 10%<28.96)) AND (Top Chg Len >= X%>0.98)) ,0.4648648648648649,0.4431532287049239,0.4537494731331798,0.5161290322580645,0.473225404732254,0.49374695468572355,


Results of fold 4 Cross Validation
index,Rule,training hit,training dismiss,training F-Measure,testing hit,testing dismiss,testing f-measure
1.0,R0: If ((Top Chg Len >= X%>0.49) AND ((((Top Reached Chg Len >= X%<0.4) AND (Reached Del Func >= X<29.95)) OR ((New Func >= X>1570.07) OR ((Reached Del Func >= X<147.02) AND (Top Chg Len >= X%<0.55)))) AND ((((Reached Del Func >= X<250.59) AND (Top Reached Chg Len >= X%<0.92)) OR ((Top Reached Chg Len >= X%>0.64) AND (Top Chg Len >= X%>0.7))) OR (((Top Chg Len >= X%<0.79) OR (Top Reached Chg Len >= X%<0.78)) OR ((Del Func >= X>4294.9) OR (Top Chg Len >= X%>0.47)))))) ,0.5837837837837838,0.2543428776806038,0.3543169650549245,0.5806451612903226,0.5990037359900373,0.5896815937340371,
2.0,R1: If ((((((Top > X% by Call Chg by >= 10%<35.47) OR (New Func >= X<2153.23)) AND (Del Func >= X<2589.71)) OR (Reached Del Func >= X>224.15)) AND ((((Top Chg by Call >= X%>5.12) AND (Del Func >= X>213.24)) OR (Top Chg Len >= X%>0.7)) AND (New Func >= X<1835.86))) AND ((New Func >= X>136.46) OR (Top Reached Chg Len >= X%<0.98))) ,0.3648648648648649,0.4776566431053073,0.41371080711827474,0.6129032258064516,0.40846824408468246,0.4902261553588988,
3.0,R2: If ((Del Func >= X>25.93) OR (Del Func >= X>69.98)) ,0.4,0.45788906193842094,0.4269913976092057,0.5161290322580645,0.45205479452054786,0.4819717024189867,
4.0,R3: If ((Del Func >= X>99.97) OR (((Top Chg by Call >= X%>8.86) AND ((Del Func >= X<741.73) OR (Del Func >= X<1688.77))) AND ((Top Chg Len >= X%>0.7) OR (Top > X% by Call Chg by >= 10%>19.0)))) ,0.49459459459459465,0.3650413322151671,0.4200556633021845,0.41935483870967744,0.5566625155666252,0.4783503457359236,
5.0,R4: If ((Del Func >= X>99.97) OR (((Top Chg by Call >= X%>8.86) AND ((Del Func >= X>2356.47) OR (Top Chg by Call >= X%>35.18))) AND ((Top Chg Len >= X%>0.7) OR (Top > X% by Call Chg by >= 10%>19.0)))) ,0.5027027027027027,0.3582125314484246,0.4183324921149884,0.41935483870967744,0.5616438356164384,0.48018018018018016,
6.0,R5: If (((New Func >= X>94.18) OR ((Reached Del Func >= X>268.76) AND ((Top > X% by Call Chg by >= 10%<25.81) AND (Top Chg by Call >= X%<5.36)))) AND ((New Func >= X>136.46) OR (Top Reached Chg Len >= X%<0.98))) ,0.5324324324324324,0.3298190966814424,0.4073205508588346,0.4516129032258064,0.5790784557907845,0.5074638500214366,
7.0,R6: If ((Top Chg Len >= X%>0.21) AND ((New Func >= X>94.18) OR ((Reached Del Func >= X>268.76) AND ((Top > X% by Call Chg by >= 10%<25.81) AND (Top Chg by Call >= X%<5.36))))) ,0.5,0.3625254582484725,0.4203069657615112,0.4516129032258064,0.547945205479452,0.49513704686118476,
8.0,R7: If ((Del Func >= X>99.97) OR (((Top Chg by Call >= X%>8.86) AND ((New Func >= X>509.41) AND (Top Chg by Call >= X%>14.7))) AND ((Top Chg Len >= X%>0.7) AND (Top > X% by Call Chg by >= 10%>19.0)))) ,0.5054054054054054,0.3578531208817539,0.41901909133225235,0.41935483870967744,0.5616438356164384,0.48018018018018016,
9.0,R8: If ((Del Func >= X>4721.37) OR (Del Func >= X>69.98)) ,0.4540540540540541,0.41320234814903556,0.43266605088212257,0.5161290322580645,0.49066002490660027,0.503072380496369,
10.0,R9: If ((Del Func >= X>25.93) OR (Top Reached Chg Len >= X%>0.67)) ,0.39459459459459456,0.47370312687193006,0.4305451659841247,0.5161290322580645,0.4508094645080946,0.4812629829663481,
11.0,R10: If ((Del Func >= X>116.53) OR (Del Func >= X>486.84)) ,0.5540540540540541,0.3142446387923805,0.4010336938707398,0.3225806451612903,0.6450809464508095,0.4300896712055795,
12.0,R11: If ((Top Chg Len >= X%>0.54) AND (Top Reached Chg Len >= X%<0.22)) ,0.6756756756756757,0.19384209895770932,0.30125753609318495,0.5161290322580645,0.713574097135741,0.5990003593479468,
13.0,R12: If (((((Top Chg Len >= X%>0.29) AND (Top > X% by Call Chg by >= 10%>30.13)) OR (Top Chg Len >= X%>0.95)) AND ((Top Reached Chg Len >= X%>0.07) OR ((Top Chg Len >= X%>0.25) OR (Top Reached Chg Len >= X%>0.59)))) AND ((New Func >= X<1158.13) AND ((Top Chg Len >= X%<0.9) OR ((Top Chg Len >= X%>0.53) OR ((New Func >= X<735.84) AND (Top Chg by Call >= X%<30.17)))))) ,0.32432432432432434,0.5463040613394035,0.4070156647476236,0.6129032258064516,0.35242839352428396,0.44752392842280486,
14.0,R13: If (((New Func >= X>136.46) OR (Top Reached Chg Len >= X%<0.98)) AND (Top Chg Len >= X%>0.21)) ,0.34594594594594597,0.5247394273391638,0.4169852466478445,0.7096774193548387,0.35491905354919046,0.47318969095505825,
15.0,R14: If (((Top Chg by Call >= X%<8.27) OR (((Top > X% by Call Chg by >= 10%>14.35) AND ((New Func >= X<256.29) AND (Reached Del Func >= X<188.33))) OR (New Func >= X<1139.03))) AND (Top Chg Len >= X%>0.93)) ,0.3162162162162162,0.5552893255061699,0.40296126877125404,0.6129032258064516,0.35242839352428396,0.44752392842280486,
16.0,R15: If (((((Top Chg Len >= X%>0.48) OR (Del Func >= X>2094.7)) OR ((Reached Del Func >= X>63.63) OR ((Reached Del Func >= X<231.35) OR (Del Func >= X<4803.69)))) AND (Top Chg Len >= X%>0.84)) OR (((New Func >= X>1545.69) OR (((Del Func >= X>3965.56) AND (Del Func >= X>3477.13)) AND ((Del Func >= X>5042.85) AND (Top Reached Chg Len >= X%>0.26)))) AND (New Func >= X<255.71))) ,0.31081081081081086,0.5608002875284533,0.39995542140701185,0.6129032258064516,0.35242839352428396,0.44752392842280486,
17.0,R16: If ((Reached Del Func >= X>213.57) OR (New Func >= X>81.36)) ,0.48378378378378384,0.3881634120043129,0.4307305880286515,0.5161290322580645,0.4782067247820672,0.4964447317388494,
18.0,R17: If (((Top Chg by Call >= X%<8.27) OR ((((Top Reached Chg Len >= X%>0.82) OR (Del Func >= X>5596.83)) AND (Top Chg Len >= X%<0.7)) AND (Del Func >= X<6598.94))) AND (Top Chg Len >= X%>0.93)) ,0.35945945945945945,0.5139571103390439,0.4230438291557474,0.6129032258064516,0.398505603985056,0.4829804980736387,
19.0,R18: If (((((Top Reached Chg Len >= X%<0.15) OR ((Top Reached Chg Len >= X%<0.08) AND (Top Chg Len >= X%<0.04))) OR ((Top Chg Len >= X%>0.41) AND (Top Chg by Call >= X%>8.46))) OR (Top Chg by Call >= X%<8.27)) AND (Top Chg Len >= X%>0.93)) ,0.32162162162162167,0.5545705043728286,0.40712957724306115,0.6129032258064516,0.3536737235367372,0.4485266614022692,
20.0,R19: If ((New Func >= X>75.48) AND ((((Top Chg Len >= X%>0.48) OR (Del Func >= X>2094.7)) OR ((Reached Del Func >= X>63.63) OR ((Reached Del Func >= X<231.35) OR (Del Func >= X<4803.69)))) AND (Top Chg Len >= X%>0.84))) ,0.48108108108108105,0.3953516233377261,0.43402348041906835,0.5161290322580645,0.4782067247820672,0.4964447317388494,
21.0,R20: If ((((Top Reached Chg Len >= X%<0.27) AND (((Top Chg Len >= X%<0.73) AND (Del Func >= X<2565.53)) OR (Top Reached Chg Len >= X%>0.04))) AND (((Reached Del Func >= X>184.94) OR (Del Func >= X>5987.86)) AND (Top Reached Chg Len >= X%>0.82))) OR ((Top Chg Len >= X%>0.54) OR (New Func >= X>842.1))) ,0.30810810810810807,0.5693063376063257,0.39982906474947577,0.7096774193548387,0.3412204234122042,0.4608562691131498,


Results of fold 4 Cross Validation
index,Rule,training hit,training dismiss,training F-Measure,testing hit,testing dismiss,testing f-measure
1.0,R0: If ((Top Chg Len >= X%>0.86) AND (Top Reached Chg Len >= X%<0.95)) ,0.5702702702702702,0.27686593985863184,0.3727580345734241,0.4838709677419355,0.5666251556662516,0.5219885277246654,
2.0,R1: If ((Top Chg Len >= X%>0.75) AND ((Top Chg Len >= X%<0.78) OR ((New Func >= X>2185.77) OR (((Del Func >= X<4459.74) OR (Top Chg by Call >= X%<7.26)) AND ((Top Reached Chg Len >= X%<0.32) AND (New Func >= X<1086.19)))))) ,0.6297297297297297,0.22223553372469151,0.3285305835624112,0.4516129032258064,0.6400996264009963,0.529584927877539,
3.0,R2: If ((Top Chg Len >= X%>0.68) AND ((Reached Del Func >= X>119.11) OR (Top Reached Chg Len >= X%<0.28))) ,0.6378378378378378,0.21995926680244404,0.3271131189198902,0.4516129032258064,0.6450809464508095,0.5312820512820513,
4.0,R3: If (((Reached Del Func >= X<84.78) AND ((((Top > X% by Call Chg by >= 10%<31.97) OR (Reached Del Func >= X<192.19)) OR ((Del Func >= X<3661.79) OR (Del Func >= X<3995.57))) AND (((Top Chg Len >= X%>0.29) OR (Reached Del Func >= X>179.28)) OR (Top Chg by Call >= X%>7.99)))) AND ((Reached Del Func >= X<44.83) AND (Top Reached Chg Len >= X%<0.54))) ,0.5648648648648649,0.2997484126033305,0.3916602971317807,0.5806451612903226,0.5342465753424658,0.5564803804994054,
5.0,R4: If ((Top Reached Chg Len >= X%<0.22) AND (Top Chg Len >= X%>0.77)) ,0.6783783783783783,0.1877321193243081,0.29408120791644654,0.41935483870967744,0.7247820672478207,0.5313015694673642,
6.0,R5: If ((Top Chg Len >= X%>0.86) AND (New Func >= X>58.11)) ,0.4486486486486486,0.41931232778243677,0.4334847172388888,0.5161290322580645,0.4782067247820672,0.4964447317388494,
7.0,R6: If ((New Func >= X<1007.94) AND (Top Chg Len >= X%>0.82)) ,0.3297297297297297,0.5395950640948843,0.40933040426636624,0.6129032258064516,0.3760896637608966,0.4661440350948454,
8.0,R7: If ((Top Chg Len >= X%>0.75) AND ((Top Chg Len >= X%<0.78) OR ((New Func >= X>2185.77) OR (((Del Func >= X<4459.74) OR (Top Chg by Call >= X%<7.26)) AND ((Top Reached Chg Len >= X%<0.32) OR (New Func >= X<1086.19)))))) ,0.3162162162162162,0.5539714867617108,0.4026137506562842,0.6129032258064516,0.36363636363636365,0.45645645645645644,
9.0,R8: If ((Top Reached Chg Len >= X%>0.61) OR (New Func >= X>34.52)) ,0.4,0.4710674493830118,0.43263464818176817,0.5161290322580645,0.4508094645080946,0.4812629829663481,
10.0,R9: If ((Top > X% by Call Chg by >= 10%<39.7) AND (Top Chg Len >= X%>0.82)) ,0.31081081081081086,0.5606804840062298,0.3999249490526676,0.6129032258064516,0.35242839352428396,0.44752392842280486,
11.0,R10: If ((Top Reached Chg Len >= X%>0.27) OR (New Func >= X>34.52)) ,0.39729729729729735,0.47801605367197797,0.43393485539388954,0.5161290322580645,0.44458281444582815,0.47769182521430065,
12.0,R11: If ((Top Chg Len >= X%>0.75) AND ((Top Chg Len >= X%<0.78) OR ((New Func >= X>2185.77) OR (((Del Func >= X<4459.74) OR (Top Chg by Call >= X%<7.26)) AND ((Top > X% by Call Chg by >= 10%<30.88) AND (New Func >= X<1086.19)))))) ,0.32432432432432434,0.5513358092727927,0.40840414438799283,0.6129032258064516,0.3648816936488169,0.4574363188167625,
13.0,R12: If ((Top Chg Len >= X%>0.75) AND ((Top Chg Len >= X%<0.78) OR ((Top > X% by Call Chg by >= 10%<4.13) AND ((Top Chg Len >= X%<0.81) OR (Top Reached Chg Len >= X%<0.21))))) ,0.6945945945945946,0.18234096082424822,0.28885371331811355,0.41935483870967744,0.7285180572851806,0.5323020928116469,
14.0,R13: If ((Top Chg by Call >= X%<10.53) AND (Top Chg Len >= X%>0.82)) ,0.34864864864864864,0.5294117647058824,0.4204236827810972,0.6129032258064516,0.37733499377334995,0.4670993914807302,
15.0,R14: If ((New Func >= X<740.45) AND (Top Chg Len >= X%>0.82)) ,0.3675675675675676,0.5123996645501379,0.42806479934002584,0.5806451612903226,0.3972602739726028,0.4717577948486218,
16.0,R15: If ((Top Chg Len >= X%>0.43) OR (Top Reached Chg Len >= X%>0.43)) ,0.3027027027027027,0.5798490475619984,0.39775995867429004,0.7096774193548387,0.3412204234122042,0.4608562691131498,
17.0,R16: If ((Top Reached Chg Len >= X%>0.0) OR (Top Chg Len >= X%>0.96)) ,0.30810810810810807,0.5766143524619625,0.40161647333009315,0.6129032258064516,0.3449564134495641,0.44145277637980207,
18.0,R17: If ((Top Chg Len >= X%>0.1) AND ((Reached Del Func >= X>119.11) OR (Top Reached Chg Len >= X%<0.89))) ,0.5324324324324324,0.36048879837067205,0.429905620249419,0.7096774193548387,0.473225404732254,0.5678190586157713,
19.0,R18: If ((Top Chg by Call >= X%>9.35) OR ((Reached Del Func >= X<84.78) AND ((((Top > X% by Call Chg by >= 10%<31.97) OR (Reached Del Func >= X<192.19)) OR ((Del Func >= X<3661.79) OR (Del Func >= X<3995.57))) AND (((Top Chg Len >= X%>0.29) OR (Reached Del Func >= X>179.28)) OR (Top Chg by Call >= X%>7.99))))) ,0.2945945945945946,0.5990176111177669,0.39495286473081787,0.7096774193548387,0.3163138231631382,0.43758809710258423,
20.0,R19: If ((Top Chg Len >= X%>0.18) OR (Top Chg by Call >= X%>29.54)) ,0.28918918918918923,0.6130346232179227,0.39299114741896324,0.8064516129032258,0.2851805728518057,0.4213586516523147,


Results of fold 4 Cross Validation
index,Rule,training hit,training dismiss,training F-Measure,testing hit,testing dismiss,testing f-measure
1.0,R0: If ((Top Chg Len >= X%>0.69) AND (Top Reached Chg Len >= X%<0.46)) ,0.5891891891891892,0.24679525578051997,0.34787512500745593,0.4838709677419355,0.6064757160647571,0.5382801562154594,
2.0,R1: If ((Top Chg Len >= X%>0.92) AND ((Top Chg by Call >= X%>12.32) OR ((((Top Chg Len >= X%<0.82) OR (Top Chg Len >= X%<0.62)) AND ((Top Chg by Call >= X%>11.12) OR (Del Func >= X>1502.38))) OR ((Top Reached Chg Len >= X%<0.84) AND ((Reached Del Func >= X<17.64) OR (Top > X% by Call Chg by >= 10%<38.35)))))) ,0.5540540540540541,0.2868096322031868,0.37796385326435405,0.4838709677419355,0.5591531755915318,0.5187952549684178,
3.0,R2: If ((Reached Del Func >= X<4.47) AND (((((Top Reached Chg Len >= X%>0.61) OR (Top Reached Chg Len >= X%>0.72)) OR (New Func >= X>30.25)) OR (Top Chg by Call >= X%<23.51)) AND (Top Chg Len >= X%>0.26))) ,0.39459459459459456,0.4496226189049958,0.4203151800042343,0.7096774193548387,0.44333748443337484,0.5457459410494042,
4.0,R3: If (((Del Func >= X>4119.56) AND (Reached Del Func >= X>195.86)) OR (((Reached Del Func >= X<259.96) OR (((Top Reached Chg Len >= X%>0.41) AND (Top > X% by Call Chg by >= 10%>23.43)) OR (Top Reached Chg Len >= X%<0.88))) AND ((Top Chg by Call >= X%>37.39) OR (((Top Chg by Call >= X%>4.97) OR (Top Chg Len >= X%>0.73)) AND ((New Func >= X<2215.01) AND (Top Reached Chg Len >= X%<0.72)))))) ,0.5783783783783784,0.2761471187252905,0.37381569833443723,0.4838709677419355,0.5691158156911582,0.5230428811231497,
5.0,R4: If ((Reached Del Func >= X<15.84) AND ((Top Chg Len >= X%>0.95) OR (Top > X% by Call Chg by >= 10%>3.12))) ,0.3405405405405405,0.5179106265724212,0.41090179961617834,0.6129032258064516,0.3823163138231631,0.4708969080487608,
6.0,R5: If ((Del Func >= X>84.07) AND (Top Chg Len >= X%>0.11)) ,0.4756756756756757,0.38468910985982985,0.42537132001225375,0.5161290322580645,0.5056039850560399,0.5108122984980734,
7.0,R6: If ((Top Chg Len >= X%>0.92) AND ((Top Chg Len >= X%<0.31) OR ((((Top Chg by Call >= X%>24.97) OR (Reached Del Func >= X>145.35)) OR ((Top Chg by Call >= X%<37.51) OR (Del Func >= X<3265.83))) AND ((New Func >= X<1016.19) OR ((Top Reached Chg Len >= X%<0.95) AND (Top > X% by Call Chg by >= 10%<39.1)))))) ,0.32162162162162167,0.538876242961543,0.4028231986342323,0.6129032258064516,0.3723536737235367,0.4632634754953926,
8.0,R7: If ((Top Chg Len >= X%>0.92) AND (((Top Reached Chg Len >= X%<0.43) OR (Top Chg by Call >= X%<4.29)) OR (New Func >= X<1636.66))) ,0.3162162162162162,0.5549299149394993,0.40286659537718567,0.6129032258064516,0.35242839352428396,0.44752392842280486,
9.0,R8: If ((((((Del Func >= X<4856.17) OR (Top > X% by Call Chg by >= 10%<16.44)) OR ((Top Reached Chg Len >= X%>0.62) OR (Top Chg by Call >= X%>2.2))) AND ((Top Chg by Call >= X%<23.26) OR ((Reached Del Func >= X<59.55) OR (Top > X% by Call Chg by >= 10%<24.97)))) AND (Top Chg Len >= X%>0.86)) OR (((Top > X% by Call Chg by >= 10%>28.7) OR (Top Reached Chg Len >= X%>0.05)) AND (Top Reached Chg Len >= X%>0.61))) ,0.31081081081081086,0.5608002875284533,0.39995542140701185,0.6129032258064516,0.35242839352428396,0.44752392842280486,
10.0,R9: If ((Top Chg Len >= X%>0.92) AND (((Top Reached Chg Len >= X%<0.43) AND (Top Chg by Call >= X%<4.29)) OR (New Func >= X<1636.66))) ,0.3189189189189189,0.5528932550616988,0.4045094217410165,0.6129032258064516,0.35242839352428396,0.44752392842280486,
11.0,R10: If (((Top Chg Len >= X%>0.81) OR (Top > X% by Call Chg by >= 10%>8.39)) OR ((((Top > X% by Call Chg by >= 10%>28.91) AND ((Top > X% by Call Chg by >= 10%<12.39) OR (New Func >= X<6.83))) OR (New Func >= X>1019.61)) OR ((Top Chg Len >= X%>0.56) OR (New Func >= X>1806.65)))) ,0.30810810810810807,0.5693063376063257,0.39982906474947577,0.7096774193548387,0.3412204234122042,0.4608562691131498,
12.0,R11: If (((Top Chg Len >= X%>0.49) OR (Top > X% by Call Chg by >= 10%>4.79)) OR ((((Top > X% by Call Chg by >= 10%>28.91) AND ((Top > X% by Call Chg by >= 10%<12.39) OR (New Func >= X<6.83))) OR (New Func >= X>1019.61)) OR ((Top Chg Len >= X%>0.56) OR (New Func >= X>1806.65)))) ,0.3054054054054054,0.5776925841619744,0.39957159896177646,0.7096774193548387,0.3412204234122042,0.4608562691131498,
13.0,R12: If ((((((Top Chg Len >= X%>0.16) OR (Top Chg by Call >= X%>14.72)) AND ((Top Chg Len >= X%<0.28) OR (Reached Del Func >= X<47.95))) AND (New Func >= X>1528.18)) OR ((((Reached Del Func >= X>182.93) AND (Top Chg by Call >= X%>8.02)) OR (Del Func >= X>484.28)) AND (Top Chg by Call >= X%>22.88))) OR (((Reached Del Func >= X>152.69) AND (Top > X% by Call Chg by >= 10%>17.33)) OR ((((Top Chg Len >= X%<0.78) AND (Top Chg Len >= X%<0.43)) OR (Del Func >= X<3118.71)) AND (New Func >= X>2.51)))) ,0.28378378378378377,0.6000958428177788,0.3853408626749922,0.7419354838709676,0.28019925280199254,0.4067756642037415,
14.0,R13: If ((((Top Chg by Call >= X%>25.21) OR (Top Chg Len >= X%>0.4)) AND ((((Reached Del Func >= X<36.12) OR (Top Reached Chg Len >= X%<0.02)) OR (Top Reached Chg Len >= X%<0.06)) OR (Top > X% by Call Chg by >= 10%>31.92))) OR (Top Reached Chg Len >= X%>0.86)) ,0.3027027027027027,0.5818857074397987,0.39823803768291854,0.7096774193548387,0.3412204234122042,0.4608562691131498,
15.0,R14: If ((Top > X% by Call Chg by >= 10%<1.34) AND (((Top Chg by Call >= X%>25.21) OR (Top Chg Len >= X%>0.4)) AND ((((Reached Del Func >= X<36.12) OR (Top Reached Chg Len >= X%<0.02)) OR (Top Reached Chg Len >= X%<0.06)) OR (Top > X% by Call Chg by >= 10%>31.92)))) ,0.3891891891891892,0.5078471307056427,0.4406702574864695,0.7096774193548387,0.39227895392278955,0.5052677627501732,
16.0,R15: If ((Del Func >= X>199.48) OR ((Top Reached Chg Len >= X%>0.26) AND (((Del Func >= X>1134.92) OR ((Top Reached Chg Len >= X%<0.67) AND (Del Func >= X<3112.01))) AND (((Top Reached Chg Len >= X%<0.14) AND (Top Reached Chg Len >= X%<0.77)) OR (Top Chg by Call >= X%>12.67))))) ,0.6864864864864865,0.216724571702408,0.3294434637715865,0.2258064516129032,0.7708592777085927,0.34929463925836346,
17.0,R16: If ((Top Chg Len >= X%>0.69) AND (Top Reached Chg Len >= X%<0.09)) ,0.7513513513513513,0.15274949083503053,0.2538843699771078,0.3225806451612903,0.7571606475716065,0.45241461418260287,
18.0,R17: If ((Del Func >= X>700.44) OR (Top Chg Len >= X%>0.11)) ,0.27297297297297296,0.6461003953516233,0.3837951394014424,0.8387096774193549,0.2577833125778331,0.39435794101483784,
19.0,R18: If ((Top Chg by Call >= X%>3.59) OR (((((Top Chg Len >= X%>0.76) AND (Top > X% by Call Chg by >= 10%>26.0)) OR (Top Chg by Call >= X%<22.94)) OR ((New Func >= X<1846.62) OR (Top > X% by Call Chg by >= 10%<34.89))) AND (Top Chg Len >= X%>0.09))) ,0.2702702702702703,0.6505331256738949,0.38188339545678324,0.8387096774193549,0.24283935242839352,0.3766296475132786,
