

Results of fold 9 Cross Validation
index,Rule,training hit,training dismiss,training F-Measure,testing hit,testing dismiss,testing f-measure
1.0,R0: If ((((Del Func >= X<1498.71) OR (Del Func >= X<2040.86)) AND ((Top Chg Len >= X%>0.82) OR (Reached Del Func >= X>182.26))) AND (((Del Func >= X>3653.99) OR ((New Func >= X>727.44) OR (New Func >= X>455.98))) OR (((Top > X% by Call Chg by >= 10%<26.25) AND ((New Func >= X>977.71) OR (Top Reached Chg Len >= X%<0.74))) OR (((Del Func >= X>3350.06) AND (Reached Del Func >= X>191.26)) AND (Del Func >= X<6348.47))))) ,0.456973293768546,0.37328982050960213,0.4109142653093817,0.5625,0.6973795435333898,0.6227198389734558,
2.0,R1: If ((((Del Func >= X>1071.99) OR ((Del Func >= X>6723.32) OR (Reached Del Func >= X>157.63))) OR (((Top > X% by Call Chg by >= 10%<26.25) AND ((New Func >= X>977.71) OR (Top Reached Chg Len >= X%<0.74))) OR (((Del Func >= X>3350.06) AND (Reached Del Func >= X>191.26)) AND (Del Func >= X<6348.47)))) AND (((Del Func >= X<1498.71) OR (Del Func >= X<2040.86)) AND ((Top Chg Len >= X%>0.82) OR (Reached Del Func >= X>182.26)))) ,0.5281899109792285,0.32032132546755365,0.3987937580931897,0.5,0.7193575655114117,0.589948006932409,
3.0,R2: If ((Top Reached Chg Len >= X%<0.5) AND (((Del Func >= X<1498.71) OR (Del Func >= X<2040.86)) AND ((Top Chg Len >= X%>0.82) OR (Reached Del Func >= X>182.26)))) ,0.5786350148367952,0.2716204342914522,0.36969852810082904,0.4375,0.7675401521555368,0.5573238633872594,
4.0,R3: If ((Top Chg by Call >= X%>20.62) OR (((((Top Reached Chg Len >= X%<0.5) AND (Top Reached Chg Len >= X%<0.67)) OR ((New Func >= X<464.33) AND (Top Chg by Call >= X%>20.23))) AND (((New Func >= X>155.38) AND (Top Chg Len >= X%>0.2)) OR (New Func >= X<1923.67))) AND ((((Top > X% by Call Chg by >= 10%<35.17) AND (Del Func >= X<3731.84)) OR ((Top Chg by Call >= X%>33.53) AND (Top > X% by Call Chg by >= 10%>0.06))) AND (((Top > X% by Call Chg by >= 10%>26.6) OR (Top Chg Len >= X%>0.45)) OR ((Top Chg by Call >= X%>34.04) OR (Del Func >= X>105.28)))))) ,0.5578635014836795,0.2924563825781348,0.3837396835575552,0.46875,0.7531699070160609,0.5778584862831572,
5.0,R4: If ((Top Chg Len >= X%>0.47) AND (((Del Func >= X<1498.71) OR (Del Func >= X<2040.86)) AND (((Reached Del Func >= X<253.69) AND ((Top Reached Chg Len >= X%<0.23) AND (Del Func >= X<977.73))) OR (New Func >= X>793.56)))) ,0.6023738872403561,0.24865068407179614,0.3520008332975914,0.375,0.797971259509721,0.5102243041167462,
6.0,R5: If ((Top Reached Chg Len >= X%<0.5) AND ((Del Func >= X<5002.84) AND (Top Chg Len >= X%>0.98))) ,0.5845697329376854,0.26760386594703145,0.36713909150548757,0.4375,0.7675401521555368,0.5573238633872594,
7.0,R6: If (((Reached Del Func >= X>25.66) AND (((Top Reached Chg Len >= X%<0.31) AND ((Top Chg Len >= X%>0.26) AND (Top > X% by Call Chg by >= 10%>13.94))) OR (Top > X% by Call Chg by >= 10%>13.57))) OR (((((Top Reached Chg Len >= X%<0.5) AND (Top Reached Chg Len >= X%<0.67)) OR ((New Func >= X>464.33) AND (Top Chg by Call >= X%>20.23))) AND (((New Func >= X>155.38) AND (Top Chg by Call >= X%<34.37)) OR (New Func >= X<1016.74))) AND ((((Top > X% by Call Chg by >= 10%<35.17) AND (Del Func >= X<3576.52)) OR ((Top Chg by Call >= X%>33.53) AND (Top > X% by Call Chg by >= 10%>0.06))) AND (((Top > X% by Call Chg by >= 10%>26.6) OR (Top Chg Len >= X%>0.45)) OR ((Top Chg by Call >= X%>34.04) OR (Del Func >= X>105.28)))))) ,0.5637982195845697,0.2906991339274507,0.3836071661765949,0.4375,0.7658495350803043,0.5568775519164069,
8.0,R7: If ((Top Chg Len >= X%>0.47) AND ((Top Chg by Call >= X%<12.76) AND (Top Reached Chg Len >= X%<0.47))) ,0.5756676557863502,0.27940253545876736,0.3762100568003624,0.421875,0.7700760777683855,0.5451160729126268,
9.0,R8: If (((Top Chg by Call >= X%<12.76) AND (Top Reached Chg Len >= X%<0.47)) AND ((Del Func >= X>5002.84) OR (Top Chg Len >= X%>0.98))) ,0.5964391691394659,0.2588176226936112,0.3609885810018984,0.421875,0.7700760777683855,0.5451160729126268,
10.0,R9: If ((((Del Func >= X>3653.99) OR ((Del Func >= X>6723.32) AND (Reached Del Func >= X>157.63))) OR (((Top > X% by Call Chg by >= 10%<26.25) AND ((New Func >= X>977.71) OR (Top Reached Chg Len >= X%<0.74))) OR (((Del Func >= X>3350.06) AND (Reached Del Func >= X>191.26)) AND (Del Func >= X<6348.47)))) AND (((Del Func >= X<1498.71) OR (Del Func >= X<2040.86)) AND ((Top Chg Len >= X%>0.82) OR (Reached Del Func >= X>182.26)))) ,0.5519287833827893,0.30714196058742316,0.39466013671791167,0.453125,0.7404902789518174,0.5622157550541655,
11.0,R10: If (((Reached Del Func >= X>25.66) OR (((Top Reached Chg Len >= X%<1.0) AND ((Top Chg by Call >= X%<35.4) AND (Top > X% by Call Chg by >= 10%>13.94))) OR (Top > X% by Call Chg by >= 10%>13.57))) OR (((((Top Reached Chg Len >= X%<0.5) AND (Top Reached Chg Len >= X%<0.67)) OR ((New Func >= X>464.33) AND (Top Chg by Call >= X%>20.23))) AND (((New Func >= X>155.38) AND (Top Chg Len >= X%>0.2)) OR (New Func >= X<1016.74))) AND ((((Top > X% by Call Chg by >= 10%<35.17) AND (Del Func >= X<3576.52)) OR ((Top Chg by Call >= X%>33.53) OR (Top > X% by Call Chg by >= 10%>0.06))) AND (((Top > X% by Call Chg by >= 10%>26.6) OR (Top Chg Len >= X%>0.45)) OR ((Top Chg by Call >= X%>34.04) OR (Del Func >= X>105.28)))))) ,0.5489614243323442,0.3111585289318438,0.39718652866344084,0.484375,0.7269653423499577,0.5813788666819317,
12.0,R11: If ((Top Chg Len >= X%>0.47) AND (((Del Func >= X<1498.71) AND (Del Func >= X<2040.86)) AND ((Top Chg Len >= X%>0.82) OR (Reached Del Func >= X>182.26)))) ,0.34718100890207715,0.5399774068030626,0.4226300456817692,0.8125,0.31952662721893493,0.4586736360666449,
13.0,R12: If ((Del Func >= X>602.86) OR ((Top Reached Chg Len >= X%<0.08) AND (Top Chg Len >= X%>0.86))) ,0.6676557863501484,0.22480230952679803,0.336353187749307,0.40625,0.8241758241758241,0.5442366731789003,
14.0,R13: If ((Top Chg Len >= X%>0.47) AND (((Del Func >= X<1498.71) OR (Del Func >= X<2040.86)) AND ((Top Chg Len >= X%>0.82) OR (Reached Del Func >= X<182.26)))) ,0.33234421364985167,0.5601857662859295,0.41718374100449235,0.84375,0.29501267962806427,0.4371708923890603,
15.0,R14: If ((Top Chg Len >= X%>0.47) AND (((Del Func >= X<1498.71) OR (Del Func >= X<2040.86)) AND ((Top > X% by Call Chg by >= 10%<36.77) OR (Reached Del Func >= X>182.26)))) ,0.33531157270029677,0.5600602485251663,0.41947865297539694,0.84375,0.2958579881656805,0.43809832873600524,
16.0,R15: If (((New Func >= X>5.84) AND (Top Chg Len >= X%>0.86)) AND (New Func >= X<1141.53)) ,0.42136498516320475,0.4753357600100414,0.446726171562342,0.828125,0.33051563820794594,0.47246446199970366,
17.0,R16: If ((Top Chg Len >= X%>0.47) AND (((Del Func >= X<1498.71) OR (Del Func >= X<2040.86)) AND ((Top > X% by Call Chg by >= 10%<29.73) OR (Reached Del Func >= X>182.26)))) ,0.33827893175074186,0.5593071419605875,0.4215792290998419,0.828125,0.30346576500422656,0.4441669098336738,
18.0,R17: If (((New Func >= X>5.84) AND (Top Chg Len >= X%>0.86)) AND (New Func >= X<2062.06)) ,0.41543026706231456,0.4841220032634618,0.4471534111823133,0.828125,0.33051563820794594,0.47246446199970366,
19.0,R18: If ((Del Func >= X>602.86) OR ((New Func >= X>5.84) AND (Top Chg Len >= X%>0.86))) ,0.41246290801186947,0.4872599472825405,0.4467523607546964,0.828125,0.3229078613693998,0.46464020562956837,
20.0,R19: If (((New Func >= X>5.84) OR (Top Chg Len >= X%>0.86)) AND (New Func >= X<1141.53)) ,0.32640949554896137,0.5749968620559809,0.4164258086322141,0.84375,0.3026204564666103,0.44546858077747303,
21.0,R20: If ((New Func >= X<713.25) AND ((Top Chg Len >= X%>0.55) OR (Reached Del Func >= X>57.14))) ,0.3946587537091988,0.5093510731768545,0.4447293685575346,0.8125,0.32713440405748095,0.4664595985350703,
22.0,R21: If ((New Func >= X<713.25) AND (((Del Func >= X<1498.71) OR (Del Func >= X<2040.86)) AND ((Top Chg Len >= X%>0.82) OR (Reached Del Func >= X>182.26)))) ,0.4065281899109793,0.49767792142588174,0.44750881910495766,0.8125,0.32713440405748095,0.4664595985350703,
23.0,R22: If (((((Top > X% by Call Chg by >= 10%>34.0) AND ((New Func >= X>121.21) AND (Top Chg Len >= X%>0.53))) OR (Top Chg Len >= X%>0.17)) AND (Top > X% by Call Chg by >= 10%<8.14)) AND (Reached Del Func >= X<70.09)) ,0.3175074183976261,0.5924438308020585,0.4134404154706155,0.78125,0.32882502113271345,0.46284177712205216,
24.0,R23: If (((New Func >= X>5.84) OR (Top Chg Len >= X%>0.19)) AND (New Func >= X<1141.53)) ,0.2908011869436202,0.620057738169951,0.3959197659745513,0.84375,0.27303465765004226,0.41256475151973887,


Results of fold 9 Cross Validation
index,Rule,training hit,training dismiss,training F-Measure,testing hit,testing dismiss,testing f-measure
1.0,R0: If ((Reached Del Func >= X<2.82) AND (Top Chg Len >= X%>0.24)) ,0.483679525222552,0.3883519518011799,0.4308052922757837,0.65625,0.6018596787827557,0.6278791441829215,
2.0,R1: If (((Top Reached Chg Len >= X%<0.88) AND (((Del Func >= X>2983.67) AND (Top Reached Chg Len >= X%>0.15)) OR (Top > X% by Call Chg by >= 10%<17.58))) AND (Top Chg Len >= X%>0.72)) ,0.56973293768546,0.30249780343918664,0.3951774549348929,0.453125,0.757396449704142,0.5670205453295655,
3.0,R2: If ((Top Chg Len >= X%>0.78) AND ((Reached Del Func >= X<13.53) AND ((((Top Chg Len >= X%>0.9) AND (New Func >= X<1255.6)) OR ((Top Chg by Call >= X%<15.72) AND (Top Chg by Call >= X%<0.25))) AND (Top Chg by Call >= X%<33.62)))) ,0.3679525222551929,0.5050834693109074,0.42574816680574545,0.765625,0.37278106508875747,0.5014212620807278,
4.0,R3: If (((New Func >= X<2148.63) AND ((Top Chg Len >= X%<0.97) OR (Top Reached Chg Len >= X%<0.8))) AND (Top Chg Len >= X%>0.78)) ,0.5786350148367952,0.2947157022718715,0.3905254130237402,0.453125,0.7590870667793744,0.5674936532322208,
5.0,R4: If ((Top Chg Len >= X%>0.78) AND ((Reached Del Func >= X<13.53) AND ((((Top Chg Len >= X%>0.9) AND (New Func >= X<1255.6)) OR ((Top Chg by Call >= X%>15.72) AND (Top Chg by Call >= X%<0.25))) AND (Top Chg by Call >= X%<33.62)))) ,0.3827893175074184,0.4957951550144345,0.43202468276433054,0.765625,0.37616229923922234,0.5044709475169757,
6.0,R5: If (((Top Chg Len >= X%>0.24) OR (Top Chg Len >= X%>0.19)) AND (Top Reached Chg Len >= X%<0.28)) ,0.5964391691394659,0.28316806828166186,0.3840180484824311,0.40625,0.7590870667793744,0.5292530885186444,
7.0,R6: If (((Top Chg Len >= X%>0.24) OR (Top Chg Len >= X%>0.36)) AND (Top Reached Chg Len >= X%<0.28)) ,0.6112759643916914,0.276515626961215,0.38078161178010017,0.40625,0.7590870667793744,0.5292530885186444,
8.0,R7: If ((((((New Func >= X>1577.59) OR (Reached Del Func >= X>90.51)) OR (Top > X% by Call Chg by >= 10%<15.22)) OR (New Func >= X<94.51)) AND ((((Del Func >= X<6421.48) AND (Del Func >= X>5409.7)) OR (Reached Del Func >= X<56.5)) AND ((Reached Del Func >= X>195.44) OR (Top Chg Len >= X%>0.99)))) AND (Del Func >= X<3275.04)) ,0.35608308605341243,0.5369649805447471,0.42820572492436576,0.8125,0.3136094674556213,0.4525451559934318,
9.0,R8: If ((((((New Func >= X>1577.59) OR (Reached Del Func >= X>90.51)) OR (Top > X% by Call Chg by >= 10%<15.22)) OR (New Func >= X<2139.95)) AND ((((Del Func >= X<6421.48) AND (Del Func >= X<5409.7)) OR (Reached Del Func >= X<56.5)) AND ((Reached Del Func >= X>195.44) OR (Top Chg Len >= X%>0.99)))) AND (Del Func >= X<3275.04)) ,0.35311572700296734,0.5406049956068784,0.42719413618989033,0.84375,0.29501267962806427,0.4371708923890603,
10.0,R9: If ((Top Chg Len >= X%>0.78) AND ((Reached Del Func >= X<13.53) AND ((((Top Chg Len >= X%>0.9) AND (New Func >= X>1255.6)) OR ((Top Chg by Call >= X%<15.72) AND (Top Chg by Call >= X%<0.25))) AND (Top Chg by Call >= X%<33.62)))) ,0.5400593471810089,0.35496422743818246,0.4283725130356258,0.640625,0.5350803043110736,0.5831152053024772,
11.0,R10: If ((Del Func >= X>5570.18) OR (Top Chg Len >= X%>0.57)) ,0.33531157270029677,0.5603112840466926,0.41954904665523596,0.84375,0.29501267962806427,0.4371708923890603,
12.0,R11: If (((New Func >= X<2148.63) AND ((Top Chg Len >= X%>0.83) OR (Top Reached Chg Len >= X%>0.8))) AND (Top Chg Len >= X%>0.78)) ,0.35014836795252224,0.547131919166562,0.42701784782546426,0.84375,0.3026204564666103,0.44546858077747303,
13.0,R12: If ((Top Chg Len >= X%>0.78) AND ((Del Func >= X>3299.03) OR (Top Chg Len >= X%>0.06))) ,0.34718100890207715,0.5502698631856408,0.42574641623508486,0.84375,0.29501267962806427,0.4371708923890603,
14.0,R13: If ((((Top Chg Len >= X%>0.93) OR ((Del Func >= X<3299.88) OR (Del Func >= X<458.57))) AND ((Top Chg Len >= X%>0.68) OR ((Top Chg Len >= X%>0.19) OR ((Top > X% by Call Chg by >= 10%<32.52) AND (Top Reached Chg Len >= X%<0.54))))) AND ((Top Chg Len >= X%>0.48) OR (Reached Del Func >= X>53.72))) ,0.33234421364985167,0.5669637253671395,0.4190491494628568,0.84375,0.29501267962806427,0.4371708923890603,
15.0,R14: If ((Top Chg Len >= X%>0.78) AND ((Reached Del Func >= X<13.53) AND ((((Top Chg Len >= X%>0.9) AND (New Func >= X<1255.6)) AND ((Top Chg by Call >= X%<15.72) AND (Top Chg by Call >= X%<0.25))) AND (Top Chg by Call >= X%<33.62)))) ,0.5548961424332344,0.345173842098657,0.42560164596315697,0.640625,0.5384615384615384,0.5851172273190622,
16.0,R15: If ((Top Chg Len >= X%>0.41) OR (New Func >= X>939.79)) ,0.3293768545994066,0.5713568469938497,0.4178631726198033,0.84375,0.29501267962806427,0.4371708923890603,
17.0,R16: If (((New Func >= X>1295.97) OR (New Func >= X>259.09)) OR ((Top Chg Len >= X%>0.24) OR (Top Chg Len >= X%>0.19))) ,0.3056379821958457,0.6052466423998996,0.4061685915403692,0.84375,0.2654268808114962,0.4038200481078378,
18.0,R17: If ((Reached Del Func >= X<109.59) AND (Top Chg Len >= X%>0.24)) ,0.3204747774480712,0.5972135057110581,0.41711737818613065,0.84375,0.2654268808114962,0.4038200481078378,
19.0,R18: If ((Top Chg Len >= X%>0.3) AND ((Top Chg by Call >= X%<25.76) OR ((Reached Del Func >= X>76.38) AND (New Func >= X>928.56)))) ,0.32640949554896137,0.5921927952805321,0.42085101137882264,0.8125,0.30938292476754015,0.44812809041676477,
20.0,R19: If ((Top Chg Len >= X%>0.16) OR (New Func >= X>328.7)) ,0.3026706231454006,0.6169197941508724,0.4061014447613983,0.859375,0.2502113271344041,0.38757752145603447,


Results of fold 9 Cross Validation
index,Rule,training hit,training dismiss,training F-Measure,testing hit,testing dismiss,testing f-measure
1.0,R0: If ((Top Chg Len >= X%>0.97) AND ((((Top Reached Chg Len >= X%<0.62) OR (Top > X% by Call Chg by >= 10%<6.74)) AND (((Top Reached Chg Len >= X%<0.46) AND (Top > X% by Call Chg by >= 10%<27.53)) OR (New Func >= X>292.33))) OR (Top > X% by Call Chg by >= 10%>33.56))) ,0.4510385756676558,0.37216016066273383,0.40782032667794477,0.578125,0.6483516483516483,0.611227775444491,
2.0,R1: If (((Del Func >= X>76.87) OR (Reached Del Func >= X>125.62)) AND ((((Top Reached Chg Len >= X%<0.62) AND (Top > X% by Call Chg by >= 10%>6.74)) OR (((Top Reached Chg Len >= X%<0.46) AND (Top > X% by Call Chg by >= 10%<27.53)) OR (New Func >= X>292.33))) OR (Top Chg Len >= X%<0.66))) ,0.5816023738872403,0.26860800803313667,0.3674927016636351,0.421875,0.7438715131022824,0.5384031452170268,
3.0,R2: If (((Top Chg Len >= X%>0.68) OR ((New Func >= X>85.01) OR (Top Reached Chg Len >= X%>0.95))) AND (Top Reached Chg Len >= X%<0.46)) ,0.5875370919881306,0.2644659219279528,0.3647488005595567,0.4375,0.7726120033812341,0.5586553154333115,
4.0,R3: If (((Top Chg Len >= X%>0.68) OR (((Top Reached Chg Len >= X%>0.0) AND ((Top Chg Len >= X%<0.69) OR (Top Reached Chg Len >= X%<0.04))) OR (New Func >= X>608.49))) AND (Top Reached Chg Len >= X%<0.46)) ,0.5786350148367952,0.28078323082716206,0.3780953214696498,0.4375,0.7658495350803043,0.5568775519164069,
5.0,R4: If (((Del Func >= X>76.87) OR (Reached Del Func >= X>125.62)) AND ((((Top Reached Chg Len >= X%<0.62) OR (Top > X% by Call Chg by >= 10%>6.74)) OR (((Top Reached Chg Len >= X%<0.46) AND (Top > X% by Call Chg by >= 10%<27.53)) OR (New Func >= X>292.33))) OR (Top Chg Len >= X%<0.66))) ,0.56973293768546,0.2922053470566085,0.3862898625875032,0.46875,0.7066779374471682,0.5636335033822505,
6.0,R5: If (((((Top Chg Len >= X%<0.29) OR ((Top Reached Chg Len >= X%>0.31) AND (Top Reached Chg Len >= X%>0.78))) AND (Top > X% by Call Chg by >= 10%>2.6)) OR (Top Chg Len >= X%>0.81)) AND ((Top > X% by Call Chg by >= 10%>25.84) OR ((((New Func >= X>2015.12) OR (Top > X% by Call Chg by >= 10%>22.21)) AND (Top > X% by Call Chg by >= 10%<27.31)) OR (((New Func >= X<1632.09) AND (Top Reached Chg Len >= X%<0.85)) AND (New Func >= X<1072.2))))) ,0.5667655786350148,0.2982301995732396,0.39081488230539924,0.484375,0.7362637362637363,0.5843297228864819,
7.0,R6: If ((New Func >= X>83.79) AND (((New Func >= X>608.49) OR ((Top Reached Chg Len >= X%<0.62) OR (Top > X% by Call Chg by >= 10%>6.74))) AND ((Top Reached Chg Len >= X%<0.47) OR (Top Chg Len >= X%<0.82)))) ,0.7359050445103857,0.1412074808585415,0.2369486114514122,0.296875,0.8909551986475064,0.44535376335716587,
8.0,R7: If (((Del Func >= X>76.87) OR (Reached Del Func >= X>125.62)) AND ((((Top Reached Chg Len >= X%<0.62) OR (Top > X% by Call Chg by >= 10%>6.74)) OR (((Top Reached Chg Len >= X%<0.46) AND (Top > X% by Call Chg by >= 10%<27.53)) AND (New Func >= X>292.33))) OR (Top Chg Len >= X%<0.66))) ,0.7062314540059347,0.17585038282917032,0.28158628001805525,0.34375,0.8233305156382079,0.48500486634526147,
9.0,R8: If ((Top Chg Len >= X%>0.17) AND (((Top Chg by Call >= X%>26.84) OR ((Top Reached Chg Len >= X%<0.62) OR (Top > X% by Call Chg by >= 10%>6.74))) OR (Reached Del Func >= X>176.58))) ,0.5252225519287834,0.3583532069787875,0.42603066904860865,0.5,0.6737109044801354,0.5740007202016565,
10.0,R9: If ((((Reached Del Func >= X>156.69) OR ((Top Chg Len >= X%>0.15) AND (Del Func >= X<4807.94))) OR (Top Chg Len >= X%>0.68)) AND (Top Reached Chg Len >= X%<0.6)) ,0.5341246290801187,0.3510731768545249,0.42367215352372184,0.453125,0.721048182586644,0.5565191959414616,
11.0,R10: If ((Top Chg Len >= X%>0.88) AND ((Del Func >= X<1618.24) AND ((Del Func >= X<5489.95) OR (Top Chg Len >= X%>0.76)))) ,0.34718100890207715,0.5399774068030626,0.4226300456817692,0.84375,0.31107354184277264,0.45456001097971044,
12.0,R11: If ((((Top Chg by Call >= X%>26.84) OR ((Top Reached Chg Len >= X%<0.62) OR (Top > X% by Call Chg by >= 10%<6.74))) OR (Reached Del Func >= X>176.58)) AND (Top Chg Len >= X%>0.97)) ,0.35905044510385753,0.5315677168319317,0.4286003440947272,0.8125,0.3440405748098056,0.483395002512448,
13.0,R12: If ((Top Chg Len >= X%>0.55) OR ((((New Func >= X>1572.72) OR (New Func >= X>2063.35)) AND ((Del Func >= X<2677.37) OR ((Del Func >= X<2980.28) OR (Top Chg by Call >= X%<10.18)))) AND ((((Top Chg Len >= X%<0.05) AND (New Func >= X<1869.27)) OR ((Del Func >= X>4839.69) AND (Top Reached Chg Len >= X%>0.74))) AND (((Del Func >= X>1390.46) AND (Top Chg Len >= X%>0.74)) OR ((Top Reached Chg Len >= X%>0.54) AND (Reached Del Func >= X>258.99)))))) ,0.33531157270029677,0.5581774821137191,0.4189494395371231,0.84375,0.29501267962806427,0.4371708923890603,
14.0,R13: If ((Top Chg Len >= X%>0.49) OR ((((Reached Del Func >= X>130.08) AND ((Top Chg Len >= X%<0.84) AND (Del Func >= X>160.7))) AND (Top > X% by Call Chg by >= 10%>28.96)) OR (((Top > X% by Call Chg by >= 10%>29.52) OR (Top Chg Len >= X%<0.98)) AND (Top Chg by Call >= X%>21.14)))) ,0.33234421364985167,0.5669637253671395,0.4190491494628568,0.84375,0.29501267962806427,0.4371708923890603,
15.0,R14: If ((Top Chg Len >= X%>0.4) OR ((New Func >= X>437.29) OR ((New Func >= X>1654.85) AND (Top > X% by Call Chg by >= 10%>36.63)))) ,0.3293768545994066,0.5713568469938497,0.4178631726198033,0.84375,0.29501267962806427,0.4371708923890603,
16.0,R15: If ((Top Chg Len >= X%>0.17) AND (((Top Chg by Call >= X%>26.84) OR ((Top Reached Chg Len >= X%<0.62) OR (Top > X% by Call Chg by >= 10%<6.74))) OR (Reached Del Func >= X>176.58))) ,0.3115727002967359,0.5953307392996109,0.40905965930792143,0.8125,0.3144547759932375,0.4534245933148938,
17.0,R16: If ((Top Chg Len >= X%>0.17) AND ((Top > X% by Call Chg by >= 10%>35.82) OR (Del Func >= X<5251.73))) ,0.3056379821958457,0.605623195682189,0.4062533464452679,0.84375,0.2654268808114962,0.4038200481078378,
18.0,R17: If (((Reached Del Func >= X<13.34) AND ((Top Chg by Call >= X%<8.59) AND ((Top Reached Chg Len >= X%<0.55) OR (Top Chg Len >= X%<0.53)))) OR ((Top > X% by Call Chg by >= 10%>32.75) OR (New Func >= X>497.32))) ,0.12166172106824924,0.7966612275637003,0.21108734394176473,0.703125,0.4065934065934066,0.5152406003403992,
19.0,R18: If ((((Top Reached Chg Len >= X%<0.43) OR (Top Chg Len >= X%<0.85)) OR (Top Chg Len >= X%<0.4)) OR (((((Top Reached Chg Len >= X%>0.27) AND (Top Chg Len >= X%>0.65)) AND ((New Func >= X>279.63) AND (Del Func >= X>784.38))) OR ((Top > X% by Call Chg by >= 10%<20.63) AND ((Del Func >= X>1825.27) AND (Del Func >= X>5923.3)))) AND (New Func >= X<2195.41))) ,0.17507418397626118,0.7516003514497301,0.2839957572500743,0.640625,0.4446322907861369,0.5249309333430696,
20.0,R19: If ((((Top Reached Chg Len >= X%<0.43) OR (Top Chg Len >= X%<0.85)) OR (Top Chg Len >= X%<0.4)) OR (((((Top Reached Chg Len >= X%>0.27) AND (Top Chg Len >= X%>0.65)) AND ((New Func >= X>279.63) OR (Del Func >= X>784.38))) OR ((Top > X% by Call Chg by >= 10%<20.63) AND ((Del Func >= X>1825.27) AND (Del Func >= X>5923.3)))) AND (New Func >= X<2195.41))) ,0.09792284866468848,0.8289192920798293,0.17515418176469863,0.765625,0.3322062552831784,0.46335976130607925,
21.0,R20: If (((Reached Del Func >= X>176.58) OR ((Top > X% by Call Chg by >= 10%>19.77) OR (Del Func >= X<837.45))) AND (Top Chg Len >= X%>0.97)) ,0.43620178041543023,0.4919041044307769,0.4623813934374914,0.78125,0.3389687235841082,0.47279930200202797,
22.0,R21: If (((((Top Reached Chg Len >= X%<0.62) OR (Top > X% by Call Chg by >= 10%<6.74)) AND (((Top Reached Chg Len >= X%<0.46) AND (Top > X% by Call Chg by >= 10%<27.53)) OR (New Func >= X>292.33))) OR (Top Chg Len >= X%<0.66)) OR (Top > X% by Call Chg by >= 10%>36.48)) ,0.10089020771513357,0.8274130789506715,0.1798504402615651,0.71875,0.36094674556213024,0.4805617400239768,


Results of fold 9 Cross Validation
index,Rule,training hit,training dismiss,training F-Measure,testing hit,testing dismiss,testing f-measure
1.0,R0: If (((Top Reached Chg Len >= X%<0.75) OR ((Top > X% by Call Chg by >= 10%>21.63) OR ((Top Chg Len >= X%>0.7) AND (Del Func >= X>162.92)))) AND (Top Chg Len >= X%>0.55)) ,0.3827893175074184,0.47395506464164683,0.4235217399810021,0.734375,0.4818258664412511,0.5818789978388592,
2.0,R1: If (((Top Reached Chg Len >= X%<0.75) OR ((New Func >= X>651.09) OR ((New Func >= X<911.28) AND (Del Func >= X>162.92)))) AND (Top Chg Len >= X%>0.55)) ,0.3857566765578635,0.4728254047947784,0.4248762248995635,0.71875,0.4835164835164835,0.5781205369894316,
3.0,R2: If (((Top Reached Chg Len >= X%<0.75) OR ((Top > X% by Call Chg by >= 10%>21.63) OR ((Top Chg Len >= X%>0.44) AND (Del Func >= X>162.92)))) AND (Top Chg Len >= X%>0.42)) ,0.3768545994065282,0.4871344295217773,0.42495643844521674,0.734375,0.4818258664412511,0.5818789978388592,
4.0,R3: If (((Top Reached Chg Len >= X%<0.75) OR ((Top > X% by Call Chg by >= 10%>21.63) OR ((Top Chg Len >= X%>0.44) AND (Del Func >= X>4349.92)))) AND (Top Chg Len >= X%>0.55)) ,0.5578635014836795,0.30726747834818624,0.3962713516436395,0.484375,0.7472527472527473,0.5877596542590269,
5.0,R4: If (((((Top Chg Len >= X%>0.9) AND (Top Reached Chg Len >= X%>0.92)) AND ((Top > X% by Call Chg by >= 10%>31.14) AND ((Top Reached Chg Len >= X%<0.87) OR (New Func >= X<1863.77)))) OR ((Top Chg Len >= X%>0.88) AND (((Top > X% by Call Chg by >= 10%<12.27) OR (Top Chg by Call >= X%<19.74)) AND ((Top Chg Len >= X%>0.16) OR (Reached Del Func >= X>193.33))))) AND ((Top Reached Chg Len >= X%<0.23) AND (((Top > X% by Call Chg by >= 10%>26.95) OR ((Top Chg by Call >= X%<29.69) OR (Top > X% by Call Chg by >= 10%<14.7))) OR ((Del Func >= X>1137.73) OR ((New Func >= X<1181.82) OR (New Func >= X<126.28)))))) ,0.6706231454005935,0.19593322455127404,0.30326326109484275,0.375,0.8191039729501268,0.514467746217149,
6.0,R5: If (((Top Reached Chg Len >= X%<0.75) OR ((Top > X% by Call Chg by >= 10%>21.63) OR ((Del Func >= X<1146.67) AND ((Top Chg by Call >= X%>15.41) OR (Reached Del Func >= X>28.93))))) AND (Top Chg Len >= X%>0.42)) ,0.543026706231454,0.324839964855027,0.4065066260621248,0.484375,0.7404902789518174,0.5856562105739888,
7.0,R6: If ((Top Reached Chg Len >= X%<0.9) AND ((((Top Reached Chg Len >= X%<0.93) OR (Top Reached Chg Len >= X%<0.76)) AND (Top Chg Len >= X%>0.73)) AND ((Top Reached Chg Len >= X%>0.51) OR ((Top Chg by Call >= X%<34.27) OR (Top Chg by Call >= X%<30.26))))) ,0.56973293768546,0.30375298104681814,0.3962469789408512,0.453125,0.757396449704142,0.5670205453295655,
8.0,R7: If (((Top Reached Chg Len >= X%<0.75) OR ((Top > X% by Call Chg by >= 10%>2.09) OR ((Del Func >= X<1146.67) AND ((Top Chg by Call >= X%>20.32) OR (Reached Del Func >= X>28.93))))) AND (Top Chg Len >= X%>0.42)) ,0.5222551928783383,0.35621940504581395,0.4235465306084377,0.5625,0.6398985629754861,0.598708203348126,
9.0,R8: If ((Del Func >= X>95.76) OR (New Func >= X>1567.88)) ,0.5163204747774481,0.365507719342287,0.42801788476272623,0.578125,0.5722738799661876,0.575184560098279,
10.0,R9: If ((Del Func >= X>95.76) AND (Top Chg by Call >= X%<17.19)) ,0.5192878338278932,0.3642525417346555,0.42816812586127895,0.546875,0.5857988165680473,0.5656681087258183,
11.0,R10: If (((Top Chg Len >= X%>0.13) AND (((New Func >= X<541.1) AND (Top Reached Chg Len >= X%<0.19)) OR (((Top > X% by Call Chg by >= 10%<24.55) AND (Top Chg Len >= X%<0.38)) AND ((Top > X% by Call Chg by >= 10%>35.12) OR (Top Chg by Call >= X%>33.93))))) AND ((Top Chg Len >= X%>0.91) AND ((Del Func >= X<531.1) OR (Top Chg Len >= X%<0.96)))) ,0.7091988130563798,0.17446968746077574,0.28004550391710503,0.328125,0.8444632290786137,0.47261176629608354,
12.0,R11: If (((Top Chg Len >= X%>0.85) AND ((Top Chg Len >= X%>0.7) OR (New Func >= X>2183.07))) AND (((Top Reached Chg Len >= X%<1.0) OR (Top > X% by Call Chg by >= 10%<8.14)) AND (Reached Del Func >= X<32.24))) ,0.35905044510385753,0.5284297728128531,0.4275767308480819,0.78125,0.36094674556213024,0.493767200906589,
13.0,R12: If (((Reached Del Func >= X<202.23) AND ((Del Func >= X<2980.67) OR ((Top Chg Len >= X%>0.52) AND ((Top Chg Len >= X%>0.73) AND (New Func >= X>1089.33))))) AND ((Top Chg Len >= X%>0.13) AND (((Top Chg Len >= X%>0.69) AND (Top Reached Chg Len >= X%<0.19)) OR (((Top > X% by Call Chg by >= 10%<24.55) AND (Top Chg Len >= X%<0.38)) AND ((Top > X% by Call Chg by >= 10%>35.12) AND (Top Chg by Call >= X%>18.88)))))) ,0.6943620178041543,0.19430149366135308,0.303637035751737,0.34375,0.8410819949281487,0.4880387042115354,
14.0,R13: If (((Top Chg Len >= X%>0.89) AND ((Top Reached Chg Len >= X%<1.0) OR (Top > X% by Call Chg by >= 10%<8.14))) AND (((Top Reached Chg Len >= X%<1.0) OR (Top > X% by Call Chg by >= 10%<8.14)) AND (Reached Del Func >= X<32.24))) ,0.3649851632047477,0.524162168946906,0.43032556666595456,0.78125,0.36094674556213024,0.493767200906589,
15.0,R14: If (((Reached Del Func >= X<202.23) AND (((Top Chg Len >= X%>0.69) AND (Top Reached Chg Len >= X%<0.19)) OR (((Top > X% by Call Chg by >= 10%<24.55) AND (Top Chg Len >= X%<0.38)) AND ((Top > X% by Call Chg by >= 10%>35.12) AND (Top Chg by Call >= X%>18.88))))) AND ((Top Chg Len >= X%>0.13) AND (((New Func >= X<541.1) AND (Top Reached Chg Len >= X%<0.19)) OR (((Top > X% by Call Chg by >= 10%<24.55) AND (Top Chg Len >= X%<0.38)) AND ((Top > X% by Call Chg by >= 10%>35.12) OR (Top Chg by Call >= X%>33.93)))))) ,0.7032640949554896,0.18702146353709048,0.29546807546639364,0.34375,0.8436179205409975,0.488464704442813,
16.0,R15: If (((Top Chg Len >= X%>0.85) AND ((Top Chg Len >= X%>0.7) OR (Top > X% by Call Chg by >= 10%>15.02))) AND (((Top Reached Chg Len >= X%<1.0) AND (Top > X% by Call Chg by >= 10%<8.14)) OR (Reached Del Func >= X<32.24))) ,0.35311572700296734,0.5379691226308523,0.42636873002835995,0.828125,0.30853761622992393,0.4495752913698742,
17.0,R16: If (((Top Reached Chg Len >= X%<0.75) OR ((Top > X% by Call Chg by >= 10%<5.74) AND (Del Func >= X<3873.45))) AND (Top Chg Len >= X%>0.42)) ,0.34124629080118696,0.552152629597088,0.42180493507229844,0.78125,0.37362637362637363,0.5055010407374368,
18.0,R17: If (((Top Chg Len >= X%>0.85) AND ((Top Chg Len >= X%>0.7) OR (Top > X% by Call Chg by >= 10%<15.02))) AND (((Top Reached Chg Len >= X%<1.0) OR (Top > X% by Call Chg by >= 10%<8.14)) OR (Reached Del Func >= X<32.24))) ,0.34718100890207715,0.5470064014057989,0.42476606609921336,0.84375,0.29839391377852914,0.4408724009528875,
19.0,R18: If ((Top Chg Len >= X%>0.45) AND (New Func >= X<1775.89)) ,0.33531157270029677,0.5639512991088239,0.4205653384757863,0.84375,0.3026204564666103,0.44546858077747303,
20.0,R19: If (((New Func >= X>777.54) OR (Top Chg Len >= X%>0.44)) OR ((((Top Chg by Call >= X%>20.05) OR (Top Chg Len >= X%>0.05)) AND (Top Reached Chg Len >= X%>0.4)) AND ((Top Chg by Call >= X%<14.82) OR (New Func >= X>887.83)))) ,0.33234421364985167,0.5669637253671395,0.4190491494628568,0.84375,0.29501267962806427,0.4371708923890603,
21.0,R20: If ((Top Reached Chg Len >= X%<0.74) AND ((Del Func >= X>105.13) AND ((((Del Func >= X>1446.9) AND (Top Chg Len >= X%>0.88)) OR ((Top > X% by Call Chg by >= 10%>34.99) AND (Top Reached Chg Len >= X%<0.32))) OR (Reached Del Func >= X<63.83)))) ,0.7655786350148368,0.13480607505962094,0.22924567638941287,0.234375,0.9247675401521556,0.3739702145599982,
22.0,R21: If (((Reached Del Func >= X>44.21) OR ((Top Chg Len >= X%>0.11) OR (Top Chg by Call >= X%>29.83))) AND (((((Reached Del Func >= X<108.32) AND (Top Chg by Call >= X%<16.72)) AND ((Top Chg by Call >= X%<13.34) AND (Top Reached Chg Len >= X%<0.85))) AND (Del Func >= X<6151.3)) OR (Top Chg Len >= X%<0.18))) ,0.513353115727003,0.38734780971507465,0.4415365841656422,0.453125,0.7125950972104819,0.5539831631901563,
23.0,R22: If ((Top Chg Len >= X%>0.42) AND ((Top Chg Len >= X%>0.13) OR (((Top Chg Len >= X%>0.25) OR ((Top Reached Chg Len >= X%>0.92) OR (Top > X% by Call Chg by >= 10%>12.8))) OR ((Reached Del Func >= X>132.33) AND ((Top Reached Chg Len >= X%>0.1) OR (Top Chg Len >= X%>0.27)))))) ,0.3293768545994066,0.5713568469938497,0.4178631726198033,0.84375,0.29501267962806427,0.4371708923890603,
24.0,R23: If ((Top Chg by Call >= X%>33.9) OR (New Func >= X>74.75)) ,0.5044510385756676,0.3998995857913895,0.4461317456813472,0.6875,0.5097210481825867,0.5854110586470147,


Results of fold 9 Cross Validation
index,Rule,training hit,training dismiss,training F-Measure,testing hit,testing dismiss,testing f-measure
1.0,R0: If (((((Reached Del Func >= X>39.33) AND ((Reached Del Func >= X<234.17) AND (New Func >= X<1144.27))) AND ((Reached Del Func >= X>52.4) AND (Top Chg Len >= X%>0.4))) OR (((Del Func >= X<5069.62) AND ((Top Chg Len >= X%>0.62) OR (Reached Del Func >= X>161.81))) AND (((Reached Del Func >= X<9.35) OR (Top Reached Chg Len >= X%<0.38)) AND (Reached Del Func >= X<45.69)))) AND (New Func >= X>109.6)) ,0.5816023738872403,0.26622317057863687,0.36525445359131825,0.59375,0.6576500422654269,0.6240685622612036,
2.0,R1: If ((Top Reached Chg Len >= X%<0.64) AND (((New Func >= X<615.88) AND ((New Func >= X<1806.55) AND ((Top Chg Len >= X%>0.48) OR (Reached Del Func >= X>4.73)))) OR (((Reached Del Func >= X<142.45) AND ((New Func >= X>15.67) OR (Del Func >= X>5708.73))) AND ((Top > X% by Call Chg by >= 10%<36.13) AND ((Reached Del Func >= X<180.36) AND (Top Chg by Call >= X%<9.12)))))) ,0.5489614243323442,0.3100288690849755,0.39626498893241724,0.4375,0.7650042265426881,0.5566539255744476,
3.0,R2: If ((Top > X% by Call Chg by >= 10%<23.95) AND ((Top Reached Chg Len >= X%<0.34) AND (Top Chg Len >= X%>0.4))) ,0.6053412462908012,0.25957072925819,0.36334071718692407,0.40625,0.7802197802197803,0.5342981186685962,
4.0,R3: If ((New Func >= X>109.6) AND (((((Top Chg by Call >= X%>6.47) AND (Del Func >= X>6443.02)) AND ((Top Chg Len >= X%<0.96) OR (Top Chg Len >= X%<0.4))) OR (Top Reached Chg Len >= X%<0.69)) OR (New Func >= X>211.96))) ,0.6023738872403561,0.26534454625329484,0.368406661919313,0.53125,0.6813186813186813,0.5969980175587652,
5.0,R4: If ((Top Reached Chg Len >= X%<0.64) AND (((New Func >= X<615.88) OR ((New Func >= X<1806.55) AND ((Top Chg Len >= X%>0.48) OR (Reached Del Func >= X>4.73)))) AND (((Reached Del Func >= X<142.45) AND ((New Func >= X>15.67) OR (Del Func >= X>5708.73))) AND ((Top > X% by Call Chg by >= 10%<36.13) AND ((Reached Del Func >= X<180.36) AND (Top Chg by Call >= X%<36.79)))))) ,0.655786350148368,0.21250156897200956,0.3209894442804884,0.421875,0.8241758241758241,0.5580818520049607,
6.0,R5: If ((Top Reached Chg Len >= X%<0.64) AND (((New Func >= X<615.88) AND ((New Func >= X<1806.55) AND ((Top Chg Len >= X%>0.48) OR (Reached Del Func >= X>4.73)))) OR (((Reached Del Func >= X<142.45) AND ((New Func >= X>15.67) OR (Del Func >= X>4049.08))) AND ((Top Chg Len >= X%>0.21) AND ((Top > X% by Call Chg by >= 10%<4.4) AND (Del Func >= X<1820.53)))))) ,0.5637982195845697,0.305384711936739,0.3961774918357543,0.4375,0.7658495350803043,0.5568775519164069,
7.0,R6: If (((((Reached Del Func >= X>39.33) AND ((Reached Del Func >= X<234.17) AND (New Func >= X<1144.27))) AND ((Reached Del Func >= X>52.4) AND (Top Chg Len >= X%>0.4))) OR (((Del Func >= X<5069.62) AND ((Top Chg Len >= X%>0.62) OR (Reached Del Func >= X<161.81))) AND (((Reached Del Func >= X<221.24) OR (Top Reached Chg Len >= X%<0.38)) AND (Reached Del Func >= X<45.69)))) AND (New Func >= X>109.6)) ,0.5459940652818991,0.3245889293335007,0.4071378149319118,0.671875,0.555367709213863,0.6080910920498939,
8.0,R7: If (((((Reached Del Func >= X>39.33) AND ((Reached Del Func >= X<234.17) AND (New Func >= X<1144.27))) AND ((Reached Del Func >= X>52.4) AND (Top Chg Len >= X%>0.4))) OR (((Reached Del Func >= X<1.9) OR ((New Func >= X<1463.38) AND (Del Func >= X<5859.02))) AND (((Top Chg by Call >= X%<17.0) AND (Top Reached Chg Len >= X%<0.65)) OR (Reached Del Func >= X>238.46)))) AND (New Func >= X>109.6)) ,0.7566765578635015,0.11509978661980669,0.19980654648737467,0.296875,0.9019442096365173,0.4467140417561835,
9.0,R8: If (((((Reached Del Func >= X>39.33) AND ((Reached Del Func >= X<234.17) AND (Top Reached Chg Len >= X%<0.52))) AND ((Reached Del Func >= X>52.4) AND (Top Chg Len >= X%<0.4))) OR (((Reached Del Func >= X<1.9) OR ((New Func >= X<1463.38) AND (Del Func >= X<3568.35))) AND (((Top Chg by Call >= X%<17.0) AND (Top Reached Chg Len >= X%<0.65)) OR (Top Chg Len >= X%<0.24)))) AND (New Func >= X>109.6)) ,0.7596439169139466,0.11309150244759636,0.19687357699272234,0.296875,0.904480135249366,0.4470244181316446,
10.0,R9: If ((Top Chg Len >= X%>0.25) AND ((Top Reached Chg Len >= X%<0.6) OR ((New Func >= X>998.48) AND (((Top Reached Chg Len >= X%>0.56) AND (Top Chg by Call >= X%<1.07)) OR (Top Reached Chg Len >= X%<0.63))))) ,0.5370919881305638,0.33726622317057864,0.414345022419156,0.4375,0.7286559594251902,0.5467313006840937,
11.0,R10: If (((((Reached Del Func >= X>39.33) AND ((Reached Del Func >= X<234.17) AND (New Func >= X<1144.27))) AND ((Reached Del Func >= X>52.4) AND (Top > X% by Call Chg by >= 10%<14.49))) OR (((Reached Del Func >= X<1.9) OR ((New Func >= X<1463.38) AND (Del Func >= X>5859.02))) AND ((Del Func >= X<5069.62) AND ((Top Chg by Call >= X%<34.42) OR (Reached Del Func >= X>161.81))))) AND (New Func >= X>109.6)) ,0.7537091988130564,0.12112463913643778,0.2087087873373174,0.359375,0.8706677937447168,0.5087566708544062,
12.0,R11: If (((((Reached Del Func >= X>39.33) AND ((Reached Del Func >= X<234.17) AND (New Func >= X<1144.27))) AND ((Reached Del Func >= X>52.4) AND (Top > X% by Call Chg by >= 10%<14.49))) OR (((Reached Del Func >= X<1.9) OR ((New Func >= X<1463.38) AND (Del Func >= X>5859.02))) AND (((Top Chg by Call >= X%<17.0) AND (Top Reached Chg Len >= X%<0.65)) OR (Reached Del Func >= X>238.46)))) AND (New Func >= X>109.6)) ,0.7863501483679525,0.0946403916154136,0.16894729877527798,0.265625,0.9120879120879121,0.41143023764397146,
13.0,R12: If (((Top Chg by Call >= X%>14.66) OR (Top Chg by Call >= X%>14.67)) OR (Del Func >= X>87.36)) ,0.49851632047477745,0.384209865695996,0.4339621765787783,0.640625,0.5469146238377007,0.5900724049337678,
14.0,R13: If ((Del Func >= X>87.36) OR ((Reached Del Func >= X>189.27) AND (((Del Func >= X<5069.62) AND ((Top Chg Len >= X%>0.62) OR (Reached Del Func >= X>161.81))) AND (((Reached Del Func >= X<9.35) OR (Top Reached Chg Len >= X%<0.38)) OR (Reached Del Func >= X<45.69))))) ,0.5014836795252225,0.3829546880883645,0.43427678650388907,0.640625,0.547759932375317,0.5905640455682134,
15.0,R14: If (((((Del Func >= X<5069.62) AND ((Top Chg Len >= X%>0.62) OR (Reached Del Func >= X>161.81))) AND (((Reached Del Func >= X<9.35) OR (Top Reached Chg Len >= X%<0.38)) AND (Reached Del Func >= X<45.69))) OR (Del Func >= X>1923.8)) AND (Top Chg by Call >= X%<25.39)) ,0.3887240356083086,0.4957951550144345,0.43577911148896314,0.75,0.4091293322062553,0.5294439380127621,
16.0,R15: If ((Top Reached Chg Len >= X%<0.64) AND (((New Func >= X<615.88) AND ((New Func >= X<1806.55) AND ((Top Chg Len >= X%>0.48) OR (Reached Del Func >= X>4.73)))) AND (((Reached Del Func >= X<142.45) AND ((New Func >= X>15.67) OR (Del Func >= X>5708.73))) AND ((Top > X% by Call Chg by >= 10%<36.13) AND ((Reached Del Func >= X<180.36) AND (Top Chg by Call >= X%<36.79)))))) ,0.685459940652819,0.20070289946027364,0.310493266757452,0.40625,0.8267117497886729,0.5447884306373862,
17.0,R16: If ((Top Reached Chg Len >= X%<0.64) AND (((New Func >= X<615.88) AND ((New Func >= X<1806.55) AND ((Top Chg Len >= X%>0.48) OR (Reached Del Func >= X<4.73)))) AND (((Reached Del Func >= X<142.45) AND ((New Func >= X>15.67) OR (Del Func >= X>5708.73))) AND ((Top Chg Len >= X%>0.21) AND ((Top > X% by Call Chg by >= 10%<4.4) AND (Del Func >= X<1820.53)))))) ,0.6913946587537092,0.1964352955943266,0.30594668156777066,0.390625,0.8377007607776839,0.5328014279723438,
18.0,R17: If (((((Reached Del Func >= X>39.33) AND ((Reached Del Func >= X<234.17) AND (New Func >= X>1144.27))) AND ((Reached Del Func >= X>52.4) AND (Top Chg Len >= X%>0.4))) OR (((Reached Del Func >= X<1.9) OR ((New Func >= X<1463.38) AND (Del Func >= X<5859.02))) AND ((Top Chg Len >= X%>0.47) AND ((Top > X% by Call Chg by >= 10%<1.25) AND (New Func >= X<866.14))))) OR (New Func >= X>109.6)) ,0.33827893175074186,0.5547885025731141,0.42028911767478055,0.828125,0.31107354184277264,0.4522614230559646,
19.0,R18: If ((Top Chg Len >= X%>0.85) OR (New Func >= X>696.16)) ,0.34718100890207715,0.5481360612526672,0.4251062268441288,0.84375,0.29501267962806427,0.4371708923890603,
20.0,R19: If ((New Func >= X>1678.78) OR (Top Chg Len >= X%>0.89)) ,0.35311572700296734,0.5438684573867203,0.4282093465332721,0.84375,0.29501267962806427,0.4371708923890603,


Results of fold 9 Cross Validation
index,Rule,training hit,training dismiss,training F-Measure,testing hit,testing dismiss,testing f-measure
1.0,R0: If ((Top Chg by Call >= X%>32.86) OR ((Top Reached Chg Len >= X%<0.46) AND (Top Chg Len >= X%>0.9))) ,0.5875370919881306,0.25429898330613787,0.3549624197204884,0.453125,0.7641589180050719,0.5689050920651455,
2.0,R1: If (((Top Reached Chg Len >= X%<0.46) AND (Top Chg Len >= X%>0.9)) OR ((Top Chg by Call >= X%>21.26) OR ((New Func >= X>8.66) AND ((Top Reached Chg Len >= X%>0.13) AND (Top Reached Chg Len >= X%<0.51))))) ,0.5786350148367952,0.27249905861679424,0.37051153688617844,0.46875,0.7514792899408284,0.577360206091832,
3.0,R2: If ((Reached Del Func >= X>130.61) OR ((Top Chg by Call >= X%>21.26) OR ((New Func >= X>8.66) AND ((Top Reached Chg Len >= X%<0.48) AND (Top Reached Chg Len >= X%<0.51))))) ,0.6320474777448071,0.22116229446466673,0.32766870455939384,0.453125,0.7810650887573964,0.5735261068244812,
4.0,R3: If (((Top Reached Chg Len >= X%<0.77) AND (Top Chg Len >= X%>0.8)) OR ((((Reached Del Func >= X>198.53) AND (Top Reached Chg Len >= X%<0.97)) AND (Top Chg by Call >= X%>23.62)) OR (Del Func >= X>715.42))) ,0.5074183976261127,0.3474331617923936,0.4124551831169153,0.5,0.7185122569737953,0.5896635449184877,
5.0,R4: If ((Reached Del Func >= X>130.61) OR ((Top Chg by Call >= X%>21.26) OR ((New Func >= X>8.66) AND ((Top Reached Chg Len >= X%<0.07) OR (Top Reached Chg Len >= X%<0.51))))) ,0.629080118694362,0.22844232458892932,0.33517146004246107,0.453125,0.7793744716821639,0.573069710121631,
6.0,R5: If (((Top > X% by Call Chg by >= 10%>1.66) AND (Top Chg Len >= X%>0.44)) OR ((Top Reached Chg Len >= X%<0.77) AND (Top Chg Len >= X%>0.9))) ,0.543026706231454,0.3302372285678423,0.41070660852475127,0.578125,0.628909551986475,0.6024489259960388,
7.0,R6: If (((Top > X% by Call Chg by >= 10%>1.66) AND (Top Chg Len >= X%>0.44)) OR ((Top Reached Chg Len >= X%<0.77) AND (Top Chg Len >= X%>0.8))) ,0.5370919881305638,0.3366386343667629,0.41387106908721355,0.578125,0.628909551986475,0.6024489259960388,
8.0,R7: If (((Top Reached Chg Len >= X%<0.77) AND (Top Chg Len >= X%>0.9)) OR ((New Func >= X>1093.15) AND (Del Func >= X<6344.94))) ,0.5756676557863502,0.2994853771808711,0.39399748050798405,0.453125,0.7540152155536771,0.566070353958094,
9.0,R8: If ((((((Top Reached Chg Len >= X%<0.5) AND (Reached Del Func >= X<78.77)) AND ((Reached Del Func >= X>54.05) AND (Top Chg by Call >= X%>16.54))) OR ((Top Reached Chg Len >= X%<0.92) AND (Top Chg by Call >= X%<14.4))) OR ((((Del Func >= X<4066.67) AND (Reached Del Func >= X<92.04)) AND ((New Func >= X>1009.09) AND (Top > X% by Call Chg by >= 10%>4.92))) AND (New Func >= X<88.54))) AND ((((Top Chg Len >= X%>0.02) OR ((Top Reached Chg Len >= X%<0.67) OR (Reached Del Func >= X<199.16))) AND ((Top > X% by Call Chg by >= 10%>24.75) OR (New Func >= X>1391.59))) OR ((((Top Chg Len >= X%>0.37) OR (New Func >= X>1987.66)) AND ((Top Chg Len >= X%>0.36) OR (Top Reached Chg Len >= X%>0.19))) AND (New Func >= X>28.85)))) ,0.6676557863501484,0.20861051838835198,0.31789427241996226,0.40625,0.841927303465765,0.5480518930816279,
10.0,R9: If (((Top Chg by Call >= X%>21.26) OR ((New Func >= X>8.66) AND ((Top Reached Chg Len >= X%<0.48) AND (Top Reached Chg Len >= X%<0.51)))) OR ((Top > X% by Call Chg by >= 10%>1.66) OR (Top Chg Len >= X%>0.44))) ,0.3175074183976261,0.574243755491402,0.4089182222029166,0.84375,0.29501267962806427,0.4371708923890603,
11.0,R10: If ((((((Top Reached Chg Len >= X%>0.5) AND (Reached Del Func >= X<78.77)) AND ((Reached Del Func >= X>54.05) AND (Del Func >= X>3996.47))) OR ((Top Reached Chg Len >= X%<0.92) AND (Top Chg by Call >= X%<14.4))) OR (((Top Chg Len >= X%>0.27) OR ((Top Chg Len >= X%>0.75) AND (Top > X% by Call Chg by >= 10%>3.84))) OR ((Top > X% by Call Chg by >= 10%>28.06) OR (New Func >= X>297.45)))) AND ((((Top Chg Len >= X%>0.02) OR ((Top Reached Chg Len >= X%>0.67) OR (Reached Del Func >= X<199.16))) AND ((Top > X% by Call Chg by >= 10%>24.75) OR (New Func >= X>1391.59))) OR ((((Top Chg Len >= X%>0.37) OR (New Func >= X>1987.66)) AND ((Top Chg Len >= X%>0.36) OR (Top Reached Chg Len >= X%>0.19))) AND (New Func >= X>28.85)))) ,0.4480712166172107,0.44470942638383326,0.4463839920434141,0.78125,0.39391377852916315,0.5237485108009081,
12.0,R11: If (((Reached Del Func >= X>87.22) OR (Top Chg Len >= X%>0.63)) AND (Del Func >= X<2037.66)) ,0.34718100890207715,0.5482615790134304,0.4251439695027983,0.84375,0.29501267962806427,0.4371708923890603,
13.0,R12: If ((Reached Del Func >= X>130.61) OR ((Top Chg by Call >= X%>21.26) OR ((New Func >= X>8.66) OR (((New Func >= X>143.78) AND (Top Chg by Call >= X%>12.97)) AND (Top Chg Len >= X%>0.28))))) ,0.4065281899109793,0.4898958202585666,0.4443354010944038,0.828125,0.3229078613693998,0.46464020562956837,
14.0,R13: If ((Top > X% by Call Chg by >= 10%>35.48) OR (Top Chg Len >= X%>0.98)) ,0.35311572700296734,0.5438684573867203,0.4282093465332721,0.84375,0.29501267962806427,0.4371708923890603,
15.0,R14: If ((Del Func >= X>4209.37) OR ((Del Func >= X>5602.15) OR ((Top Chg Len >= X%>0.35) AND (((Del Func >= X<1022.08) AND (Reached Del Func >= X>56.34)) OR ((Reached Del Func >= X<178.83) AND (Top Chg Len >= X%>0.51)))))) ,0.33531157270029677,0.5618174971758504,0.4199705814339205,0.84375,0.29501267962806427,0.4371708923890603,
16.0,R15: If ((New Func >= X>1133.34) OR (Top Chg Len >= X%>0.43)) ,0.3293768545994066,0.5692230450608762,0.41729115754081025,0.84375,0.29501267962806427,0.4371708923890603,
17.0,R16: If (((Top Chg by Call >= X%>21.26) OR ((New Func >= X>8.66) AND ((Top Reached Chg Len >= X%>0.13) AND (Top Reached Chg Len >= X%<0.51)))) OR ((Top > X% by Call Chg by >= 10%>1.66) OR (Top Chg Len >= X%>0.44))) ,0.33234421364985167,0.5669637253671395,0.4190491494628568,0.84375,0.29501267962806427,0.4371708923890603,
18.0,R17: If ((Reached Del Func >= X>130.61) OR ((Top Chg by Call >= X%>21.26) OR ((New Func >= X>8.66) OR ((Top Chg Len >= X%>0.28) AND ((Top Reached Chg Len >= X%<0.53) AND (Reached Del Func >= X<121.14)))))) ,0.3086053412462908,0.5923183130412953,0.4057893124519662,0.84375,0.29501267962806427,0.4371708923890603,
19.0,R18: If ((Reached Del Func >= X>130.61) OR ((Top Chg by Call >= X%>21.26) OR ((New Func >= X>8.66) AND (((New Func >= X>525.76) OR (Top Chg by Call >= X%>12.97)) OR (Top Chg Len >= X%>0.56))))) ,0.42136498516320475,0.4811095770051462,0.44925970941402,0.828125,0.3229078613693998,0.46464020562956837,
20.0,R19: If ((New Func >= X<802.5) AND ((Top Chg by Call >= X%>21.26) OR ((New Func >= X>8.66) OR (((New Func >= X>143.78) AND (Top Chg by Call >= X%>12.97)) AND (Top Chg Len >= X%>0.28))))) ,0.4658753709198813,0.4418225178862809,0.4535302592181806,0.828125,0.34657650042265425,0.4886495238309403,
21.0,R20: If ((Reached Del Func >= X>130.61) OR ((Top Chg by Call >= X%>21.26) OR ((New Func >= X>8.66) OR (((New Func >= X>525.76) OR (Top Chg by Call >= X%>12.97)) OR (Top Chg Len >= X%>0.28))))) ,0.3056379821958457,0.6026107694238735,0.4055733394353502,0.84375,0.29501267962806427,0.4371708923890603,
22.0,R21: If ((Del Func >= X<1032.7) AND ((Top Chg Len >= X%>0.22) AND (Top Chg Len >= X%>0.63))) ,0.3857566765578635,0.5305635747458266,0.4467181446779522,0.78125,0.34065934065934067,0.4744413835322926,
