

Results of fold 1 Cross Validation
index,Rule,training hit,training dismiss,training F-Measure,testing hit,testing dismiss,testing f-measure
1.0,R0: If ((Top Chg Len >= X%>0.91) AND ((Top Reached Chg Len >= X%<0.28) OR (Del Func >= X>712.47))) ,0.5459459459459459,0.2641975308641975,0.3560790774299835,0.3548387096774194,0.6387596899224807,0.4562339558061107,
2.0,R1: If (((Top Chg Len >= X%>0.43) AND (Del Func >= X<1372.85)) AND ((Top Reached Chg Len >= X%<0.54) OR (Del Func >= X>712.47))) ,0.49189189189189186,0.32698412698412693,0.39283319362950536,0.3870967741935484,0.6093023255813953,0.4734226773076344,
3.0,R2: If ((Top Chg Len >= X%>0.56) AND ((Reached Del Func >= X<110.38) AND ((Top Reached Chg Len >= X%<0.94) OR (((Top Chg by Call >= X%>33.28) OR (Del Func >= X>816.03)) OR ((New Func >= X>1386.47) AND (Top > X% by Call Chg by >= 10%<29.55)))))) ,0.48108108108108105,0.34132863021751914,0.3993307573415765,0.3870967741935484,0.5906976744186047,0.4676998618996471,
4.0,R3: If ((Top Chg Len >= X%>0.91) AND ((Top Reached Chg Len >= X%<0.54) OR (Del Func >= X>712.47))) ,0.508108108108108,0.31440329218107,0.38844655993076593,0.3870967741935484,0.6093023255813953,0.4734226773076344,
5.0,R4: If (((New Func >= X>348.04) AND ((((Top Chg by Call >= X%>10.82) AND (Reached Del Func >= X>62.62)) OR (New Func >= X>387.67)) OR ((Top Chg Len >= X%<0.81) OR (Top Chg by Call >= X%<14.28)))) OR (((Top Chg Len >= X%<0.17) OR (Top Reached Chg Len >= X%<0.26)) AND ((((Top Reached Chg Len >= X%>1.0) OR (Top Reached Chg Len >= X%>0.48)) OR ((Top Chg Len >= X%>0.3) OR (Top Reached Chg Len >= X%>0.12))) OR (((New Func >= X<1535.61) OR (Del Func >= X<2016.97)) AND ((Del Func >= X>4297.13) OR (Top Reached Chg Len >= X%>0.04)))))) ,0.44324324324324327,0.3793062904174015,0.4087898502572978,0.4516129032258064,0.5534883720930233,0.4973876698014628,
6.0,R5: If ((Top Chg Len >= X%>0.88) AND ((Reached Del Func >= X<110.38) AND ((Top Reached Chg Len >= X%<0.94) AND ((Top Reached Chg Len >= X%<0.49) OR (Top Reached Chg Len >= X%<0.49))))) ,0.5621621621621622,0.2627865961199295,0.3581523811725007,0.25806451612903225,0.6806201550387597,0.37423410943577173,
7.0,R6: If ((Top Chg Len >= X%>0.56) AND ((Reached Del Func >= X<110.38) AND ((Top Reached Chg Len >= X%<0.94) OR ((Top Reached Chg Len >= X%<0.49) AND (Reached Del Func >= X<23.4))))) ,0.5405405405405406,0.29711934156378605,0.38346124226571426,0.25806451612903225,0.6713178294573643,0.3728138621320562,
8.0,R7: If (((Top > X% by Call Chg by >= 10%>29.85) OR ((Top Chg Len >= X%<0.17) OR (Top Reached Chg Len >= X%<0.26))) AND (Top Chg Len >= X%>0.66)) ,0.6162162162162161,0.22410346854791297,0.3286753694655795,0.2258064516129032,0.7147286821705428,0.34318834414548544,
9.0,R8: If (((Del Func >= X<1872.06) AND ((Top Chg Len >= X%<0.17) OR (Top Reached Chg Len >= X%<0.26))) AND ((Top Reached Chg Len >= X%>0.05) OR (Top Chg Len >= X%>0.48))) ,0.6108108108108108,0.23809523809523814,0.34263189812007283,0.2258064516129032,0.7147286821705428,0.34318834414548544,
10.0,R9: If ((Top Chg by Call >= X%>15.91) OR (((Top Chg Len >= X%>0.55) OR ((New Func >= X>69.78) OR ((Top Chg by Call >= X%>19.8) OR (New Func >= X>2242.22)))) AND (Del Func >= X<2929.21))) ,0.28918918918918923,0.5696649029982364,0.3836296127739637,0.4838709677419355,0.3813953488372093,0.4265649384428646,
11.0,R10: If ((Top Chg Len >= X%>0.56) AND ((Reached Del Func >= X<110.38) AND ((Top Reached Chg Len >= X%<0.94) OR ((Top Reached Chg Len >= X%<0.49) OR (Reached Del Func >= X<23.4))))) ,0.3027027027027027,0.556496178718401,0.3921161933152599,0.4838709677419355,0.40775193798449616,0.4425622616109491,
12.0,R11: If ((Top Chg Len >= X%>0.88) AND ((Reached Del Func >= X<64.09) AND ((Top Reached Chg Len >= X%<0.94) OR ((Top Reached Chg Len >= X%<0.49) OR (Reached Del Func >= X<23.4))))) ,0.31351351351351353,0.5470899470899471,0.39860423382406696,0.4838709677419355,0.40775193798449616,0.4425622616109491,
13.0,R12: If ((Top Reached Chg Len >= X%<0.17) AND ((Top Reached Chg Len >= X%>0.63) OR (Top Chg Len >= X%>0.8))) ,0.681081081081081,0.17965902410346857,0.28431895208630226,0.2258064516129032,0.7565891472868216,0.3478083795754212,
14.0,R13: If ((Top Chg Len >= X%>0.88) AND ((Reached Del Func >= X<106.87) OR ((Top Reached Chg Len >= X%<0.94) OR ((Top Reached Chg Len >= X%>0.49) AND (Reached Del Func >= X<23.4))))) ,0.30000000000000004,0.56331569664903,0.3915015321756895,0.4838709677419355,0.3813953488372093,0.4265649384428646,
15.0,R14: If (((Top > X% by Call Chg by >= 10%>29.85) OR ((Top Chg Len >= X%<0.17) OR (Top Reached Chg Len >= X%<0.14))) AND (Top Chg Len >= X%>0.66)) ,0.6918918918918919,0.17225161669606115,0.2758326499542167,0.2258064516129032,0.7581395348837209,0.3479719426654468,
16.0,R15: If ((Top Chg Len >= X%>0.56) AND ((Reached Del Func >= X<110.38) AND ((Top > X% by Call Chg by >= 10%<31.08) AND ((Top Reached Chg Len >= X%<0.49) OR (Reached Del Func >= X<23.4))))) ,0.31081081081081086,0.5547325102880658,0.398401459760219,0.4838709677419355,0.40775193798449616,0.4425622616109491,
17.0,R16: If (((New Func >= X<1474.83) AND ((Del Func >= X<3330.2) AND (Del Func >= X<3218.19))) AND ((Top Chg Len >= X%>0.43) AND (Del Func >= X<1372.85))) ,0.29729729729729726,0.5694297472075249,0.3906418425934752,0.4838709677419355,0.3953488372093023,0.43515358361774736,
18.0,R17: If (((New Func >= X<1474.83) AND ((Reached Del Func >= X<84.55) AND ((Top > X% by Call Chg by >= 10%<25.14) AND ((Top Chg Len >= X%>0.83) OR (Top > X% by Call Chg by >= 10%>13.18))))) AND ((Top Chg Len >= X%>0.43) AND (Del Func >= X<1372.85))) ,0.32432432432432434,0.5459141681363904,0.40690740585208746,0.4838709677419355,0.3953488372093023,0.43515358361774736,


Results of fold 1 Cross Validation
index,Rule,training hit,training dismiss,training F-Measure,testing hit,testing dismiss,testing f-measure
1.0,R0: If ((((Reached Del Func >= X<83.25) AND (((Top > X% by Call Chg by >= 10%<17.14) AND (Reached Del Func >= X<49.69)) OR (Del Func >= X>1814.88))) AND (Top Reached Chg Len >= X%<0.41)) AND (Top Chg Len >= X%>0.92)) ,0.5810810810810811,0.23738977072310408,0.33707420198361165,0.25806451612903225,0.6806201550387597,0.37423410943577173,
2.0,R1: If ((Top Chg Len >= X%>0.95) AND (Top Reached Chg Len >= X%<0.49)) ,0.5675675675675675,0.25878894767783656,0.35548872874381826,0.25806451612903225,0.6806201550387597,0.37423410943577173,
3.0,R2: If ((Top Reached Chg Len >= X%<0.28) AND ((Top Chg by Call >= X%<35.72) AND (((Top Reached Chg Len >= X%>0.88) AND ((Reached Del Func >= X>68.39) AND (Del Func >= X>5394.91))) OR (Top Chg Len >= X%>0.59)))) ,0.6081081081081081,0.2293944738389183,0.3331252762763732,0.2258064516129032,0.7147286821705428,0.34318834414548544,
4.0,R3: If ((Top Chg Len >= X%>0.95) AND (Top Reached Chg Len >= X%<0.35)) ,0.6108108108108108,0.2270429159318048,0.3310369415155882,0.25806451612903225,0.710077519379845,0.37855150325446846,
5.0,R4: If ((Top Chg Len >= X%>0.46) AND (Top Reached Chg Len >= X%<0.56)) ,0.5486486486486486,0.2892416225749559,0.3787895165006457,0.25806451612903225,0.6806201550387597,0.37423410943577173,
6.0,R5: If ((Top Chg Len >= X%>0.95) AND (Top Reached Chg Len >= X%<0.91)) ,0.5567567567567567,0.2832451499118166,0.37547212638460137,0.25806451612903225,0.6728682170542636,0.3730525410980982,
7.0,R6: If ((((Top Reached Chg Len >= X%<0.86) OR (((Del Func >= X<1799.35) AND (Top > X% by Call Chg by >= 10%<14.75)) OR (New Func >= X<542.38))) AND (Top Reached Chg Len >= X%<0.23)) AND ((Top Chg by Call >= X%<35.72) AND (((Top Reached Chg Len >= X%>0.88) AND ((Reached Del Func >= X>68.39) AND (Del Func >= X>4444.5))) OR (Top Chg Len >= X%>0.59)))) ,0.6432432432432432,0.19847148736037623,0.3033461066540821,0.2258064516129032,0.7457364341085271,0.3466488211675074,
8.0,R7: If ((Top Reached Chg Len >= X%<0.28) AND (((Top > X% by Call Chg by >= 10%>20.74) AND (Del Func >= X>869.62)) OR (Top Chg Len >= X%>0.61))) ,0.6189189189189189,0.22669018224573778,0.33183853468896146,0.2258064516129032,0.7147286821705428,0.34318834414548544,
9.0,R8: If ((((Top > X% by Call Chg by >= 10%>20.74) AND (Del Func >= X>869.62)) OR (Top Chg Len >= X%>0.61)) AND (((Top Reached Chg Len >= X%<0.86) OR (((Del Func >= X<1799.35) AND (Top > X% by Call Chg by >= 10%<0.99)) AND (New Func >= X<542.38))) AND (Top Reached Chg Len >= X%<0.23))) ,0.654054054054054,0.1957671957671958,0.301339435956115,0.2258064516129032,0.7457364341085271,0.3466488211675074,
10.0,R9: If (((New Func >= X>122.57) OR (Top > X% by Call Chg by >= 10%>13.35)) OR ((Top Reached Chg Len >= X%>0.11) AND ((Top > X% by Call Chg by >= 10%<19.21) AND ((Top Chg Len >= X%>0.63) AND ((Del Func >= X>5959.77) OR (Top > X% by Call Chg by >= 10%>37.25)))))) ,0.5432432432432432,0.31169900058788946,0.3961165265065279,0.25806451612903225,0.7457364341085271,0.3834387922873798,
11.0,R10: If (((New Func >= X>122.57) OR (Top > X% by Call Chg by >= 10%>13.35)) OR ((Top Reached Chg Len >= X%>0.11) AND ((Top > X% by Call Chg by >= 10%<19.21) AND (((Reached Del Func >= X>82.93) OR (Top Chg by Call >= X%>5.98)) OR (Del Func >= X>2109.51))))) ,0.5324324324324324,0.3227513227513228,0.40188619300035117,0.25806451612903225,0.7286821705426356,0.3811454637607704,
12.0,R11: If ((((Top > X% by Call Chg by >= 10%>20.74) AND (Del Func >= X>869.62)) OR (Top Chg Len >= X%>0.83)) AND (((Top Reached Chg Len >= X%<0.86) OR (((Del Func >= X<1799.35) AND (Del Func >= X<1801.19)) OR (New Func >= X<542.38))) OR (Top Reached Chg Len >= X%<0.23))) ,0.30000000000000004,0.5552028218694885,0.38952361311610645,0.4838709677419355,0.3813953488372093,0.4265649384428646,
13.0,R12: If (((New Func >= X>122.57) OR (Top > X% by Call Chg by >= 10%>13.35)) OR ((Top Reached Chg Len >= X%>0.11) AND ((Top > X% by Call Chg by >= 10%<19.21) AND (((Top Reached Chg Len >= X%>0.19) AND (Top Chg by Call >= X%>5.98)) OR (Del Func >= X>2109.51))))) ,0.5351351351351351,0.320517342739565,0.4009106406052121,0.25806451612903225,0.7286821705426356,0.3811454637607704,
14.0,R13: If ((((Reached Del Func >= X<83.25) AND ((Del Func >= X<1814.88) OR ((Top Chg by Call >= X%>23.13) OR (Top > X% by Call Chg by >= 10%>36.22)))) OR (Top Reached Chg Len >= X%<0.16)) AND (Top Chg Len >= X%>0.92)) ,0.3054054054054054,0.55108759553204,0.39300993783519556,0.4838709677419355,0.3813953488372093,0.4265649384428646,
15.0,R14: If ((((Reached Del Func >= X<220.98) AND (((Top > X% by Call Chg by >= 10%<17.14) OR (Reached Del Func >= X<49.69)) AND (Del Func >= X<1814.88))) AND (Top Reached Chg Len >= X%<0.16)) AND (Top Chg Len >= X%>0.92)) ,0.6864864864864865,0.17248677248677247,0.275700872344676,0.2258064516129032,0.7565891472868216,0.3478083795754212,
16.0,R15: If ((Top Chg Len >= X%>0.92) AND ((Reached Del Func >= X<24.94) AND (Del Func >= X<5901.55))) ,0.3189189189189189,0.5441504997060553,0.40214584215467886,0.4838709677419355,0.40775193798449616,0.4425622616109491,
17.0,R16: If ((Top Chg Len >= X%>0.92) AND ((Reached Del Func >= X<24.94) AND (Top > X% by Call Chg by >= 10%<5.61))) ,0.34864864864864864,0.5145208700764257,0.4156472214603509,0.4838709677419355,0.40775193798449616,0.4425622616109491,
18.0,R17: If ((Top Chg Len >= X%>0.53) OR ((Top Chg Len >= X%>0.56) AND (New Func >= X>1914.0))) ,0.28918918918918923,0.5740152851263962,0.38461110855459946,0.4838709677419355,0.3813953488372093,0.4265649384428646,
19.0,R18: If ((((Top > X% by Call Chg by >= 10%>20.74) AND (Del Func >= X>869.62)) OR (Top Chg Len >= X%>0.61)) AND (((Top Reached Chg Len >= X%<0.86) OR (((Del Func >= X<1799.35) AND (Top > X% by Call Chg by >= 10%<0.99)) OR (New Func >= X<542.38))) OR (Top Reached Chg Len >= X%<0.23))) ,0.31351351351351353,0.5501469723691945,0.3994127624815568,0.4516129032258064,0.4015503875968992,0.42511284366023794,
20.0,R19: If (((Reached Del Func >= X<135.52) AND (Top Reached Chg Len >= X%<0.21)) AND (((Top > X% by Call Chg by >= 10%>20.74) AND (Del Func >= X>869.62)) OR (Top Chg Len >= X%>0.61))) ,0.6702702702702703,0.19353321575543803,0.3003450736868439,0.2258064516129032,0.7503875968992249,0.3471489318100312,


Results of fold 1 Cross Validation
index,Rule,training hit,training dismiss,training F-Measure,testing hit,testing dismiss,testing f-measure
1.0,R0: If ((Top Chg Len >= X%>0.66) AND ((Reached Del Func >= X<243.98) AND ((Top Reached Chg Len >= X%<0.11) OR ((Top Reached Chg Len >= X%<0.37) OR ((Top Chg by Call >= X%>26.58) OR (Del Func >= X>4638.38)))))) ,0.5837837837837838,0.24902998236331575,0.34912887199798537,0.25806451612903225,0.7007751937984498,0.3772167744627582,
2.0,R1: If ((Top Chg Len >= X%>0.66) AND ((Reached Del Func >= X<243.98) AND ((Top Reached Chg Len >= X%<0.11) OR ((Top Reached Chg Len >= X%<0.37) OR ((Top Chg by Call >= X%>26.58) AND (Del Func >= X>4638.38)))))) ,0.5945945945945945,0.24338624338624337,0.3453924914675768,0.25806451612903225,0.7007751937984498,0.3772167744627582,
3.0,R2: If ((Top Reached Chg Len >= X%<0.85) AND (Top Chg Len >= X%>0.4)) ,0.5351351351351351,0.30770135214579664,0.39073250184746716,0.25806451612903225,0.6744186046511628,0.3732904263877715,
4.0,R3: If ((Top Reached Chg Len >= X%<0.61) AND (Top Chg Len >= X%>0.72)) ,0.5621621621621622,0.28136390358612584,0.37502608826687267,0.25806451612903225,0.6775193798449612,0.37376383172074623,
5.0,R4: If ((Reached Del Func >= X>164.82) OR (((New Func >= X<2240.02) AND (Del Func >= X<1927.31)) AND (Top Chg Len >= X%>0.42))) ,0.28378378378378377,0.5777777777777777,0.3806204252352736,0.4838709677419355,0.3813953488372093,0.4265649384428646,
6.0,R5: If ((Top Chg Len >= X%>0.54) AND (Top Chg Len >= X%>0.27)) ,0.28918918918918923,0.5740152851263962,0.38461110855459946,0.4838709677419355,0.3813953488372093,0.4265649384428646,
7.0,R6: If ((Reached Del Func >= X<184.85) AND (New Func >= X>84.88)) ,0.4648648648648649,0.39905937683715464,0.42945590442279963,0.2903225806451613,0.5937984496124031,0.389976241656296,
8.0,R7: If ((((Del Func >= X<4715.53) AND (((Reached Del Func >= X<244.11) OR (Reached Del Func >= X<167.1)) OR ((Top > X% by Call Chg by >= 10%<16.17) OR (Top Reached Chg Len >= X%<0.1)))) OR ((Top Chg by Call >= X%<10.88) AND ((Top Reached Chg Len >= X%<0.47) AND ((Del Func >= X>632.61) OR (Top Chg by Call >= X%>2.67))))) AND (Top Chg Len >= X%>0.89)) ,0.3054054054054054,0.5587301587301587,0.3949362061261977,0.4838709677419355,0.3813953488372093,0.4265649384428646,
9.0,R8: If ((Top Chg Len >= X%>0.47) AND (Top Chg Len >= X%>0.84)) ,0.30000000000000004,0.5646090534979424,0.3918134221799144,0.4838709677419355,0.3813953488372093,0.4265649384428646,
10.0,R9: If (((Top Chg Len >= X%>0.34) AND (Top Chg Len >= X%>0.92)) AND ((Top Chg by Call >= X%<29.37) AND (Del Func >= X<3296.34))) ,0.31351351351351353,0.5555555555555556,0.4008293020041465,0.4838709677419355,0.3813953488372093,0.4265649384428646,
11.0,R10: If ((Top Chg Len >= X%>0.66) AND ((Top > X% by Call Chg by >= 10%<5.4) AND (New Func >= X<1456.63))) ,0.3405405405405405,0.531334509112287,0.41506163300117366,0.4838709677419355,0.3953488372093023,0.43515358361774736,
12.0,R11: If ((Top Reached Chg Len >= X%<0.17) AND (Top Chg Len >= X%>0.32)) ,0.6648648648648648,0.21410934744268073,0.3239088937093275,0.2258064516129032,0.7565891472868216,0.3478083795754212,
13.0,R12: If (((((New Func >= X>550.74) AND (Del Func >= X<4661.92)) OR ((Top Reached Chg Len >= X%<0.47) AND (Del Func >= X<3819.25))) AND (Top Chg Len >= X%>0.64)) AND ((Del Func >= X>191.38) AND (Top > X% by Call Chg by >= 10%<14.53))) ,0.7837837837837838,0.0972369194591417,0.1730100561238476,0.16129032258064516,0.8744186046511628,0.2723453570911198,
14.0,R13: If ((Top Reached Chg Len >= X%<0.17) AND (Top Chg Len >= X%>0.24)) ,0.6567567567567567,0.22763080540858316,0.33808270467313556,0.2258064516129032,0.7565891472868216,0.3478083795754212,
15.0,R14: If ((Del Func >= X>5741.36) OR (Top Chg Len >= X%>0.3)) ,0.27567567567567564,0.6096413874191652,0.37966804979253105,0.4838709677419355,0.3813953488372093,0.4265649384428646,
16.0,R15: If ((Top Reached Chg Len >= X%<0.07) AND (Top Chg Len >= X%>0.4)) ,0.727027027027027,0.16155202821869485,0.2643607005873991,0.2258064516129032,0.7720930232558139,0.34942113967824384,
17.0,R16: If ((Top Chg Len >= X%>0.47) AND ((New Func >= X<808.96) AND ((Top Chg by Call >= X%<5.62) OR (Del Func >= X>520.74)))) ,0.4,0.49147560258671374,0.4410445792666843,0.25806451612903225,0.5317829457364341,0.34749572595453687,
18.0,R17: If ((Top > X% by Call Chg by >= 10%>14.35) OR (Top Chg Len >= X%>0.14)) ,0.25135135135135134,0.6407995296884186,0.36107306769630254,0.4838709677419355,0.3813953488372093,0.4265649384428646,
19.0,R18: If ((((Top Reached Chg Len >= X%>0.7) OR (Top Chg Len >= X%>0.56)) AND ((Del Func >= X>3560.52) OR ((Top Chg Len >= X%<0.23) OR (Del Func >= X<802.37)))) OR (Reached Del Func >= X>169.76)) ,0.3675675675675676,0.5258083480305702,0.4326736195096965,0.3548387096774194,0.462015503875969,0.4013959468560583,
20.0,R19: If (((((New Func >= X>550.74) AND (Del Func >= X>4661.92)) OR ((Top Reached Chg Len >= X%<0.47) AND (Del Func >= X<2815.14))) AND (Top Chg Len >= X%>0.64)) AND ((Del Func >= X>191.38) AND (Top > X% by Call Chg by >= 10%<14.53))) ,0.8648648648648649,0.04479717813051143,0.08518219641790413,0.0,0.9705426356589147,0.0,


Results of fold 1 Cross Validation
index,Rule,training hit,training dismiss,training F-Measure,testing hit,testing dismiss,testing f-measure
1.0,R0: If (((New Func >= X<2124.49) AND (Reached Del Func >= X<10.83)) AND (((Top Chg by Call >= X%>13.42) OR ((Top Chg by Call >= X%>31.15) OR (Del Func >= X>36.78))) OR ((((Del Func >= X>2833.02) AND (Top Chg by Call >= X%>26.86)) AND ((Del Func >= X<1034.44) AND (Top Chg by Call >= X%<29.28))) OR (Reached Del Func >= X>81.8)))) ,0.4297297297297298,0.3893004115226337,0.4085172259264792,0.4516129032258064,0.5302325581395348,0.4877750611246943,
2.0,R1: If (((Del Func >= X>4720.65) OR (((Reached Del Func >= X>79.27) OR (Top Chg Len >= X%>0.5)) AND ((Top Chg Len >= X%<0.61) OR (Top Reached Chg Len >= X%<0.34)))) AND (Del Func >= X<3519.79)) ,0.5972972972972973,0.24091710758377427,0.3433468487167968,0.25806451612903225,0.710077519379845,0.37855150325446846,
3.0,R2: If ((Del Func >= X<3519.79) AND (((Top Chg by Call >= X%>13.42) OR ((Top Chg by Call >= X%>31.15) OR (Del Func >= X>36.78))) OR ((((Del Func >= X>2833.02) OR (Top Chg by Call >= X%>26.86)) AND ((Del Func >= X<1386.8) AND (Top Chg by Call >= X%<29.28))) OR (Reached Del Func >= X>246.31)))) ,0.39459459459459456,0.4516166960611405,0.42118442299748393,0.4838709677419355,0.4496124031007752,0.46611304580766144,
4.0,R3: If ((Top > X% by Call Chg by >= 10%>32.56) OR (Top Chg Len >= X%>0.59)) ,0.28918918918918923,0.5740152851263962,0.38461110855459946,0.4838709677419355,0.3813953488372093,0.4265649384428646,
5.0,R4: If (((Del Func >= X>4720.65) OR ((Top Chg Len >= X%>0.72) AND ((Top > X% by Call Chg by >= 10%>11.18) OR ((Top Chg Len >= X%>0.92) OR (Top Reached Chg Len >= X%>0.15))))) AND (Del Func >= X<3519.79)) ,0.3054054054054054,0.557907113462669,0.3947304005020769,0.4838709677419355,0.3813953488372093,0.4265649384428646,
6.0,R5: If ((Top Reached Chg Len >= X%<0.68) AND ((Top Chg Len >= X%>0.22) OR (Top > X% by Call Chg by >= 10%>8.73))) ,0.5351351351351351,0.3289829512051734,0.40746823572676283,0.25806451612903225,0.6759689922480621,0.37352752195330907,
7.0,R6: If (((Top Chg by Call >= X%>3.55) OR ((Reached Del Func >= X<74.92) OR (Top Chg by Call >= X%>31.1))) AND (Top Chg Len >= X%>0.86)) ,0.30000000000000004,0.5642563198118753,0.39172845384667715,0.4838709677419355,0.3813953488372093,0.4265649384428646,
8.0,R7: If ((Top Chg by Call >= X%>27.69) OR (Top Chg Len >= X%>0.46)) ,0.28648648648648645,0.5822457378012933,0.3840206015868196,0.4838709677419355,0.3813953488372093,0.4265649384428646,
9.0,R8: If ((Top Chg Len >= X%>0.85) OR (Top Chg Len >= X%>0.35)) ,0.28378378378378377,0.592827748383304,0.3838299985680961,0.4838709677419355,0.3813953488372093,0.4265649384428646,
10.0,R9: If ((Top Reached Chg Len >= X%<0.07) AND (Top Chg Len >= X%>0.43)) ,0.727027027027027,0.1595532039976485,0.26167849788615155,0.2258064516129032,0.7720930232558139,0.34942113967824384,
11.0,R10: If ((Top Chg Len >= X%>0.1) AND ((((Del Func >= X<1261.69) AND ((Reached Del Func >= X<126.44) AND (Del Func >= X<1461.31))) OR (Reached Del Func >= X<26.02)) AND ((((Top Reached Chg Len >= X%<0.2) AND (Top Chg Len >= X%<0.45)) OR (Top Reached Chg Len >= X%<0.07)) OR ((Del Func >= X<1726.89) OR ((Reached Del Func >= X>186.94) AND (Top Reached Chg Len >= X%<0.63)))))) ,0.2432432432432432,0.6450323339212228,0.35326819949414545,0.4838709677419355,0.38604651162790693,0.42945843394273886,
12.0,R11: If ((Del Func >= X<3519.79) AND ((Top Chg Len >= X%>0.22) OR (Top > X% by Call Chg by >= 10%>35.25))) ,0.27567567567567564,0.6129335684891241,0.38030411397837155,0.4838709677419355,0.3813953488372093,0.4265649384428646,
13.0,R12: If ((New Func >= X<625.9) AND (Top Chg Len >= X%>0.43)) ,0.3675675675675676,0.527689594356261,0.4333091962346126,0.41935483870967744,0.462015503875969,0.43965272655053056,
14.0,R13: If ((Del Func >= X<1711.7) AND ((Top Chg Len >= X%>0.08) OR (Top Reached Chg Len >= X%>0.7))) ,0.23783783783783785,0.6589065255731923,0.34951522367749616,0.4838709677419355,0.3813953488372093,0.4265649384428646,


Results of fold 1 Cross Validation
index,Rule,training hit,training dismiss,training F-Measure,testing hit,testing dismiss,testing f-measure
1.0,R0: If (((New Func >= X>683.26) OR ((Top Chg Len >= X%>0.37) AND (((Top Reached Chg Len >= X%<0.71) AND (Del Func >= X<5426.01)) AND ((Top Reached Chg Len >= X%<0.87) AND (Top Chg by Call >= X%<23.53))))) AND ((((Top Chg Len >= X%<0.91) OR ((Top > X% by Call Chg by >= 10%<27.7) AND (Reached Del Func >= X<20.57))) AND (Top Chg Len >= X%>0.12)) AND (Top Chg Len >= X%>0.38))) ,0.49459459459459465,0.3339212228101117,0.39867828314887727,0.3225806451612903,0.6170542635658914,0.4236746859697679,
2.0,R1: If ((Reached Del Func >= X<232.41) AND (((Top Reached Chg Len >= X%>0.53) AND (Top Chg by Call >= X%>37.71)) OR ((Top Chg Len >= X%>0.37) AND (((Top Reached Chg Len >= X%<0.45) AND (Del Func >= X<5426.01)) AND ((Top Reached Chg Len >= X%<0.87) OR (Top Chg by Call >= X%<23.53)))))) ,0.5567567567567567,0.2724279835390947,0.3658439746753944,0.25806451612903225,0.6806201550387597,0.37423410943577173,
3.0,R2: If (((Top Chg Len >= X%>0.5) OR (Top Reached Chg Len >= X%>0.65)) AND (((Top Reached Chg Len >= X%>0.53) AND (Top Chg by Call >= X%>37.71)) OR ((Top Chg Len >= X%>0.37) AND (((Top Reached Chg Len >= X%<0.71) AND (Del Func >= X<5426.01)) AND ((Reached Del Func >= X<240.74) AND (Top Chg by Call >= X%<23.53)))))) ,0.5459459459459459,0.2892416225749559,0.37814329905144567,0.25806451612903225,0.6759689922480621,0.37352752195330907,
4.0,R3: If (((Top > X% by Call Chg by >= 10%<24.88) AND (((Reached Del Func >= X<25.41) OR ((Del Func >= X<381.56) OR (Reached Del Func >= X<204.35))) OR (Del Func >= X<1431.96))) AND (((Top Reached Chg Len >= X%>0.53) AND (Top Chg by Call >= X%>37.71)) OR ((Top Chg Len >= X%>0.37) AND (((Top Reached Chg Len >= X%<0.71) AND (Del Func >= X<5426.01)) AND ((Top Reached Chg Len >= X%<0.87) AND (Top Chg by Call >= X%<23.53)))))) ,0.5405405405405406,0.30652557319223983,0.3912079502098972,0.25806451612903225,0.6759689922480621,0.37352752195330907,
5.0,R4: If ((((Top Reached Chg Len >= X%<0.53) AND (Top Chg by Call >= X%>37.71)) OR ((Top Chg Len >= X%>0.37) AND (((Top Reached Chg Len >= X%<0.71) AND (Del Func >= X<5426.01)) OR ((Top Reached Chg Len >= X%<0.87) AND (Top Chg by Call >= X%<23.53))))) AND (((((Top Chg Len >= X%>0.61) OR (Top Reached Chg Len >= X%>0.57)) AND ((Top > X% by Call Chg by >= 10%<27.7) AND (Reached Del Func >= X>20.57))) AND (Top Chg by Call >= X%>26.48)) OR (Del Func >= X<1808.24))) ,0.5351351351351351,0.31369782480893593,0.3955330101267245,0.25806451612903225,0.6744186046511628,0.3732904263877715,
6.0,R5: If ((((Top Reached Chg Len >= X%>0.53) AND (Top Chg by Call >= X%>37.71)) OR ((Top Chg Len >= X%>0.37) AND (((Top Reached Chg Len >= X%<0.28) AND (Del Func >= X<5426.01)) AND ((Top Reached Chg Len >= X%<0.87) AND (Top Chg by Call >= X%<23.53))))) AND (((New Func >= X>1320.41) AND (((Reached Del Func >= X<177.38) OR (Top Chg Len >= X%<0.83)) OR ((Top Chg Len >= X%>0.91) OR (Top Chg Len >= X%>0.67)))) OR (Reached Del Func >= X<96.37))) ,0.6027027027027028,0.24785420340975894,0.35125785752314054,0.2258064516129032,0.7147286821705428,0.34318834414548544,
7.0,R6: If ((((((Top Chg Len >= X%>0.61) OR (Top Reached Chg Len >= X%>0.57)) AND ((New Func >= X>597.8) AND (Top Chg Len >= X%<0.53))) AND (Top Chg by Call >= X%>26.48)) OR (Del Func >= X<1808.24)) AND ((Top Chg Len >= X%>0.76) AND (Top Chg Len >= X%>0.59))) ,0.30000000000000004,0.5567313345091123,0.3898991285253552,0.4838709677419355,0.3813953488372093,0.4265649384428646,
8.0,R7: If ((Top > X% by Call Chg by >= 10%<2.07) AND (Top Chg Len >= X%>0.87)) ,0.3567567567567568,0.5017048794826573,0.4169938366432842,0.4516129032258064,0.4155038759689923,0.4328065520821317,
9.0,R8: If ((Del Func >= X<2903.38) AND ((Top Chg Len >= X%>0.51) OR (Top Chg Len >= X%>0.8))) ,0.28918918918918923,0.5710758377425045,0.38394902341044473,0.4838709677419355,0.3813953488372093,0.4265649384428646,
10.0,R9: If (((((Del Func >= X<1664.08) AND ((Top > X% by Call Chg by >= 10%<27.7) AND (Reached Del Func >= X<20.57))) AND (Top Chg Len >= X%>0.12)) AND (Top Chg Len >= X%>0.38)) AND (Top > X% by Call Chg by >= 10%<4.05)) ,0.33513513513513515,0.5271017048794826,0.40974890632543776,0.4838709677419355,0.4186046511627907,0.44887780548628425,
11.0,R10: If ((((Top Reached Chg Len >= X%>0.53) OR (Top Chg by Call >= X%>37.71)) OR ((Top Chg Len >= X%>0.37) AND (((Top Reached Chg Len >= X%<0.45) AND (Del Func >= X<5426.01)) AND ((Top Reached Chg Len >= X%<0.87) OR (Top Chg by Call >= X%<23.53))))) AND (((New Func >= X<810.41) OR (((Reached Del Func >= X>149.15) AND (Reached Del Func >= X>61.6)) OR (Top Chg Len >= X%>0.78))) OR (Reached Del Func >= X<96.37))) ,0.2945945945945946,0.570487948265726,0.3885471212602648,0.4838709677419355,0.3813953488372093,0.4265649384428646,
12.0,R11: If (((Del Func >= X>2839.18) AND (Del Func >= X>1102.55)) OR (Del Func >= X>71.3)) ,0.4513513513513514,0.41446208112874783,0.4321208551027038,0.4838709677419355,0.48372093023255813,0.48379593735462867,
13.0,R12: If (((Top > X% by Call Chg by >= 10%<24.88) AND (((Reached Del Func >= X<25.41) AND ((Del Func >= X<381.56) OR (Reached Del Func >= X<204.35))) OR (Del Func >= X<1431.96))) AND (((Top Reached Chg Len >= X%<0.95) OR (((New Func >= X<134.33) OR (Top > X% by Call Chg by >= 10%<6.95)) OR (Top Chg Len >= X%<0.66))) AND ((((New Func >= X>654.33) AND (Top > X% by Call Chg by >= 10%>25.57)) OR (Reached Del Func >= X>255.96)) OR (Top Chg Len >= X%>0.66)))) ,0.3189189189189189,0.5488536155202821,0.40342323537489694,0.4838709677419355,0.3813953488372093,0.4265649384428646,
14.0,R13: If ((Del Func >= X<2903.38) AND ((((Del Func >= X<3299.15) OR ((Top Reached Chg Len >= X%<0.97) AND (Top Chg by Call >= X%<21.18))) AND (Top Chg Len >= X%>0.12)) AND (Top Chg Len >= X%>0.38))) ,0.28378378378378377,0.5842445620223398,0.3820131756453741,0.4838709677419355,0.3813953488372093,0.4265649384428646,
15.0,R14: If ((Del Func >= X>71.3) OR (((Reached Del Func >= X<203.08) AND (((Top Chg Len >= X%>0.91) OR (Top Chg Len >= X%>0.67)) OR ((Top Chg Len >= X%<0.76) AND (Top Chg Len >= X%>0.67)))) AND ((Top Chg by Call >= X%>5.11) OR (Top > X% by Call Chg by >= 10%>40.52)))) ,0.44594594594594594,0.42210464432686656,0.4336978904498238,0.4838709677419355,0.47751937984496123,0.48067419237371894,
16.0,R15: If ((Del Func >= X>71.3) OR (((Reached Del Func >= X<203.08) OR (((Reached Del Func >= X<177.38) OR (Top Chg Len >= X%<0.83)) OR ((Top Chg Len >= X%>0.91) OR (Top Chg Len >= X%<0.67)))) AND ((Top Chg by Call >= X%>0.76) OR (Top > X% by Call Chg by >= 10%>40.52)))) ,0.4405405405405406,0.4275132275132275,0.4339291303559956,0.4838709677419355,0.47441860465116276,0.479098168154063,
17.0,R16: If (((((Del Func >= X<1664.08) OR ((Top > X% by Call Chg by >= 10%<27.7) AND (Reached Del Func >= X<20.57))) AND (Top Chg Len >= X%>0.12)) AND (Top Chg Len >= X%>0.38)) AND (Top > X% by Call Chg by >= 10%<4.05)) ,0.327027027027027,0.5416813639035861,0.40783408536797267,0.4838709677419355,0.38449612403100775,0.428497379485112,
18.0,R17: If (((Top > X% by Call Chg by >= 10%<24.88) OR (((Reached Del Func >= X<25.41) AND ((Del Func >= X<381.56) OR (Reached Del Func >= X<204.35))) AND (Del Func >= X<1431.96))) AND (((Reached Del Func >= X<203.08) OR (((Reached Del Func >= X<177.38) AND (Top Chg Len >= X%<0.83)) OR ((Top Chg Len >= X%>0.91) OR (Top Chg Len >= X%>0.67)))) AND ((Top Chg by Call >= X%>0.76) OR (Top Chg Len >= X%>0.45)))) ,0.28648648648648645,0.5828336272780716,0.3841483831818746,0.4838709677419355,0.3813953488372093,0.4265649384428646,
19.0,R18: If ((((Top Reached Chg Len >= X%<0.95) OR (((New Func >= X<134.33) OR (Top > X% by Call Chg by >= 10%<6.95)) AND (Top Chg Len >= X%<0.66))) AND ((((New Func >= X>654.33) AND (Top > X% by Call Chg by >= 10%>25.57)) OR (Reached Del Func >= X>255.96)) OR (Top Chg Len >= X%>0.09))) AND (((((Top Chg Len >= X%>0.61) OR (Top Reached Chg Len >= X%>0.57)) AND ((New Func >= X>597.8) OR (Top Chg Len >= X%>0.53))) AND (Top Chg by Call >= X%>26.48)) OR (Del Func >= X<1808.24))) ,0.49189189189189186,0.38565549676660793,0.4323431745675374,0.25806451612903225,0.6713178294573643,0.3728138621320562,
