

Results of fold 10 Cross Validation
index,Rule,training hit,training dismiss,training F-Measure,testing hit,testing dismiss,testing f-measure
1.0,R0: If ((((Reached Del Func >= X<5.12) OR (Top Reached Chg Len >= X%<0.01)) OR (Top > X% by Call Chg by >= 10%>20.42)) AND ((Reached Del Func >= X>123.52) OR (Top Chg Len >= X%>0.51))) ,0.34736842105263155,0.49324999999999997,0.4076510088124344,0.23809523809523805,0.831304347826087,0.37016959653062803,
2.0,R1: If (((Top Reached Chg Len >= X%<0.52) AND (((Top Chg by Call >= X%>40.52) OR (Del Func >= X>5874.23)) OR (Top Chg Len >= X%>0.56))) OR ((Top > X% by Call Chg by >= 10%>26.77) AND (((Top > X% by Call Chg by >= 10%>17.88) OR (Del Func >= X>1770.2)) OR (Top Reached Chg Len >= X%<0.35)))) ,0.5421052631578948,0.31200000000000006,0.3960561991619424,0.19047619047619047,0.9217391304347826,0.31571109456440805,
3.0,R2: If ((((((Top Reached Chg Len >= X%<0.1) OR (Top Chg Len >= X%<0.27)) AND (Top Chg Len >= X%<0.0)) OR ((Del Func >= X<2020.66) OR (Top Chg Len >= X%<0.24))) AND ((Top > X% by Call Chg by >= 10%>31.44) AND (Top Reached Chg Len >= X%>0.13))) OR ((Top Reached Chg Len >= X%<0.52) AND (((Top Chg by Call >= X%>16.26) OR (Del Func >= X>5874.23)) OR (Top Chg Len >= X%>0.56)))) ,0.5447368421052632,0.3105,0.3955414012738854,0.19047619047619047,0.9243478260869565,0.31586375961074176,
4.0,R3: If ((Top Reached Chg Len >= X%<0.47) AND ((Top Reached Chg Len >= X%<0.52) AND (((Top Chg by Call >= X%>16.26) OR (Del Func >= X>1662.9)) OR (Top Chg Len >= X%>0.56)))) ,0.5605263157894738,0.296625,0.38795044785742255,0.19047619047619047,0.9286956521739129,0.3161166198016871,
5.0,R4: If ((((Reached Del Func >= X<5.12) OR (Top Reached Chg Len >= X%<0.01)) OR (Top > X% by Call Chg by >= 10%>20.42)) AND ((Top Chg by Call >= X%<39.22) AND ((((New Func >= X>1226.04) OR (Reached Del Func >= X>191.5)) AND (New Func >= X>1121.34)) OR (Top Chg Len >= X%>0.16)))) ,0.32105263157894737,0.5391250000000001,0.4024459452224526,0.33333333333333326,0.717391304347826,0.4551724137931034,
6.0,R5: If ((((((Top Reached Chg Len >= X%<0.1) OR (Top Chg Len >= X%<0.27)) AND (Top Chg Len >= X%<0.0)) AND ((Reached Del Func >= X>192.16) OR (Top Reached Chg Len >= X%>0.23))) AND ((Top > X% by Call Chg by >= 10%>31.44) AND (Top Reached Chg Len >= X%>0.13))) OR ((Top Reached Chg Len >= X%<0.52) AND (((Top Chg by Call >= X%>16.26) OR (Del Func >= X>5874.23)) OR (Top Chg Len >= X%>0.56)))) ,0.5526315789473684,0.30874999999999997,0.39616589017032,0.19047619047619047,0.9269565217391305,0.3160157118505892,
7.0,R6: If ((Top Reached Chg Len >= X%<0.47) AND (((((Top > X% by Call Chg by >= 10%<38.43) OR (Del Func >= X<5254.55)) OR (Top Chg by Call >= X%<21.52)) OR ((Top Chg by Call >= X%<23.92) OR ((Top Chg by Call >= X%>20.84) AND (Top > X% by Call Chg by >= 10%>28.16)))) AND (Top Chg Len >= X%>0.95))) ,0.5763157894736842,0.28525,0.3816170069793369,0.19047619047619047,0.9608695652173913,0.3179284301384643,
8.0,R7: If (((Top Reached Chg Len >= X%<0.52) AND ((Top Chg Len >= X%>0.1) OR ((Top > X% by Call Chg by >= 10%>4.98) AND ((Top > X% by Call Chg by >= 10%>38.78) AND (Top Chg by Call >= X%>3.94))))) OR ((Top Chg by Call >= X%>13.61) OR (Reached Del Func >= X>154.61))) ,0.5052631578947369,0.37412500000000004,0.42991613487248165,0.33333333333333326,0.7382608695652173,0.45929131728428446,
9.0,R8: If ((Top Chg by Call >= X%<0.13) AND (((((Top > X% by Call Chg by >= 10%<33.65) OR (Del Func >= X<5254.55)) OR (Top Chg by Call >= X%<21.52)) AND ((Top Chg by Call >= X%<23.92) OR ((Top Chg by Call >= X%>20.84) OR (Top > X% by Call Chg by >= 10%>28.16)))) AND (Top Chg Len >= X%>0.95))) ,0.5210526315789474,0.360625,0.4262433309704138,0.23809523809523805,0.8904347826086956,0.37572466426946494,
10.0,R9: If ((((((Top Reached Chg Len >= X%<0.1) OR (Top Chg Len >= X%<0.27)) AND (Top Chg Len >= X%<0.0)) AND ((New Func >= X<248.17) OR (Reached Del Func >= X<50.83))) AND ((((Top Chg Len >= X%<0.46) AND (New Func >= X<650.46)) AND (Top Chg Len >= X%>0.38)) AND (Del Func >= X<2604.66))) OR ((Top Reached Chg Len >= X%<0.52) AND ((Top Chg Len >= X%>0.1) OR ((Top > X% by Call Chg by >= 10%<4.98) AND ((Top > X% by Call Chg by >= 10%>38.78) AND (Top Chg by Call >= X%>3.94)))))) ,0.5157894736842106,0.36724999999999997,0.4290265381234075,0.33333333333333326,0.7478260869565218,0.46112600536193027,
11.0,R10: If (((Reached Del Func >= X>123.52) OR (Top Chg Len >= X%>0.51)) AND (((((Top Chg Len >= X%<0.46) OR (New Func >= X<650.46)) AND (Top Chg Len >= X%>0.38)) OR (Del Func >= X<2604.66)) AND (((Top Chg by Call >= X%>40.52) OR (Del Func >= X>5874.23)) OR (Top Chg Len >= X%>0.56)))) ,0.28421052631578947,0.618625,0.389483425756571,0.2857142857142857,0.7434782608695653,0.4127942063971032,
12.0,R11: If (((Del Func >= X<291.27) OR ((((Top > X% by Call Chg by >= 10%<38.43) OR (Del Func >= X<5254.55)) OR (Top Chg by Call >= X%<17.92)) AND ((Reached Del Func >= X<24.57) OR ((Top Chg by Call >= X%>20.84) AND (Top > X% by Call Chg by >= 10%>28.16))))) AND ((Top Chg Len >= X%>0.43) OR (Top Chg Len >= X%>0.52))) ,0.29210526315789476,0.6112500000000001,0.3953025999563033,0.2857142857142857,0.7156521739130435,0.4083860563205558,
13.0,R12: If (((Del Func >= X<3029.24) OR ((((Top > X% by Call Chg by >= 10%<38.43) OR (Del Func >= X<5254.55)) OR (Top Chg by Call >= X%<21.52)) AND ((Reached Del Func >= X<24.57) AND ((Top Chg by Call >= X%>20.84) AND (Top > X% by Call Chg by >= 10%>28.16))))) AND ((Top Chg Len >= X%>0.43) OR (Top Chg Len >= X%>0.52))) ,0.28157894736842104,0.626375,0.388508720445768,0.33333333333333326,0.711304347826087,0.4539400665926748,
14.0,R13: If (((Reached Del Func >= X>123.52) OR (Top Chg Len >= X%>0.51)) AND (((((Top Reached Chg Len >= X%<0.1) OR (Top Chg Len >= X%<0.27)) OR (Top Chg Len >= X%<0.0)) AND ((New Func >= X<248.17) OR (Reached Del Func >= X<50.83))) AND ((((Top Chg Len >= X%<0.46) OR (New Func >= X<650.46)) AND (Top Chg Len >= X%>0.38)) AND (Del Func >= X<2604.66)))) ,0.7342105263157894,0.17812499999999998,0.2866955110870741,0.19047619047619047,0.9608695652173913,0.3179284301384643,
15.0,R14: If ((((((Top Reached Chg Len >= X%<0.1) OR (Top Chg Len >= X%<0.27)) OR (Top Chg Len >= X%<0.0)) AND ((New Func >= X<248.17) OR (Reached Del Func >= X<50.83))) AND ((((Top Chg Len >= X%<0.46) OR (New Func >= X<650.46)) AND (Top Chg Len >= X%>0.38)) AND (Del Func >= X<1645.61))) OR ((New Func >= X>1943.14) OR (Reached Del Func >= X>244.29))) ,0.7289473684210526,0.186875,0.29748572249560007,0.23809523809523805,0.9243478260869565,0.3786556477754425,
16.0,R15: If ((Top Chg by Call >= X%<15.85) AND (((((Top > X% by Call Chg by >= 10%<38.43) OR (Del Func >= X<5254.55)) OR (Top Chg by Call >= X%<21.52)) AND ((Top Chg by Call >= X%<23.92) OR ((Top Chg by Call >= X%>20.84) AND (Top > X% by Call Chg by >= 10%<28.16)))) AND (Top Chg Len >= X%>0.95))) ,0.31052631578947365,0.609625,0.4114640755596548,0.2857142857142857,0.7834782608695652,0.41872894155919604,
17.0,R16: If (((Reached Del Func >= X>123.52) OR (Top Chg Len >= X%>0.51)) AND (((((Top Reached Chg Len >= X%<0.1) OR (Top Chg Len >= X%<0.27)) OR (Top Chg Len >= X%<0.0)) AND ((New Func >= X<248.17) AND (Reached Del Func >= X<50.83))) AND ((((Top Chg Len >= X%<0.46) OR (New Func >= X<650.46)) OR (Top Chg Len >= X%>0.38)) AND (Del Func >= X<2604.66)))) ,0.7526315789473684,0.16937500000000005,0.2765207463698313,0.19047619047619047,0.9669565217391303,0.31825987406983397,
18.0,R17: If (((Top > X% by Call Chg by >= 10%<12.12) AND ((Del Func >= X>5335.87) OR (Top Chg Len >= X%>0.95))) AND (Top > X% by Call Chg by >= 10%<16.36)) ,0.31842105263157894,0.604,0.4170033093689376,0.2857142857142857,0.7895652173913044,0.4195933456561922,


Results of fold 10 Cross Validation
index,Rule,training hit,training dismiss,training F-Measure,testing hit,testing dismiss,testing f-measure
1.0,R0: If (((Top Reached Chg Len >= X%<0.32) AND ((((Top > X% by Call Chg by >= 10%<4.35) AND (Reached Del Func >= X>225.54)) OR ((New Func >= X<1535.81) OR (Top Reached Chg Len >= X%<0.6))) AND (Top Chg Len >= X%>0.24))) AND ((Top > X% by Call Chg by >= 10%<2.29) AND ((Top Chg Len >= X%>0.94) OR (Top Chg Len >= X%>0.44)))) ,0.6078947368421053,0.26612499999999994,0.3701884065607334,0.19047619047619047,0.9217391304347826,0.31571109456440805,
2.0,R1: If ((Top Reached Chg Len >= X%<0.68) AND (Top Chg Len >= X%>0.63)) ,0.5605263157894738,0.31662500000000005,0.40466597163365264,0.19047619047619047,0.92,0.3156089193825043,
3.0,R2: If ((Top Reached Chg Len >= X%<0.68) AND (Top Chg Len >= X%>0.36)) ,0.5473684210526315,0.33275,0.4138916712762935,0.23809523809523805,0.871304347826087,0.373992236488504,
4.0,R3: If (((New Func >= X>441.1) AND (Reached Del Func >= X>195.75)) OR (New Func >= X>93.21)) ,0.48684210526315785,0.39725,0.43750651128871426,0.19047619047619047,0.8060869565217391,0.30813977645738977,
5.0,R4: If ((Del Func >= X>62.1) OR (Top Chg by Call >= X%>12.1)) ,0.4263157894736842,0.45875,0.4419386010555267,0.2857142857142857,0.7695652173913043,0.416715715126545,
6.0,R5: If ((Del Func >= X>62.1) OR (Top Reached Chg Len >= X%>1.0)) ,0.42894736842105263,0.45687500000000003,0.4424709421070222,0.2857142857142857,0.7695652173913043,0.416715715126545,
7.0,R6: If ((New Func >= X>35.28) AND (Del Func >= X<3947.28)) ,0.3973684210526316,0.49012500000000003,0.43889947293901366,0.2857142857142857,0.76,0.4153005464480874,
8.0,R7: If (((New Func >= X>28.74) AND (New Func >= X>181.55)) AND (((((Top > X% by Call Chg by >= 10%<37.72) OR (Del Func >= X<6548.1)) OR (Top Chg by Call >= X%>7.07)) OR (Top Chg by Call >= X%>10.78)) AND (((Top Reached Chg Len >= X%>0.31) AND ((Reached Del Func >= X<13.23) OR (Top Reached Chg Len >= X%<0.2))) OR ((Top Reached Chg Len >= X%<0.83) AND (Top > X% by Call Chg by >= 10%<19.92))))) ,0.6842105263157895,0.20599999999999996,0.31666075440463515,0.047619047619047616,0.9165217391304349,0.09053427246177632,
9.0,R8: If (((Top Chg Len >= X%>0.13) AND ((Top Chg Len >= X%>0.15) AND (((Top Chg by Call >= X%<18.22) OR (New Func >= X<449.39)) OR (Top Chg by Call >= X%>39.18)))) AND (Top Reached Chg Len >= X%<0.33)) ,0.5763157894736842,0.31537499999999996,0.40766506562783594,0.2857142857142857,0.8226086956521739,0.4241201524321901,
10.0,R9: If ((Top Reached Chg Len >= X%<0.68) AND (Top Chg Len >= X%>0.22)) ,0.5394736842105263,0.35262499999999997,0.42648175871503474,0.23809523809523805,0.8382608695652174,0.37085481264907283,
11.0,R10: If (((Top Reached Chg Len >= X%<0.32) AND ((((Top Chg by Call >= X%>31.14) OR (Del Func >= X>1785.45)) OR ((Del Func >= X<126.58) AND (Top > X% by Call Chg by >= 10%<2.34))) OR ((Top > X% by Call Chg by >= 10%>7.83) OR (Top Chg Len >= X%>0.41)))) AND ((Top > X% by Call Chg by >= 10%<2.29) AND ((Top Chg Len >= X%>0.94) OR (Top Chg Len >= X%>0.24)))) ,0.6,0.292625,0.39339028147318306,0.23809523809523805,0.8573913043478261,0.3726942848503174,
12.0,R11: If (((Top > X% by Call Chg by >= 10%<4.36) AND ((Reached Del Func >= X>267.58) OR ((Del Func >= X<1654.28) AND (Top Chg by Call >= X%<21.39)))) AND (New Func >= X>181.59)) ,0.6815789473684211,0.221375,0.3342020706890396,0.047619047619047616,0.9095652173913044,0.0905000865201592,
13.0,R12: If ((Top Chg Len >= X%>0.51) AND (Top Chg Len >= X%>0.49)) ,0.28421052631578947,0.62475,0.39068919094975463,0.2857142857142857,0.7434782608695653,0.4127942063971032,
14.0,R13: If ((Reached Del Func >= X<133.38) AND (Top Chg Len >= X%>0.49)) ,0.28157894736842104,0.6288750000000001,0.3889882866412793,0.2857142857142857,0.7269565217391303,0.410206084396467,
15.0,R14: If (((Top Chg Len >= X%>0.78) OR (((Top > X% by Call Chg by >= 10%>7.83) OR (Top Chg Len >= X%>0.41)) OR (((New Func >= X>1830.3) OR (Reached Del Func >= X>14.1)) AND ((Top Chg Len >= X%<0.9) OR (New Func >= X<556.13))))) AND ((Top > X% by Call Chg by >= 10%<2.29) AND ((Top Chg Len >= X%>0.94) OR (Top Chg Len >= X%>0.24)))) ,0.3342105263157895,0.5765,0.4231253792585315,0.2857142857142857,0.7608695652173914,0.41543026706231445,
16.0,R15: If ((((((Top Chg Len >= X%>0.81) AND (Top Chg by Call >= X%<27.94)) OR ((New Func >= X<1535.81) OR (Top Reached Chg Len >= X%<0.6))) OR (Top Chg Len >= X%>0.24)) AND (Top Chg Len >= X%>0.78)) AND ((Top > X% by Call Chg by >= 10%<2.29) AND ((Top Chg Len >= X%>0.94) AND (Top Chg Len >= X%>0.24)))) ,0.3526315789473684,0.5585,0.432308003350374,0.23809523809523805,0.826086956521739,0.3696498054474707,
17.0,R16: If (((Top Chg Len >= X%>0.78) AND ((((Top > X% by Call Chg by >= 10%>20.76) OR (Reached Del Func >= X<57.09)) OR (New Func >= X>591.41)) AND ((Top Chg Len >= X%>0.14) OR (Top Chg by Call >= X%>15.37)))) AND ((Top > X% by Call Chg by >= 10%<2.29) AND ((Top Chg Len >= X%>0.94) OR (Top Chg Len >= X%>0.24)))) ,0.34736842105263155,0.564875,0.430191618407483,0.23809523809523805,0.826086956521739,0.3696498054474707,
18.0,R17: If ((New Func >= X>181.59) AND (((((Top Chg by Call >= X%>31.14) AND (Del Func >= X>1785.45)) OR ((Del Func >= X<126.58) AND (Top > X% by Call Chg by >= 10%<2.34))) OR ((Top > X% by Call Chg by >= 10%>7.83) OR (Top Chg Len >= X%>0.41))) OR ((((Reached Del Func >= X>227.18) AND (Top Chg by Call >= X%>13.12)) OR (Top > X% by Call Chg by >= 10%>31.66)) OR ((Top Reached Chg Len >= X%>0.98) OR (Top Reached Chg Len >= X%<0.09))))) ,0.6605263157894736,0.25175000000000003,0.3645551180534522,0.09523809523809523,0.8826086956521739,0.17192462417954688,
19.0,R18: If ((((Reached Del Func >= X>146.08) AND (((Reached Del Func >= X<104.83) AND (Top Chg by Call >= X%<29.05)) AND ((Del Func >= X>2146.41) AND (Top > X% by Call Chg by >= 10%>1.78)))) AND ((Top > X% by Call Chg by >= 10%>39.05) AND (Top Chg Len >= X%>0.55))) OR (Top Chg Len >= X%>0.84)) ,0.2947368421052632,0.618,0.3991235151654942,0.2857142857142857,0.7765217391304347,0.4177289205940825,
20.0,R19: If (((New Func >= X>28.74) AND (New Func >= X>181.55)) AND (((((Top > X% by Call Chg by >= 10%<37.72) OR (Del Func >= X<6548.1)) OR (Top Chg by Call >= X%>7.07)) OR (Top Chg by Call >= X%>10.78)) AND (((Top Reached Chg Len >= X%>0.31) AND ((Reached Del Func >= X<13.23) OR (Top Reached Chg Len >= X%<0.2))) OR ((Top Reached Chg Len >= X%<0.83) OR (Top > X% by Call Chg by >= 10%<19.92))))) ,0.6631578947368422,0.25087499999999996,0.3640344626546609,0.09523809523809523,0.8843478260869566,0.171957560130194,


Results of fold 10 Cross Validation
index,Rule,training hit,training dismiss,training F-Measure,testing hit,testing dismiss,testing f-measure
1.0,R0: If ((Top Reached Chg Len >= X%<0.4) AND ((Top Chg Len >= X%>0.1) OR (New Func >= X>366.59))) ,0.5289473684210526,0.343125,0.41623854249179587,0.33333333333333326,0.7556521739130434,0.46260314080383286,
2.0,R1: If ((Top Chg Len >= X%>0.78) AND (Top Reached Chg Len >= X%<1.0)) ,0.5526315789473684,0.327125,0.4109764214084338,0.19047619047619047,0.9486956521739132,0.3172549162153321,
3.0,R2: If ((Top Reached Chg Len >= X%<0.2) AND ((Top Chg Len >= X%>0.43) OR (New Func >= X>366.59))) ,0.6578947368421053,0.22450000000000003,0.33476484447227944,0.23809523809523805,0.908695652173913,0.37732442679183964,
4.0,R3: If ((Top Chg Len >= X%>0.52) AND (Del Func >= X>19.27)) ,0.381578947368421,0.50225,0.43367673549597296,0.2857142857142857,0.76,0.4153005464480874,
5.0,R4: If ((New Func >= X<1182.82) AND (Del Func >= X>19.27)) ,0.3894736842105263,0.49487499999999995,0.4358932012111203,0.2857142857142857,0.76,0.4153005464480874,
6.0,R5: If ((New Func >= X<1756.25) AND (Del Func >= X>19.27)) ,0.38421052631578945,0.50025,0.4346181883098528,0.2857142857142857,0.76,0.4153005464480874,
7.0,R6: If ((Top Reached Chg Len >= X%<0.2) AND (((Top > X% by Call Chg by >= 10%<31.68) OR (Top > X% by Call Chg by >= 10%<6.29)) AND (Top Chg Len >= X%>0.91))) ,0.6763157894736842,0.20950000000000002,0.31990434033451176,0.19047619047619047,0.9730434782608696,0.3185878501014271,
8.0,R7: If ((Top Chg Len >= X%>0.78) AND (Top Reached Chg Len >= X%<0.2)) ,0.6710526315789473,0.21587500000000004,0.32666360069132805,0.19047619047619047,0.9730434782608696,0.3185878501014271,
9.0,R8: If ((Top Reached Chg Len >= X%<0.57) AND ((Top Chg Len >= X%>0.1) OR (Top Chg Len >= X%>0.7))) ,0.5157894736842106,0.37375,0.4334294800680423,0.33333333333333326,0.7417391304347825,0.45996225397681306,
10.0,R9: If ((Top Reached Chg Len >= X%<0.2) AND (((Top > X% by Call Chg by >= 10%>31.68) OR (Top > X% by Call Chg by >= 10%<6.29)) AND (Top Chg Len >= X%>0.91))) ,0.6842105263157895,0.20662499999999995,0.3173986573810807,0.19047619047619047,0.9747826086956521,0.318680928183078,
11.0,R10: If ((Top Reached Chg Len >= X%<0.14) AND (((Top > X% by Call Chg by >= 10%<31.68) OR (Top > X% by Call Chg by >= 10%<30.34)) AND (Top Chg Len >= X%>0.91))) ,0.7052631578947368,0.18837499999999996,0.2973327541908078,0.19047619047619047,0.9817391304347826,0.3190504786463669,
12.0,R11: If ((New Func >= X>77.41) OR (New Func >= X>115.71)) ,0.46578947368421053,0.429125,0.44670616862828705,0.23809523809523805,0.7904347826086958,0.36595676154434553,
13.0,R12: If ((Top Reached Chg Len >= X%<0.9) AND ((Top Chg Len >= X%>0.1) OR (New Func >= X>366.59))) ,0.5052631578947369,0.39,0.4402116402116402,0.33333333333333326,0.7365217391304347,0.4589542129504199,
14.0,R13: If ((Top Reached Chg Len >= X%<0.2) AND ((Top Chg Len >= X%>0.1) OR (New Func >= X>99.96))) ,0.6236842105263158,0.27849999999999997,0.38505673365808124,0.33333333333333326,0.7634782608695653,0.464059196617336,
15.0,R14: If ((Del Func >= X<1800.16) AND (Top Chg Len >= X%>0.64)) ,0.2947368421052632,0.609625,0.3973607443457512,0.2857142857142857,0.7434782608695653,0.4127942063971032,
16.0,R15: If ((Top Chg Len >= X%>0.46) OR (((Del Func >= X>4611.53) AND (((New Func >= X>2120.65) OR (Top Reached Chg Len >= X%>0.26)) AND (Top Reached Chg Len >= X%<0.4))) AND ((((New Func >= X<2052.35) AND (Top Chg by Call >= X%<1.38)) OR ((Reached Del Func >= X<47.27) AND (Top Chg by Call >= X%<12.17))) AND (Top Chg by Call >= X%<32.04)))) ,0.28157894736842104,0.629625,0.3891316433579056,0.2857142857142857,0.7269565217391303,0.410206084396467,
17.0,R16: If ((Top Chg Len >= X%>0.42) AND (Top Chg by Call >= X%<10.51)) ,0.31842105263157894,0.5992500000000001,0.4158653915088253,0.33333333333333326,0.7330434782608696,0.45827670562652884,
18.0,R17: If ((Top Chg Len >= X%>0.78) AND (Top Chg by Call >= X%<10.51)) ,0.3315789473684211,0.5876250000000001,0.42394090996929557,0.2857142857142857,0.7982608695652174,0.42081136832454724,


Results of fold 10 Cross Validation
index,Rule,training hit,training dismiss,training F-Measure,testing hit,testing dismiss,testing f-measure
1.0,R0: If (((Reached Del Func >= X<5.69) OR ((Top > X% by Call Chg by >= 10%>21.62) OR (Reached Del Func >= X>200.8))) AND ((Top > X% by Call Chg by >= 10%>28.45) OR (Top Chg Len >= X%>0.98))) ,0.3631578947368421,0.481,0.4138537315293971,0.23809523809523805,0.86,0.37294015611448394,
2.0,R1: If (((Reached Del Func >= X<5.69) OR ((Top > X% by Call Chg by >= 10%>21.62) OR (Reached Del Func >= X>200.8))) AND ((Del Func >= X<6318.16) AND ((((Del Func >= X<3598.65) AND (Top > X% by Call Chg by >= 10%<2.01)) OR ((Reached Del Func >= X<236.36) AND (Top Chg Len >= X%<0.09))) AND (Top Chg Len >= X%>0.45)))) ,0.3789473684210526,0.4655,0.41778802704976786,0.23809523809523805,0.8347826086956522,0.37051331532226933,
3.0,R2: If ((Top Chg Len >= X%>0.84) AND ((((Del Func >= X<6669.3) OR (Top Chg Len >= X%<0.89)) AND (((Top > X% by Call Chg by >= 10%<12.19) AND (Del Func >= X<1640.3)) OR ((Top Chg Len >= X%>0.14) OR (Reached Del Func >= X>124.4)))) AND ((Top Reached Chg Len >= X%<0.92) OR (Top Chg by Call >= X%>22.52)))) ,0.5421052631578948,0.328375,0.40900138308405065,0.19047619047619047,0.9434782608695652,0.3169618404235896,
4.0,R3: If ((Top Reached Chg Len >= X%<0.54) AND (Top Chg Len >= X%>0.89)) ,0.5684210526315789,0.30362500000000003,0.3958204766467247,0.19047619047619047,0.9582608695652174,0.31778530747602907,
5.0,R4: If (((Del Func >= X<6318.16) AND ((((Del Func >= X<3598.65) AND (Top > X% by Call Chg by >= 10%<2.01)) OR ((Reached Del Func >= X<236.36) AND (Top Chg Len >= X%<0.09))) AND (Top Chg Len >= X%>0.45))) AND ((Top Reached Chg Len >= X%<0.97) AND ((((New Func >= X>1267.41) OR (Top Reached Chg Len >= X%>0.24)) OR (New Func >= X>358.94)) OR (((Top Chg Len >= X%>0.14) OR (Reached Del Func >= X>124.4)) OR ((New Func >= X>363.0) AND (Top Reached Chg Len >= X%<0.73)))))) ,0.55,0.32299999999999995,0.4069873997709049,0.19047619047619047,0.9043478260869565,0.3146747352496218,
6.0,R5: If (((Reached Del Func >= X<8.42) OR ((Top > X% by Call Chg by >= 10%>21.62) OR (Reached Del Func >= X>200.8))) AND ((Top Chg Len >= X%>0.94) OR (Top Chg by Call >= X%>14.21))) ,0.34736842105263155,0.530125,0.41971524752772177,0.23809523809523805,0.8356521739130435,0.37059889707300137,
7.0,R6: If ((Top Chg by Call >= X%>37.8) OR ((((Top Chg Len >= X%>0.84) AND ((Top Reached Chg Len >= X%<0.0) OR (Top Reached Chg Len >= X%<0.73))) OR (Reached Del Func >= X>174.18)) AND (New Func >= X<1756.85))) ,0.5605263157894738,0.31799999999999995,0.4057872034507548,0.19047619047619047,0.9521739130434783,0.31744881319079543,
8.0,R7: If ((Top Chg Len >= X%>0.69) AND ((Reached Del Func >= X<8.42) OR ((Top > X% by Call Chg by >= 10%>21.62) OR (Reached Del Func >= X>200.8)))) ,0.3421052631578947,0.5365,0.41779734627250126,0.23809523809523805,0.8026086956521739,0.3672462499502645,
9.0,R8: If (((Del Func >= X<6318.16) AND ((((Del Func >= X<3598.65) AND (Top > X% by Call Chg by >= 10%<2.01)) OR ((Reached Del Func >= X<236.36) AND (Top Chg Len >= X%<0.09))) AND (Top Chg Len >= X%>0.45))) AND ((Top Reached Chg Len >= X%<0.17) AND ((((New Func >= X>1267.41) OR (Top Reached Chg Len >= X%>0.24)) OR (New Func >= X>358.94)) OR (((Top > X% by Call Chg by >= 10%<12.19) AND (Del Func >= X<1640.3)) OR ((Top Chg Len >= X%>0.14) OR (Reached Del Func >= X>124.4)))))) ,0.6710526315789473,0.213125,0.32350533874028053,0.19047619047619047,0.9313043478260868,0.31626739507585544,
10.0,R9: If (((Del Func >= X<6318.16) AND ((Top Chg Len >= X%>0.45) AND ((Del Func >= X<6743.4) OR ((New Func >= X<363.0) OR (Top Reached Chg Len >= X%<0.73))))) AND (((Top > X% by Call Chg by >= 10%<26.55) AND (Top > X% by Call Chg by >= 10%<30.87)) AND (Top Reached Chg Len >= X%<0.17))) ,0.668421052631579,0.216125,0.3266364697919688,0.19047619047619047,0.9295652173913044,0.3161669562645569,
11.0,R10: If (((Top Reached Chg Len >= X%<0.17) AND ((((New Func >= X>1267.41) OR (Top Reached Chg Len >= X%>0.24)) OR (New Func >= X<358.94)) OR (((Top > X% by Call Chg by >= 10%<12.19) AND (Del Func >= X<1640.3)) OR ((Top Chg Len >= X%>0.14) OR (Reached Del Func >= X>124.4))))) AND ((Top Chg Len >= X%>0.94) OR (Top Chg by Call >= X%>14.21))) ,0.6868421052631579,0.201125,0.3111401708515163,0.19047619047619047,0.9782608695652173,0.31886625332152346,
12.0,R11: If (((New Func >= X<1411.8) AND (((Top Chg Len >= X%>0.07) AND (Reached Del Func >= X>170.43)) OR ((Top Chg Len >= X%>0.1) AND ((Top Reached Chg Len >= X%<0.0) OR (Top Reached Chg Len >= X%<0.73))))) OR (Top > X% by Call Chg by >= 10%>11.31)) ,0.5,0.39449999999999996,0.4410285075461151,0.33333333333333326,0.7278260869565217,0.45725211690794865,
13.0,R12: If (((New Func >= X<1411.8) AND (((Top Chg Len >= X%>0.59) AND (New Func >= X>59.41)) OR ((Top Chg Len >= X%>0.07) AND (Reached Del Func >= X>170.43)))) OR (Top > X% by Call Chg by >= 10%>11.31)) ,0.4447368421052632,0.451125,0.4479081449060373,0.2857142857142857,0.76,0.4153005464480874,
14.0,R13: If ((Top Chg by Call >= X%>37.8) OR ((((Top Chg Len >= X%>0.1) AND ((Top Reached Chg Len >= X%<0.0) OR (Top Reached Chg Len >= X%<0.73))) OR (Reached Del Func >= X>174.18)) AND (New Func >= X<1756.85))) ,0.513157894736842,0.38387499999999997,0.4392001408151141,0.33333333333333326,0.74,0.4596273291925465,
15.0,R14: If (((Del Func >= X<6318.16) AND ((((Del Func >= X<3598.65) AND (Top > X% by Call Chg by >= 10%<2.01)) OR ((Reached Del Func >= X<236.36) AND (Top Chg Len >= X%<0.09))) AND (Top Chg Len >= X%>0.45))) AND (((Top > X% by Call Chg by >= 10%<26.55) AND (Top Chg by Call >= X%<19.58)) OR (Top Reached Chg Len >= X%<0.17))) ,0.33684210526315794,0.565375,0.4221646966172514,0.23809523809523805,0.7773913043478261,0.36454085793508395,
16.0,R15: If ((Reached Del Func >= X<115.56) AND ((Top > X% by Call Chg by >= 10%<37.66) AND (((Top Chg Len >= X%>0.59) OR (New Func >= X>59.41)) OR ((Top Chg Len >= X%>0.07) AND (Reached Del Func >= X>170.43))))) ,0.28421052631578947,0.622,0.390149843187362,0.2857142857142857,0.7434782608695653,0.4127942063971032,
17.0,R16: If ((Top Chg Len >= X%>0.46) AND ((((Top > X% by Call Chg by >= 10%>25.08) OR ((Del Func >= X<240.68) AND (Top > X% by Call Chg by >= 10%>12.14))) OR (New Func >= X>415.37)) OR (((Reached Del Func >= X<5.8) AND (Del Func >= X<4730.63)) OR ((Top Chg by Call >= X%<39.53) AND ((Reached Del Func >= X<168.51) AND (Top > X% by Call Chg by >= 10%<7.86)))))) ,0.28157894736842104,0.62475,0.3881955836878094,0.2857142857142857,0.7321739130434782,0.41103246277764216,
18.0,R17: If ((New Func >= X>336.83) OR ((Reached Del Func >= X<227.27) AND ((Top Reached Chg Len >= X%<0.4) OR ((Del Func >= X<1912.92) AND ((Top > X% by Call Chg by >= 10%>22.6) OR (Del Func >= X>1926.48)))))) ,0.12105263157894741,0.7853749999999999,0.20977231323080056,0.9523809523809522,0.11130434782608695,0.1993148551853005,
19.0,R18: If (((New Func >= X<1411.8) AND (((Top Chg Len >= X%>0.59) OR (New Func >= X>59.41)) OR ((Top Chg Len >= X%>0.07) AND (Reached Del Func >= X>170.43)))) OR (Top > X% by Call Chg by >= 10%>11.31)) ,0.29210526315789476,0.616375,0.39636828422249426,0.2857142857142857,0.7434782608695653,0.4127942063971032,
20.0,R19: If ((Top Chg Len >= X%>0.46) AND (((New Func >= X>415.37) OR ((Top Reached Chg Len >= X%<0.43) AND ((Top Reached Chg Len >= X%<0.11) OR (Top Reached Chg Len >= X%<0.85)))) OR (((Reached Del Func >= X<5.8) AND (Del Func >= X<4730.63)) OR ((Top Chg by Call >= X%<39.53) AND ((Reached Del Func >= X<168.51) AND (Top > X% by Call Chg by >= 10%<7.86)))))) ,0.2894736842105263,0.6214999999999999,0.3949793454083254,0.2857142857142857,0.7365217391304347,0.41171466763883824,


Results of fold 10 Cross Validation
index,Rule,training hit,training dismiss,training F-Measure,testing hit,testing dismiss,testing f-measure
1.0,R0: If ((New Func >= X>52.11) AND (Top Reached Chg Len >= X%<0.42)) ,0.6947368421052631,0.16549999999999998,0.2673192817155618,0.19047619047619047,0.9504347826086956,0.3173520124850288,
2.0,R1: If ((Top Chg Len >= X%>0.68) AND ((((Top > X% by Call Chg by >= 10%>7.39) OR ((Top Chg Len >= X%>0.23) AND (Top Chg Len >= X%>0.94))) AND (Top Reached Chg Len >= X%<0.55)) OR (Top > X% by Call Chg by >= 10%>37.21))) ,0.5684210526315789,0.30374999999999996,0.3959266802443992,0.19047619047619047,0.9582608695652174,0.31778530747602907,
3.0,R2: If ((Top Chg Len >= X%>0.8) AND ((((Top > X% by Call Chg by >= 10%>1.08) OR ((Top Chg Len >= X%>0.23) OR (Top Chg Len >= X%>0.94))) AND (Top Reached Chg Len >= X%<0.55)) OR (Top > X% by Call Chg by >= 10%>37.21))) ,0.5631578947368421,0.310125,0.39998342612193855,0.19047619047619047,0.9582608695652174,0.31778530747602907,
4.0,R3: If ((Top Chg Len >= X%>0.68) AND ((Top > X% by Call Chg by >= 10%>37.21) OR (((Reached Del Func >= X<91.94) AND ((Top Reached Chg Len >= X%<0.6) OR (Top Reached Chg Len >= X%<0.53))) OR (Top Chg by Call >= X%>8.74)))) ,0.5342105263157895,0.3415,0.4166511404273222,0.19047619047619047,0.9034782608695652,0.3146220523108369,
5.0,R4: If ((Top Chg Len >= X%>0.47) AND ((((Top > X% by Call Chg by >= 10%>26.5) AND ((Del Func >= X>2685.04) OR (Top > X% by Call Chg by >= 10%>34.12))) OR (Top > X% by Call Chg by >= 10%>31.16)) OR (((Top Chg Len >= X%>0.7) OR (Top > X% by Call Chg by >= 10%>12.64)) AND (Top Reached Chg Len >= X%<0.19)))) ,0.6736842105263158,0.21087500000000003,0.32120666701375206,0.19047619047619047,0.9426086956521739,0.3169127320567169,
6.0,R5: If ((New Func >= X>52.11) OR (Top > X% by Call Chg by >= 10%>12.96)) ,0.4184210526315789,0.46887500000000004,0.4422135553759574,0.2857142857142857,0.76,0.4153005464480874,
7.0,R6: If (((Del Func >= X<1990.46) AND (New Func >= X>75.07)) AND (((Top > X% by Call Chg by >= 10%<29.13) AND (Top Chg Len >= X%<0.26)) OR (New Func >= X<1016.08))) ,0.47631578947368425,0.412625,0.44218873733523784,0.23809523809523805,0.8017391304347826,0.3671551449506212,
8.0,R7: If ((Top Reached Chg Len >= X%<0.75) AND ((((Top > X% by Call Chg by >= 10%>26.5) AND ((Del Func >= X>2685.04) OR (Top > X% by Call Chg by >= 10%>34.12))) AND (Top > X% by Call Chg by >= 10%>31.16)) OR (((Top Chg Len >= X%>0.7) OR (Top > X% by Call Chg by >= 10%>12.64)) AND (Top Reached Chg Len >= X%<0.19)))) ,0.6815789473684211,0.209125,0.3200506695620702,0.19047619047619047,0.9452173913043478,0.3170598315528494,
9.0,R8: If ((Reached Del Func >= X<20.92) AND (((((Top Reached Chg Len >= X%>0.33) OR (Top Chg Len >= X%>0.59)) OR (New Func >= X>2215.02)) OR (((Top Chg Len >= X%>0.47) AND (Reached Del Func >= X>206.94)) OR (Top Reached Chg Len >= X%>0.78))) OR (((Reached Del Func >= X<110.58) AND (New Func >= X>1791.8)) OR (Top Chg by Call >= X%>39.63)))) ,0.2947368421052632,0.598625,0.3949952500533909,0.23809523809523805,0.7573913043478261,0.36229774135851256,
10.0,R9: If ((New Func >= X>760.44) OR (Top Chg Len >= X%>0.53)) ,0.28421052631578947,0.6232500000000001,0.3903954064987603,0.2857142857142857,0.7434782608695653,0.4127942063971032,
11.0,R10: If ((New Func >= X>193.91) OR ((((Reached Del Func >= X<91.94) AND ((New Func >= X<1618.05) AND (Top Chg Len >= X%<0.49))) OR (Top Chg by Call >= X%>8.74)) AND (Top Chg by Call >= X%>34.49))) ,0.6631578947368422,0.24650000000000005,0.3594063702375098,0.09523809523809523,0.8817391304347825,0.17190811223192334,
12.0,R11: If ((Top Chg Len >= X%>0.47) AND ((((Top > X% by Call Chg by >= 10%>26.5) AND ((Del Func >= X>2685.04) OR (Top > X% by Call Chg by >= 10%>34.12))) OR (Top > X% by Call Chg by >= 10%>31.16)) OR (((Top Chg Len >= X%>0.7) OR (Top > X% by Call Chg by >= 10%>12.64)) OR (Top Reached Chg Len >= X%<0.19)))) ,0.28157894736842104,0.6287499999999999,0.3889643708896437,0.2857142857142857,0.7269565217391303,0.410206084396467,
13.0,R12: If ((Top Chg Len >= X%>0.68) AND ((Top > X% by Call Chg by >= 10%<5.49) OR (Del Func >= X>977.12))) ,0.32105263157894737,0.593125,0.4166024972113274,0.2857142857142857,0.7678260869565218,0.41646032307510905,
14.0,R13: If ((New Func >= X>52.11) OR (Top Reached Chg Len >= X%>0.42)) ,0.41315789473684206,0.50625,0.4549910554561717,0.2857142857142857,0.76,0.4153005464480874,
15.0,R14: If ((Top > X% by Call Chg by >= 10%>27.49) OR (Top Chg Len >= X%>0.19)) ,0.2605263157894737,0.66275,0.37402414171500237,0.33333333333333326,0.6617391304347826,0.44334401398193996,
16.0,R15: If ((((((Top Chg by Call >= X%>20.64) OR (Top Chg by Call >= X%>19.76)) OR ((Top > X% by Call Chg by >= 10%>19.66) OR (Reached Del Func >= X>97.54))) AND (Top > X% by Call Chg by >= 10%>9.33)) AND ((Top > X% by Call Chg by >= 10%<3.38) OR (Top > X% by Call Chg by >= 10%<4.32))) OR (Top Chg Len >= X%>0.28)) ,0.27368421052631575,0.649625,0.3851193148215443,0.33333333333333326,0.6782608695652174,0.4469914040114613,
17.0,R16: If (((Top Reached Chg Len >= X%>0.83) AND (((Top Chg by Call >= X%>23.18) AND (Top Chg Len >= X%>0.89)) OR (New Func >= X>548.47))) OR ((Top Reached Chg Len >= X%<0.25) AND (Top > X% by Call Chg by >= 10%<36.83))) ,0.2578947368421053,0.6705,0.37251055868930527,0.9523809523809522,0.16608695652173913,0.2828477287031209,
18.0,R17: If ((New Func >= X>52.11) OR (Top Reached Chg Len >= X%>0.11)) ,0.40263157894736845,0.528375,0.45701172330457274,0.2857142857142857,0.7460869565217392,0.413195280520106,
