

Results of fold 8 Cross Validation
index,Rule,training hit,training dismiss,training F-Measure,testing hit,testing dismiss,testing f-measure
1.0,R0: If (((Reached Del Func >= X<4.33) AND ((Reached Del Func >= X>220.8) OR (((Top > X% by Call Chg by >= 10%<21.38) AND (Top Chg Len >= X%>0.77)) OR ((Top Chg Len >= X%>0.84) AND (Top Chg Len >= X%>0.99))))) OR ((((New Func >= X>2101.21) AND (New Func >= X>927.38)) AND ((Top Chg Len >= X%<0.55) OR (New Func >= X<1521.45))) AND ((Top Reached Chg Len >= X%>0.51) AND ((Reached Del Func >= X>244.71) AND ((Top > X% by Call Chg by >= 10%<31.39) AND (Top > X% by Call Chg by >= 10%>27.1)))))) ,0.43023255813953487,0.4166146158650843,0.4233140936028611,0.7192982456140351,0.588646288209607,0.6474467860782774,
2.0,R1: If ((Top Chg Len >= X%>0.36) AND (((((New Func >= X<2283.91) AND (Top Chg by Call >= X%<38.47)) AND (Top Chg Len >= X%>0.44)) AND (Reached Del Func >= X<5.37)) OR ((Top > X% by Call Chg by >= 10%<3.76) AND (Top Chg Len >= X%<0.33)))) ,0.39534883720930236,0.4517176764522174,0.42165769807218095,0.7543859649122807,0.5222707423580786,0.6172273496477478,
3.0,R2: If (((Reached Del Func >= X<4.33) AND ((Reached Del Func >= X>220.8) OR (((Top Chg Len >= X%>0.94) OR (Top Chg Len >= X%>0.99)) OR ((Del Func >= X>3082.5) AND (Del Func >= X>577.47))))) OR ((((New Func >= X>2101.21) AND (New Func >= X>927.38)) AND ((Top Chg Len >= X%<0.55) OR (New Func >= X<1521.45))) AND ((Top Reached Chg Len >= X%>0.92) AND (New Func >= X>47.5)))) ,0.436046511627907,0.41249219237976265,0.42394243353056826,0.7192982456140351,0.6034934497816594,0.6563267386368902,
4.0,R3: If ((New Func >= X>109.15) AND (Top > X% by Call Chg by >= 10%<16.94)) ,0.5232558139534884,0.3394128669581512,0.4117449952600411,0.5087719298245614,0.6445414847161572,0.5686652229942475,
5.0,R4: If ((New Func >= X>48.59) AND ((Top Reached Chg Len >= X%<0.86) AND (Reached Del Func >= X<15.43))) ,0.686046511627907,0.18988132417239223,0.2974387038465046,0.3684210526315789,0.834061135371179,0.511085626911315,
6.0,R5: If ((Top Chg Len >= X%>0.54) AND ((Top Reached Chg Len >= X%<0.86) AND (Reached Del Func >= X<15.43))) ,0.5843023255813953,0.2979387882573392,0.3946456906824399,0.6140350877192983,0.7056768558951965,0.6566741359092544,
7.0,R6: If (((Top > X% by Call Chg by >= 10%<34.8) AND (((Top > X% by Call Chg by >= 10%>22.1) AND (Del Func >= X>5505.56)) OR (Top Chg Len >= X%>0.19))) AND (Top Reached Chg Len >= X%<0.4)) ,0.5813953488372092,0.3034353529044347,0.3987562875116556,0.6140350877192983,0.7240174672489083,0.6645062293880543,
8.0,R7: If ((Top Chg Len >= X%>0.54) AND (((Top Chg Len >= X%>0.25) OR (Top Chg by Call >= X%>5.23)) AND ((New Func >= X<1303.7) AND (Top Reached Chg Len >= X%<0.36)))) ,0.6395348837209303,0.24572142410993125,0.3550325956579597,0.5789473684210527,0.7799126637554585,0.6645693796089575,
9.0,R8: If ((New Func >= X>48.59) AND ((Del Func >= X<4666.88) AND ((((Top Chg by Call >= X%>12.03) AND (Del Func >= X<2964.01)) OR (New Func >= X<874.76)) OR ((Top > X% by Call Chg by >= 10%>22.1) AND (Del Func >= X>5505.56))))) ,0.47965116279069764,0.4094940662086196,0.441804777457803,0.543859649122807,0.6471615720524018,0.5910307209386095,
10.0,R9: If (((Top Chg Len >= X%>0.9) AND ((Top Chg Len >= X%>0.59) OR (Del Func >= X>11.49))) AND (((Top Chg Len >= X%>0.25) OR (Top Chg by Call >= X%>5.23)) AND ((New Func >= X<1303.7) AND (Top Reached Chg Len >= X%<0.36)))) ,0.6540697674418605,0.23572767020612118,0.34655604951815183,0.5614035087719298,0.8069868995633187,0.6621579253818247,
11.0,R10: If ((New Func >= X>48.59) AND ((Del Func >= X<4666.88) AND (((New Func >= X<874.76) OR ((Top > X% by Call Chg by >= 10%>24.17) AND (Del Func >= X<1877.84))) OR ((Top > X% by Call Chg by >= 10%>22.1) AND (Del Func >= X>5505.56))))) ,0.48546511627906974,0.40512179887570265,0.4416694156441761,0.543859649122807,0.6524017467248907,0.5932064451674052,
12.0,R11: If ((Top Chg Len >= X%>0.54) AND ((Top Reached Chg Len >= X%<0.86) OR (Reached Del Func >= X<15.43))) ,0.3575581395348837,0.5364147407870081,0.4290945753652583,0.8421052631578947,0.4419213973799126,0.5796520369442256,
13.0,R12: If (((Top > X% by Call Chg by >= 10%<38.46) AND (((Top > X% by Call Chg by >= 10%>22.1) AND (Top Reached Chg Len >= X%>0.48)) OR (Top Chg Len >= X%>0.19))) AND (Top Reached Chg Len >= X%<0.68)) ,0.563953488372093,0.33666458463460336,0.4216285961976573,0.6140350877192983,0.6812227074235808,0.6458863192760396,
14.0,R13: If (((Reached Del Func >= X<4.33) AND ((Reached Del Func >= X>220.8) OR (((Top Chg Len >= X%>0.94) AND (Top Chg Len >= X%>0.99)) OR ((Del Func >= X>3082.5) AND (Del Func >= X>577.47))))) OR ((((New Func >= X>2101.21) AND (New Func >= X>927.38)) OR ((Top Chg Len >= X%<0.55) OR (New Func >= X<1521.45))) AND ((Top Reached Chg Len >= X%>0.92) AND (New Func >= X>47.5)))) ,0.34883720930232553,0.5526545908806996,0.4277054658773408,0.8245614035087719,0.48034934497816595,0.6070568895673106,
15.0,R14: If ((Del Func >= X<1883.42) AND ((Top Chg by Call >= X%>7.55) OR ((((Top Chg by Call >= X%<7.81) OR (Top Chg by Call >= X%<1.64)) OR (Top Chg by Call >= X%<5.54)) AND (Top Chg Len >= X%>0.54)))) ,0.3343023255813954,0.569893816364772,0.4214059744496071,0.8596491228070176,0.43580786026200874,0.5783933386951791,
16.0,R15: If ((Del Func >= X<1883.42) AND ((Top Chg by Call >= X%>7.55) OR ((Top Chg Len >= X%>0.54) AND ((Top Chg Len >= X%<0.55) OR (New Func >= X<1521.45))))) ,0.33720930232558144,0.5681449094316052,0.4232238521482561,0.8245614035087719,0.4489082969432314,0.5813290339658055,
17.0,R16: If ((Del Func >= X<3386.18) AND (((Top Chg Len >= X%>0.25) OR (Top Chg by Call >= X%>5.23)) AND ((New Func >= X<1303.7) AND (Top Reached Chg Len >= X%<0.36)))) ,0.625,0.28344784509681453,0.390016673255754,0.5789473684210527,0.7502183406113538,0.653548208604233,
18.0,R17: If (((Reached Del Func >= X<4.33) AND ((Reached Del Func >= X>220.8) OR (((Top Chg Len >= X%>0.94) AND (Top Chg Len >= X%>0.99)) OR ((Del Func >= X>3082.5) AND (Del Func >= X>577.47))))) OR ((((New Func >= X>2101.21) AND (New Func >= X>927.38)) OR (((Top Chg by Call >= X%<7.81) OR (Top Chg by Call >= X%<1.64)) OR (Top Chg by Call >= X%<5.54))) AND ((Top Reached Chg Len >= X%>0.92) AND (New Func >= X>47.5)))) ,0.3808139534883721,0.5290443472829481,0.4428546055769419,0.8070175438596491,0.48209606986899556,0.6036085292509566,
19.0,R18: If ((Top Chg Len >= X%>0.27) AND (Top Reached Chg Len >= X%<0.22)) ,0.6773255813953488,0.23372891942535912,0.3475326143410226,0.5263157894736842,0.7772925764192141,0.6276445698166432,
20.0,R19: If ((((Top Chg Len >= X%>0.95) OR (Top Chg Len >= X%>0.46)) OR (Top Reached Chg Len >= X%>0.4)) AND ((Reached Del Func >= X<63.45) OR ((((New Func >= X<742.24) AND (Top Chg by Call >= X%<20.49)) AND (New Func >= X<215.66)) OR (Top Chg by Call >= X%>14.87)))) ,0.33139534883720934,0.5798875702685822,0.4217615399267879,0.8596491228070176,0.40262008733624455,0.5483964943798402,


Results of fold 8 Cross Validation
index,Rule,training hit,training dismiss,training F-Measure,testing hit,testing dismiss,testing f-measure
1.0,R0: If ((New Func >= X>15.43) AND ((Del Func >= X<2662.13) AND (Top Reached Chg Len >= X%<0.77))) ,0.6395348837209303,0.22161149281698933,0.3291618803756162,0.38596491228070173,0.8253275109170306,0.5259629371956233,
2.0,R1: If ((New Func >= X>15.43) AND ((Reached Del Func >= X<251.52) AND (((Top Chg by Call >= X%>25.73) OR (Top Chg by Call >= X%<24.61)) AND (Top Reached Chg Len >= X%<0.23)))) ,0.7325581395348837,0.13304184884447223,0.22518690059657165,0.3157894736842105,0.903056768558952,0.46794388293860306,
3.0,R2: If ((Top Chg Len >= X%>0.52) AND (((Top > X% by Call Chg by >= 10%>8.82) OR ((Reached Del Func >= X<7.16) OR (Top Reached Chg Len >= X%<0.88))) AND (Top Chg by Call >= X%<11.04))) ,0.3982558139534884,0.46908182386008745,0.43077702483456537,0.7368421052631579,0.5117903930131005,0.604034751877485,
4.0,R3: If ((New Func >= X>15.43) AND ((Reached Del Func >= X<251.52) AND (((Top Chg by Call >= X%>25.73) OR (Top Chg Len >= X%>0.98)) AND (Top Reached Chg Len >= X%<0.23)))) ,0.7441860465116279,0.12617114303560273,0.2157615407723889,0.2982456140350877,0.9170305676855895,0.45010401563386504,
5.0,R4: If ((Del Func >= X<5457.2) AND (((Del Func >= X>3842.74) AND ((Del Func >= X>3475.58) OR ((New Func >= X>2051.03) OR (Reached Del Func >= X>207.75)))) OR (New Func >= X>99.12))) ,0.5116279069767442,0.35940037476577136,0.42221191977880135,0.5263157894736842,0.6122270742358079,0.5660301182930276,
6.0,R5: If ((New Func >= X>15.43) AND ((Del Func >= X<1542.66) AND (Del Func >= X<1402.52))) ,0.3924418604651163,0.48919425359150526,0.43550916290156555,0.6140350877192983,0.6008733624454149,0.6073829312280082,
7.0,R6: If ((New Func >= X>15.43) AND ((Reached Del Func >= X<251.52) AND (((Top Chg by Call >= X%>25.73) OR (Top Chg Len >= X%>0.98)) OR (Top Reached Chg Len >= X%<0.23)))) ,0.3866279069767442,0.4966895690193629,0.43480187748030863,0.6140350877192983,0.5720524017467249,0.5923007363389743,
8.0,R7: If ((Top Chg Len >= X%>0.46) AND ((Del Func >= X<4860.9) AND (Top Reached Chg Len >= X%<0.54))) ,0.5901162790697674,0.29356652092442226,0.3920827314699712,0.5964912280701754,0.7292576419213974,0.656226524125975,
9.0,R8: If (((Del Func >= X<5594.53) AND (Del Func >= X<1402.52)) AND (Del Func >= X>52.99)) ,0.44476744186046513,0.43897564022485946,0.4418525621296353,0.5964912280701754,0.6148471615720524,0.6055301171291964,
10.0,R9: If ((Del Func >= X>52.99) OR ((Reached Del Func >= X<251.52) AND (((Top Chg by Call >= X%>25.73) OR (Top Chg Len >= X%>0.98)) AND (Top Reached Chg Len >= X%<0.23)))) ,0.3517441860465116,0.5336664584634603,0.42401585121318297,0.8070175438596491,0.4978165938864629,0.6157820573038986,
11.0,R10: If ((Del Func >= X>52.99) AND ((Reached Del Func >= X<251.52) OR (((Top Chg by Call >= X%>25.73) AND (Top Chg Len >= X%>0.98)) AND (Top Reached Chg Len >= X%<0.83)))) ,0.438953488372093,0.4483447845096814,0.4435994370073149,0.5964912280701754,0.5860262008733624,0.5912124078417145,
12.0,R11: If ((Top Chg Len >= X%>0.46) AND ((Del Func >= X<2662.13) AND (Top Reached Chg Len >= X%<0.77))) ,0.5843023255813953,0.30306058713304185,0.3991129295954368,0.5964912280701754,0.6986899563318777,0.6435584999408495,
13.0,R12: If ((New Func >= X>15.43) OR ((Reached Del Func >= X<251.52) AND (((Top Chg by Call >= X%>25.73) OR (Top Chg Len >= X%>0.98)) AND (Top Reached Chg Len >= X%>0.23)))) ,0.38372093023255816,0.5049344159900062,0.4360608522386425,0.6491228070175439,0.5100436681222708,0.5712397393361797,
14.0,R13: If ((Top Chg Len >= X%>0.46) AND ((Reached Del Func >= X<251.52) AND (((Top Chg by Call >= X%>25.73) OR (Top Chg Len >= X%>0.98)) AND (Top Reached Chg Len >= X%<0.23)))) ,0.6976744186046512,0.1930043722673329,0.30236312931161013,0.5087719298245614,0.8288209606986899,0.6305069990148685,
15.0,R14: If ((New Func >= X>15.43) AND ((Top > X% by Call Chg by >= 10%<0.65) OR ((Reached Del Func >= X<218.79) AND (Del Func >= X>857.47)))) ,0.4651162790697675,0.42760774515927547,0.44557403616790714,0.40350877192982454,0.674235807860262,0.5048692759351142,
16.0,R15: If ((Del Func >= X>52.99) AND ((Reached Del Func >= X<251.52) AND (((Top Chg by Call >= X%>25.73) OR (Top Chg Len >= X%>0.98)) AND (Top Reached Chg Len >= X%<0.23)))) ,0.7848837209302326,0.10805746408494687,0.18996221903201005,0.2982456140350877,0.9170305676855895,0.45010401563386504,
17.0,R16: If ((New Func >= X>15.43) AND ((Top > X% by Call Chg by >= 10%<0.65) OR ((Reached Del Func >= X>218.79) AND (Del Func >= X>857.47)))) ,0.4883720930232558,0.4057464084946908,0.4432415220506289,0.40350877192982454,0.6951965065502184,0.510633550420461,
18.0,R17: If (((((Top Reached Chg Len >= X%>0.85) OR ((Top > X% by Call Chg by >= 10%<18.89) OR (Top Chg Len >= X%<0.44))) OR ((Reached Del Func >= X<235.94) OR (Top Reached Chg Len >= X%<0.69))) AND ((Top Chg Len >= X%>0.27) OR (Reached Del Func >= X>166.94))) AND ((Del Func >= X<4860.9) AND (Top Reached Chg Len >= X%<0.54))) ,0.5784883720930232,0.31842598376014986,0.41075433295368824,0.5964912280701754,0.714410480349345,0.6501472719622237,
19.0,R18: If ((Top Chg Len >= X%>0.46) AND (((Top Chg by Call >= X%>38.03) OR (((Top Chg by Call >= X%<5.47) AND (Top Reached Chg Len >= X%<0.49)) OR (Top > X% by Call Chg by >= 10%<1.16))) OR ((New Func >= X>1632.34) OR (Top Chg by Call >= X%>12.59)))) ,0.375,0.5261711430356028,0.4379061184176327,0.7017543859649122,0.48384279475982533,0.5727726227092972,
20.0,R19: If ((Top Chg Len >= X%>0.46) AND (((Del Func >= X>5001.21) OR (((Top Chg by Call >= X%<5.47) AND (Top Reached Chg Len >= X%<0.49)) OR (Top > X% by Call Chg by >= 10%<1.16))) OR ((New Func >= X>1632.34) OR (Top Chg by Call >= X%>27.57)))) ,0.3808139534883721,0.5204247345409119,0.43980579903205747,0.6842105263157895,0.5039301310043668,0.5803930671618693,
21.0,R20: If ((New Func >= X>15.43) OR ((Reached Del Func >= X<251.52) AND (((Top Chg by Call >= X%>25.73) OR (Top Chg Len >= X%>0.98)) AND (Top Reached Chg Len >= X%<0.23)))) ,0.3401162790697675,0.5636477201748906,0.42423855221554274,0.8245614035087719,0.48384279475982533,0.6098392139870951,


Results of fold 8 Cross Validation
index,Rule,training hit,training dismiss,training F-Measure,testing hit,testing dismiss,testing f-measure
1.0,R0: If ((New Func >= X>11.61) AND ((Del Func >= X<1912.22) AND ((Reached Del Func >= X<239.68) OR (Top > X% by Call Chg by >= 10%<33.18)))) ,0.38372093023255816,0.49756402248594633,0.4332894348635164,0.6842105263157895,0.5895196506550219,0.6333453626849513,
2.0,R1: If ((New Func >= X>11.61) AND ((Del Func >= X<1912.22) AND ((Reached Del Func >= X<239.68) AND (Top > X% by Call Chg by >= 10%<33.18)))) ,0.3866279069767442,0.4959400374765771,0.4345144413653206,0.6666666666666665,0.5903930131004367,0.6262158406669753,
3.0,R2: If ((New Func >= X>58.38) OR ((Del Func >= X>2077.18) AND (Top > X% by Call Chg by >= 10%>15.05))) ,0.4476744186046512,0.4364772017489069,0.4420049073686926,0.5263157894736842,0.6122270742358079,0.5660301182930276,
4.0,R3: If (((Top Chg Len >= X%>0.68) OR (New Func >= X>238.22)) AND ((Top > X% by Call Chg by >= 10%>3.5) OR (((Reached Del Func >= X<210.75) AND (Top Reached Chg Len >= X%<0.88)) OR (Top Chg Len >= X%<0.45)))) ,0.563953488372093,0.32654590880699563,0.4136032095444636,0.6491228070175439,0.634061135371179,0.6415035762475074,
5.0,R4: If ((New Func >= X>11.61) AND ((Del Func >= X<1912.22) AND (((Top Reached Chg Len >= X%<0.96) OR (Top Chg Len >= X%>0.53)) AND (Top Chg Len >= X%>0.17)))) ,0.39534883720930236,0.495315427857589,0.4397220953747798,0.6666666666666665,0.6034934497816594,0.6335090534036213,
6.0,R5: If (((((Top Reached Chg Len >= X%>0.96) OR (Top Chg Len >= X%>0.53)) OR (Top Chg Len >= X%>0.17)) AND (Reached Del Func >= X<10.09)) AND ((Del Func >= X<1912.22) AND ((Del Func >= X<4098.43) AND (New Func >= X<1908.9)))) ,0.33720930232558144,0.5536539662710807,0.4191378728413803,0.8070175438596491,0.4270742358078603,0.5585587822653737,
7.0,R6: If ((((Del Func >= X<2412.74) OR ((New Func >= X<2163.11) OR ((Top > X% by Call Chg by >= 10%<4.29) AND (Del Func >= X<4387.66)))) AND (((Top > X% by Call Chg by >= 10%<10.04) AND ((Del Func >= X>3284.89) OR (Top Reached Chg Len >= X%<0.06))) OR (Del Func >= X>59.85))) AND (Del Func >= X>122.19)) ,0.5930232558139534,0.29906308557151784,0.39761031297475,0.43859649122807015,0.7056768558951965,0.540967582115933,
8.0,R7: If ((New Func >= X>4.7) AND ((Top Reached Chg Len >= X%<0.28) AND (Reached Del Func >= X<48.52))) ,0.6773255813953488,0.2159900062460962,0.32753387174733056,0.49122807017543857,0.8122270742358079,0.6122017162336899,
9.0,R8: If ((((Del Func >= X<2412.74) OR ((New Func >= X<2163.11) OR ((Del Func >= X<6249.19) AND (Del Func >= X<4387.66)))) AND (((Top > X% by Call Chg by >= 10%>10.04) AND ((Del Func >= X>3284.89) OR (Top Reached Chg Len >= X%<0.06))) OR (Del Func >= X>59.85))) AND (New Func >= X<936.08)) ,0.47965116279069764,0.4147407870081199,0.44484054399174955,0.543859649122807,0.6724890829694323,0.6013730553631039,
10.0,R9: If (((((Top Reached Chg Len >= X%>0.96) OR (Top Chg Len >= X%>0.53)) OR (Top Chg Len >= X%>0.17)) AND (Reached Del Func >= X<78.76)) AND ((Del Func >= X<1912.22) AND (((Top Reached Chg Len >= X%>0.96) OR (Top Chg Len >= X%>0.53)) AND (Top Chg Len >= X%>0.17)))) ,0.3343023255813954,0.5696439725171767,0.4213376506247954,0.8596491228070176,0.43580786026200874,0.5783933386951791,
11.0,R10: If (((((Top Reached Chg Len >= X%>0.96) AND (Top Chg Len >= X%>0.53)) OR (Top Chg Len >= X%>0.17)) AND (Reached Del Func >= X<78.76)) AND ((Top Reached Chg Len >= X%<0.28) AND (Reached Del Func >= X<48.52))) ,0.627906976744186,0.28357276702061207,0.39069945337774303,0.5964912280701754,0.7467248908296944,0.6632065248388752,
12.0,R11: If (((Top Chg Len >= X%>0.77) OR (Top Chg Len >= X%>0.48)) OR ((Top Reached Chg Len >= X%>0.47) AND (((New Func >= X<29.72) OR (Top > X% by Call Chg by >= 10%<6.61)) OR (Top Chg by Call >= X%<5.21)))) ,0.33139534883720934,0.5815115552779513,0.4221903106341169,0.8596491228070176,0.3921397379912664,0.5385933560185072,
13.0,R12: If ((Top Chg by Call >= X%<19.11) AND ((Top Reached Chg Len >= X%>0.66) OR ((((New Func >= X>108.73) OR (Del Func >= X>643.5)) AND ((Top Chg Len >= X%<0.27) OR (Top Chg by Call >= X%<3.54))) AND (((Top Chg by Call >= X%<35.12) OR (Top Chg by Call >= X%>9.43)) OR (Del Func >= X<5624.94))))) ,0.5406976744186047,0.3806371018113679,0.4467639799487446,0.49122807017543857,0.5842794759825327,0.5337284344592765,
14.0,R13: If (((((Top Reached Chg Len >= X%>0.9) OR (Top Chg Len >= X%>0.53)) OR (Top Chg Len >= X%>0.17)) AND (Reached Del Func >= X<78.76)) AND ((Del Func >= X<1912.22) AND ((Reached Del Func >= X<239.68) OR (Top > X% by Call Chg by >= 10%<3.84)))) ,0.3081395348837209,0.6169893816364772,0.41101043906567336,0.8771929824561403,0.3921397379912664,0.5419890636505197,
15.0,R14: If (((((Top Reached Chg Len >= X%>0.96) OR (Top Chg Len >= X%>0.53)) OR (Top Chg Len >= X%>0.17)) AND (Reached Del Func >= X<78.76)) AND ((Del Func >= X<1912.22) AND ((Reached Del Func >= X<239.68) AND (Top > X% by Call Chg by >= 10%<33.18)))) ,0.311046511627907,0.615365396627108,0.4132227970987962,0.8421052631578947,0.3947598253275109,0.5375353054853576,
16.0,R15: If ((New Func >= X>396.49) OR ((Top Reached Chg Len >= X%<0.28) AND (Reached Del Func >= X<48.52))) ,0.1598837209302325,0.766895690193629,0.2646026336835167,0.7894736842105263,0.29519650655021834,0.42971564181887534,
17.0,R16: If (((((Top Reached Chg Len >= X%>0.96) OR (Top Chg Len >= X%>0.53)) OR (Top Chg Len >= X%>0.17)) AND (Reached Del Func >= X<78.76)) AND ((Reached Del Func >= X<78.76) AND (((Reached Del Func >= X<60.92) OR (Top > X% by Call Chg by >= 10%<37.63)) AND ((Top > X% by Call Chg by >= 10%<11.18) OR ((Top Chg by Call >= X%>40.38) OR (Del Func >= X>3606.07)))))) ,0.31976744186046513,0.6081199250468456,0.41913913199344693,0.8070175438596491,0.40524017467248913,0.5395485224601229,
18.0,R17: If (((Top > X% by Call Chg by >= 10%<1.66) OR ((Top Reached Chg Len >= X%>0.64) OR ((New Func >= X>2176.07) OR (Reached Del Func >= X>240.02)))) AND ((Top Chg Len >= X%>0.21) OR (Top Reached Chg Len >= X%>0.06))) ,0.32558139534883723,0.605371642723298,0.4234321949271021,0.8070175438596491,0.39039301310043667,0.5262255435130329,
19.0,R18: If (((Del Func >= X<1912.22) AND ((Reached Del Func >= X<239.68) AND (Top > X% by Call Chg by >= 10%<33.18))) AND ((Top Chg Len >= X%>0.68) AND (New Func >= X>238.22))) ,0.752906976744186,0.18301061836352284,0.29444893889040863,0.10526315789473684,0.8960698689956332,0.18839515240543517,


Results of fold 8 Cross Validation
index,Rule,training hit,training dismiss,training F-Measure,testing hit,testing dismiss,testing f-measure
1.0,R0: If ((New Func >= X>153.74) OR ((Top Chg Len >= X%>0.98) AND ((Top Reached Chg Len >= X%<0.65) OR ((Top Reached Chg Len >= X%<0.74) AND ((Top Chg Len >= X%<0.42) OR (New Func >= X<1557.35)))))) ,0.3866279069767442,0.4794503435352905,0.42806497613983097,0.7192982456140351,0.5799126637554585,0.6421284775865933,
2.0,R1: If ((New Func >= X>153.74) OR ((Top Chg Len >= X%>0.98) AND ((Top Reached Chg Len >= X%<0.65) AND ((Top Reached Chg Len >= X%<0.74) AND ((Top > X% by Call Chg by >= 10%>39.62) OR (New Func >= X<1557.35)))))) ,0.38953488372093026,0.4768269831355403,0.4287832845290181,0.7192982456140351,0.5903930131004367,0.6485019361933619,
3.0,R2: If ((Top Reached Chg Len >= X%<0.51) AND (Top Chg Len >= X%>0.56)) ,0.5930232558139534,0.280949406620862,0.38126943552019465,0.5964912280701754,0.748471615720524,0.6638945533669784,
4.0,R3: If ((Top Reached Chg Len >= X%<0.51) AND (Top Chg Len >= X%>0.87)) ,0.6017441860465116,0.27507807620237357,0.37756028830539207,0.5789473684210527,0.776419213973799,0.6632978362612765,
5.0,R4: If (((New Func >= X>471.73) OR (Top Chg Len >= X%>0.78)) AND ((((Top Reached Chg Len >= X%<0.47) OR ((Top Chg by Call >= X%>6.81) OR (Reached Del Func >= X>6.16))) AND (((New Func >= X<770.03) AND (Top Chg by Call >= X%<10.45)) OR ((Top Reached Chg Len >= X%<0.32) OR (Reached Del Func >= X>245.82)))) OR (New Func >= X>556.6))) ,0.4883720930232558,0.3893816364772017,0.43329494002700764,0.6842105263157895,0.6462882096069869,0.664708930730696,
6.0,R5: If ((Top Reached Chg Len >= X%<0.51) AND (Top Chg Len >= X%>0.97)) ,0.6075581395348837,0.27083073079325426,0.3746527773471301,0.5789473684210527,0.776419213973799,0.6632978362612765,
7.0,R6: If ((Top > X% by Call Chg by >= 10%>2.04) OR ((Top Chg Len >= X%>0.98) AND ((Top Reached Chg Len >= X%<0.65) OR ((Top Reached Chg Len >= X%>0.74) AND ((New Func >= X>905.04) OR (Del Func >= X>4615.63)))))) ,0.5290697674418605,0.3500312304809494,0.4213189204551557,0.7192982456140351,0.6393013100436681,0.6769445916836775,
8.0,R7: If ((New Func >= X>153.74) OR ((Top > X% by Call Chg by >= 10%>20.62) AND (((New Func >= X<333.09) AND (Top Chg Len >= X%<0.17)) OR ((Del Func >= X>2491.8) OR ((New Func >= X>1657.26) AND (Top Chg Len >= X%<0.66)))))) ,0.6162790697674418,0.2675827607745159,0.3731480401066926,0.22807017543859648,0.7860262008733624,0.35355443076225734,
9.0,R8: If ((Top > X% by Call Chg by >= 10%>2.04) OR ((Top Chg Len >= X%>0.98) AND ((Top Reached Chg Len >= X%<0.65) OR ((Top Reached Chg Len >= X%<0.74) AND ((New Func >= X>905.04) OR (Del Func >= X>4615.63)))))) ,0.5726744186046512,0.3216739537788882,0.41195232226930084,0.7017543859649122,0.6585152838427948,0.679447610894591,
10.0,R9: If ((Top > X% by Call Chg by >= 10%<26.32) AND (((Top > X% by Call Chg by >= 10%<26.8) AND ((Top Chg by Call >= X%<20.79) AND ((Del Func >= X<1760.62) AND (New Func >= X<1139.76)))) AND (Top Chg Len >= X%>0.76))) ,0.3517441860465116,0.5539038101186758,0.43026086440480193,0.7719298245614035,0.468995633187773,0.5834866463346875,
11.0,R10: If ((Top > X% by Call Chg by >= 10%>31.24) OR ((Reached Del Func >= X<113.83) AND ((Top Chg by Call >= X%>21.85) OR (Top Chg Len >= X%>0.59)))) ,0.3343023255813954,0.5745159275452842,0.4226631892596232,0.8596491228070176,0.4131004366812227,0.5580381865022993,
12.0,R11: If ((Top > X% by Call Chg by >= 10%>2.04) OR ((Top Chg Len >= X%>0.98) AND ((((Top Chg by Call >= X%>11.33) AND (Reached Del Func >= X>99.14)) AND (Reached Del Func >= X>104.76)) OR ((Top Chg Len >= X%<0.73) OR ((Top Chg Len >= X%<0.58) OR (Reached Del Func >= X<39.21)))))) ,0.34883720930232553,0.5626483447845096,0.43066547249854176,0.8421052631578947,0.4419213973799126,0.5796520369442256,
13.0,R12: If (((New Func >= X>471.73) OR (Top Chg Len >= X%>0.78)) AND ((New Func >= X>556.6) OR ((Del Func >= X<3659.16) AND (New Func >= X<1750.58)))) ,0.34302325581395354,0.5690193628981886,0.4280213895226378,0.8421052631578947,0.42096069868995634,0.5613217847004877,
14.0,R13: If ((Top Chg Len >= X%>0.41) OR (Top Chg Len >= X%>0.82)) ,0.3284883720930233,0.5858838226108682,0.4209577330540028,0.8596491228070176,0.3921397379912664,0.5385933560185072,
15.0,R14: If (((New Func >= X>471.73) OR (Top Chg Len >= X%>0.78)) AND (((Top Chg by Call >= X%<12.08) AND ((Top > X% by Call Chg by >= 10%<1.07) OR ((Top > X% by Call Chg by >= 10%<6.88) AND (New Func >= X<2168.87)))) OR ((Top > X% by Call Chg by >= 10%>36.44) AND (Del Func >= X>5303.2)))) ,0.37790697674418605,0.5406620861961274,0.4448657867500145,0.7543859649122807,0.48034934497816595,0.5869578705714462,
16.0,R15: If (((New Func >= X>471.73) OR (Top Chg Len >= X%>0.78)) AND (((Top Chg by Call >= X%<12.08) AND ((New Func >= X<510.93) OR ((Top > X% by Call Chg by >= 10%<6.88) AND (New Func >= X<2168.87)))) OR ((Top > X% by Call Chg by >= 10%>36.44) AND (Del Func >= X>5303.2)))) ,0.375,0.5459088069956277,0.44459516744383215,0.7368421052631579,0.4663755458515284,0.5712102689486553,
17.0,R16: If (((Top Chg Len >= X%>0.58) OR ((((Del Func >= X<350.63) OR (Del Func >= X<5401.59)) AND ((Top Reached Chg Len >= X%<0.1) OR (Reached Del Func >= X>90.74))) AND ((Top Reached Chg Len >= X%>0.3) AND (Top Chg Len >= X%>0.67)))) AND ((Top Chg Len >= X%<0.73) OR (Top Reached Chg Len >= X%<0.12))) ,0.75,0.172891942535915,0.2810057189266014,0.43859649122807015,0.8480349344978166,0.5781689134473396,
18.0,R17: If ((Del Func >= X<4412.07) AND (Top Chg Len >= X%>0.28)) ,0.31976744186046513,0.606371018113679,0.4187229397339791,0.8596491228070176,0.39126637554585153,0.5377690131184086,
19.0,R18: If ((Top Chg by Call >= X%>22.24) OR ((Top Chg by Call >= X%>5.45) OR (((Top Reached Chg Len >= X%<0.47) OR ((Top Chg by Call >= X%>6.81) OR (Reached Del Func >= X<6.16))) AND (((Top Reached Chg Len >= X%<0.32) OR (Reached Del Func >= X>245.82)) OR ((Top > X% by Call Chg by >= 10%<6.88) AND (New Func >= X<2168.87)))))) ,0.02034883720930236,0.9151780137414116,0.03981245092053005,0.9298245614035088,0.06550218340611354,0.12238300492610836,
20.0,R19: If ((Top > X% by Call Chg by >= 10%<19.33) AND ((New Func >= X>556.6) OR ((Top Reached Chg Len >= X%<0.84) OR (((Top > X% by Call Chg by >= 10%<30.51) AND (Top Reached Chg Len >= X%<0.3)) OR ((Top Chg by Call >= X%<29.9) AND (Top Chg Len >= X%<0.75)))))) ,0.1598837209302325,0.7803872579637726,0.26539417119212055,0.7894736842105263,0.24628820960698689,0.37544934096658233,


Results of fold 8 Cross Validation
index,Rule,training hit,training dismiss,training F-Measure,testing hit,testing dismiss,testing f-measure
1.0,R0: If ((Reached Del Func >= X<10.86) AND (((Top Chg Len >= X%>0.26) AND ((Del Func >= X>719.13) OR (Reached Del Func >= X<249.02))) AND (Top Chg Len >= X%>0.55))) ,0.3633720930232558,0.5074328544659588,0.42348619843674995,0.8070175438596491,0.45938864628820963,0.585490974205101,
2.0,R1: If (((((Top Chg by Call >= X%<3.67) OR (Del Func >= X<1209.38)) OR (((Top Chg by Call >= X%>25.98) OR (Reached Del Func >= X>109.97)) AND (Top Chg by Call >= X%>9.51))) AND ((((Top Reached Chg Len >= X%>0.69) AND (Top Chg Len >= X%>0.75)) OR ((Top Chg Len >= X%>0.72) AND (Del Func >= X>5442.75))) OR (Top Chg Len >= X%>0.49))) AND (Reached Del Func >= X<1.83)) ,0.561046511627907,0.3134291068082449,0.40218001122064606,0.543859649122807,0.6986899563318777,0.6116283371354584,
3.0,R2: If ((Reached Del Func >= X<10.86) AND ((((Top > X% by Call Chg by >= 10%<2.36) AND ((Top Chg Len >= X%>0.98) AND (Reached Del Func >= X>231.03))) OR (Top > X% by Call Chg by >= 10%>12.75)) OR ((((Top Reached Chg Len >= X%>0.63) AND (Del Func >= X>4564.11)) AND (Top Chg Len >= X%>0.39)) OR ((Top Chg Len >= X%>0.48) AND (Reached Del Func >= X<98.98))))) ,0.36046511627906974,0.514053716427233,0.423772309378867,0.8070175438596491,0.44454148471615723,0.5732894237479035,
4.0,R3: If (((((Top Chg by Call >= X%<3.67) AND (Del Func >= X<1209.38)) AND (((Top Chg by Call >= X%>25.98) OR (Reached Del Func >= X>109.97)) AND (Top Chg by Call >= X%>38.83))) OR ((((Top Chg by Call >= X%<7.69) AND (Top Chg Len >= X%>0.75)) OR ((Top Chg Len >= X%>0.72) AND (Del Func >= X>5442.75))) AND (Top Chg Len >= X%>0.49))) AND (Reached Del Func >= X<1.83)) ,0.5813953488372092,0.2931917551530293,0.38980753771848814,0.49122807017543857,0.7388646288209607,0.5901198276076828,
5.0,R4: If (((((Top Chg by Call >= X%<3.67) OR (Top > X% by Call Chg by >= 10%>17.95)) OR (((Top Chg by Call >= X%>7.92) OR (Reached Del Func >= X>109.97)) AND (Top Chg by Call >= X%>38.83))) AND ((((Top Reached Chg Len >= X%>0.69) AND (Top Chg Len >= X%>0.75)) OR ((Top Chg Len >= X%>0.72) AND (Del Func >= X>5442.75))) OR (Top Chg Len >= X%>0.49))) AND (Reached Del Func >= X<1.83)) ,0.6191860465116279,0.2844472204871955,0.38981687887530425,0.5087719298245614,0.7161572052401746,0.5949089999374569,
6.0,R5: If (((((Top Chg by Call >= X%<3.67) AND (Del Func >= X<1209.38)) OR (((Top Chg by Call >= X%>25.98) OR (Reached Del Func >= X>109.97)) AND (Top Chg by Call >= X%>38.83))) AND ((((Top Reached Chg Len >= X%>0.69) OR (Top Chg Len >= X%>0.75)) OR ((Top Chg Len >= X%>0.72) AND (Del Func >= X>5442.75))) OR (Top Chg Len >= X%>0.49))) AND (Reached Del Func >= X<1.83)) ,0.622093023255814,0.28319800124921923,0.38921296248011367,0.5087719298245614,0.7179039301310044,0.595510810777052,
7.0,R6: If ((Del Func >= X<2834.66) AND (Top Chg Len >= X%>0.54)) ,0.3343023255813954,0.572267332916927,0.42205317253896457,0.8596491228070176,0.42096069868995634,0.5651658909534691,
8.0,R7: If ((Reached Del Func >= X<109.34) AND ((((Top Reached Chg Len >= X%>0.43) OR (Top Chg by Call >= X%<21.03)) OR (Top Chg Len >= X%>0.26)) AND (Top Chg Len >= X%>0.78))) ,0.34302325581395354,0.5686445971267957,0.42791532130534504,0.8421052631578947,0.4279475982532751,0.5674990951863916,
9.0,R8: If ((((((Reached Del Func >= X<74.15) AND (Top Chg by Call >= X%<25.52)) AND ((Top Reached Chg Len >= X%<0.61) AND (Del Func >= X>1830.35))) OR (Top Chg Len >= X%>0.71)) AND (Del Func >= X<5533.68)) AND (Reached Del Func >= X<31.37)) ,0.34883720930232553,0.5635227982510931,0.4309213878133279,0.8245614035087719,0.440174672489083,0.5739553929467066,
10.0,R9: If (((Top Chg by Call >= X%<24.34) AND (((Top Chg Len >= X%>0.09) AND ((Top Reached Chg Len >= X%>0.1) AND (Top Chg by Call >= X%>15.33))) OR (((Top Chg Len >= X%>0.56) OR (Top Chg Len >= X%>0.68)) AND (Top Chg by Call >= X%<26.73)))) AND (((Top Chg Len >= X%<0.14) OR (Top Chg Len >= X%>0.87)) AND (Reached Del Func >= X<38.34))) ,0.35465116279069764,0.5587757651467833,0.4339054800936023,0.8070175438596491,0.46026200873362444,0.5861998089687942,
11.0,R10: If ((((((Reached Del Func >= X<7.21) OR (Top Reached Chg Len >= X%<0.64)) AND (Top > X% by Call Chg by >= 10%>38.73)) AND (Del Func >= X>566.31)) OR ((Reached Del Func >= X>107.73) AND ((Top Chg Len >= X%<0.65) OR ((Reached Del Func >= X<66.5) AND (Top Chg Len >= X%<0.05))))) OR ((((Top > X% by Call Chg by >= 10%<2.36) AND ((Top Chg Len >= X%>0.98) AND (Reached Del Func >= X>231.03))) OR (Top > X% by Call Chg by >= 10%>12.75)) OR ((((Top Reached Chg Len >= X%>0.63) AND (Del Func >= X>4564.11)) AND (Top Chg Len >= X%>0.39)) OR ((Top Chg Len >= X%>0.48) AND (Reached Del Func >= X<98.98))))) ,0.33139534883720934,0.582261086820737,0.42238769071294624,0.8596491228070176,0.3921397379912664,0.5385933560185072,
12.0,R11: If (((Top Chg Len >= X%>0.8) AND ((((Top Chg Len >= X%>0.42) OR (Del Func >= X>6192.2)) OR (Reached Del Func >= X<201.46)) AND (Top Chg by Call >= X%>14.99))) OR (Top Chg Len >= X%>0.38)) ,0.3284883720930233,0.588257339163023,0.42156880221164045,0.8596491228070176,0.3921397379912664,0.5385933560185072,
13.0,R12: If ((Del Func >= X<2834.66) AND (Top Chg Len >= X%>0.28)) ,0.31976744186046513,0.6037476577139288,0.4180956957290742,0.8596491228070176,0.39126637554585153,0.5377690131184086,
14.0,R13: If (((((Top Chg by Call >= X%<3.67) AND (Del Func >= X<1209.38)) OR (((Top Chg by Call >= X%>25.98) OR (Reached Del Func >= X>109.97)) AND (Top Chg by Call >= X%>38.83))) AND ((((Top Reached Chg Len >= X%>0.69) AND (Top Chg Len >= X%>0.75)) OR ((Top Reached Chg Len >= X%<0.18) AND (Del Func >= X>5442.75))) OR (Top Chg Len >= X%>0.49))) AND (Top Chg by Call >= X%<1.84)) ,0.4825581395348837,0.44759525296689573,0.4644195984823818,0.6842105263157895,0.5213973799126638,0.5918102790910478,
15.0,R14: If ((Reached Del Func >= X<76.91) AND ((Reached Del Func >= X<2.17) AND ((((Top Chg by Call >= X%<39.08) OR (New Func >= X<2135.14)) OR (Top Chg by Call >= X%>0.53)) OR ((Top Chg Len >= X%<0.45) AND ((Top Chg Len >= X%>0.56) OR (Top Chg Len >= X%>0.68)))))) ,0.1598837209302325,0.77526545908807,0.2650963695551968,0.7894736842105263,0.25327510917030566,0.3835133348027331,
16.0,R15: If ((Top Chg Len >= X%>0.14) OR (((((Top Chg Len >= X%>0.68) OR (Top > X% by Call Chg by >= 10%>21.54)) AND (Del Func >= X<5262.9)) AND ((Top Reached Chg Len >= X%>0.01) OR (New Func >= X<78.79))) AND ((((New Func >= X>1248.83) AND (Top Chg by Call >= X%>31.77)) AND ((Top > X% by Call Chg by >= 10%>25.12) AND (Top Chg Len >= X%>0.24))) AND (Top Chg Len >= X%<0.24)))) ,0.2965116279069767,0.6396002498438476,0.4051842857641623,0.8771929824561403,0.3633187772925764,0.5138212988809564,
17.0,R16: If ((New Func >= X>236.61) OR ((((Top > X% by Call Chg by >= 10%>38.26) OR ((Del Func >= X<949.77) AND (Top Chg by Call >= X%<36.65))) AND ((Top > X% by Call Chg by >= 10%<40.03) OR (Del Func >= X<5856.94))) AND (Top > X% by Call Chg by >= 10%>19.85))) ,0.75,0.19000624609618988,0.30319944184192166,0.12280701754385964,0.862882096069869,0.21501297974537933,
18.0,R17: If ((New Func >= X>1695.44) OR (New Func >= X>432.79)) ,0.8372093023255813,0.10343535290443473,0.18412274849899934,0.10526315789473684,0.896943231441048,0.18841443838003943,
19.0,R18: If ((Top > X% by Call Chg by >= 10%>7.88) OR ((Reached Del Func >= X<2.17) AND ((((Top Chg by Call >= X%<39.08) AND (New Func >= X<2135.14)) OR (Top Chg by Call >= X%>0.53)) AND ((Top Chg by Call >= X%<12.18) AND (Del Func >= X<4766.7))))) ,0.15406976744186052,0.7870081199250468,0.2576920776471996,0.8070175438596491,0.23056768558951965,0.35866387075814404,
